[
  {
    "model":"field.score",
    "pk":1,
    "fields":{
      "description":"Partner Meets Expectations",
      "value":1
    }
  },
  {
    "model":"field.score",
    "pk":2,
    "fields":{
      "description":"Partner Medium Level - Some risk exposure",
      "value":3
    }
  },
  {
    "model":"field.score",
    "pk":3,
    "fields":{
      "description":"Partner Weak Level - High risk",
      "value":5
    }
  },
  {
    "model":"field.score",
    "pk":4,
    "fields":{
      "description":"No Field Response/Assessment Received",
      "value":5
    }
  },
  {
    "model":"field.score",
    "pk":5,
    "fields":{
      "description":"UN Agencies Agreement Not Implemented - National Fund Raising",
      "value":0
    }
  }
]
