[
    {
        "model": "common.permission",
        "pk": 1,
        "fields": {
            "created_date": "2020-09-22T03:59:50.232Z",
            "last_modified_date": "2020-09-22T03:59:50.232Z",
            "user": null,
            "permission": "VIEW_DASHBOARD",
            "description": ""
        }
    },
    {
        "model": "common.permission",
        "pk": 2,
        "fields": {
            "created_date": "2020-09-22T03:59:50.239Z",
            "last_modified_date": "2020-09-22T03:59:50.239Z",
            "user": null,
            "permission": "CAN_MANAGE_USERS",
            "description": ""
        }
    },
    {
        "model": "field.fieldoffice",
        "pk": 1,
        "fields": {
            "created_date": "2020-09-22T03:59:23.212Z",
            "last_modified_date": "2020-09-22T03:59:23.212Z",
            "user": null,
            "name": "Angola"
        }
    },
    {
        "model": "field.fieldoffice",
        "pk": 2,
        "fields": {
            "created_date": "2020-09-22T03:59:23.248Z",
            "last_modified_date": "2020-09-22T03:59:23.248Z",
            "user": null,
            "name": "Burundi"
        }
    },
    {
        "model": "field.fieldoffice",
        "pk": 3,
        "fields": {
            "created_date": "2020-09-22T03:59:23.258Z",
            "last_modified_date": "2020-09-22T03:59:23.258Z",
            "user": null,
            "name": "Burkina Faso"
        }
    },
    {
        "model": "field.fieldoffice",
        "pk": 4,
        "fields": {
            "created_date": "2020-09-22T03:59:23.266Z",
            "last_modified_date": "2020-09-22T03:59:23.266Z",
            "user": null,
            "name": "Central African Republic"
        }
    },
    {
        "model": "field.fieldoffice",
        "pk": 5,
        "fields": {
            "created_date": "2020-09-22T03:59:23.275Z",
            "last_modified_date": "2020-09-22T03:59:23.275Z",
            "user": null,
            "name": "Ivory Coast"
        }
    },
    {
        "model": "field.fieldoffice",
        "pk": 6,
        "fields": {
            "created_date": "2020-09-22T03:59:23.284Z",
            "last_modified_date": "2020-09-22T03:59:23.284Z",
            "user": null,
            "name": "Cameroon"
        }
    },
    {
        "model": "field.fieldoffice",
        "pk": 7,
        "fields": {
            "created_date": "2020-09-22T03:59:23.293Z",
            "last_modified_date": "2020-09-22T03:59:23.293Z",
            "user": null,
            "name": "Congo, Democratic Republic of"
        }
    },
    {
        "model": "field.fieldoffice",
        "pk": 8,
        "fields": {
            "created_date": "2020-09-22T03:59:23.301Z",
            "last_modified_date": "2020-09-22T03:59:23.301Z",
            "user": null,
            "name": "Congo, Republic of"
        }
    },
    {
        "model": "field.fieldoffice",
        "pk": 9,
        "fields": {
            "created_date": "2020-09-22T03:59:23.310Z",
            "last_modified_date": "2020-09-22T03:59:23.310Z",
            "user": null,
            "name": "Djibouti"
        }
    },
    {
        "model": "field.fieldoffice",
        "pk": 10,
        "fields": {
            "created_date": "2020-09-22T03:59:23.319Z",
            "last_modified_date": "2020-09-22T03:59:23.319Z",
            "user": null,
            "name": "Eritrea"
        }
    },
    {
        "model": "field.fieldoffice",
        "pk": 11,
        "fields": {
            "created_date": "2020-09-22T03:59:23.328Z",
            "last_modified_date": "2020-09-22T03:59:23.328Z",
            "user": null,
            "name": "Ethiopia"
        }
    },
    {
        "model": "field.fieldoffice",
        "pk": 12,
        "fields": {
            "created_date": "2020-09-22T03:59:23.337Z",
            "last_modified_date": "2020-09-22T03:59:23.337Z",
            "user": null,
            "name": "Ghana"
        }
    },
    {
        "model": "field.fieldoffice",
        "pk": 13,
        "fields": {
            "created_date": "2020-09-22T03:59:23.346Z",
            "last_modified_date": "2020-09-22T03:59:23.346Z",
            "user": null,
            "name": "Guinea"
        }
    },
    {
        "model": "field.fieldoffice",
        "pk": 14,
        "fields": {
            "created_date": "2020-09-22T03:59:23.355Z",
            "last_modified_date": "2020-09-22T03:59:23.355Z",
            "user": null,
            "name": "Kenya"
        }
    },
    {
        "model": "field.fieldoffice",
        "pk": 15,
        "fields": {
            "created_date": "2020-09-22T03:59:23.364Z",
            "last_modified_date": "2020-09-22T03:59:23.364Z",
            "user": null,
            "name": "Liberia"
        }
    },
    {
        "model": "field.fieldoffice",
        "pk": 16,
        "fields": {
            "created_date": "2020-09-22T03:59:23.373Z",
            "last_modified_date": "2020-09-22T03:59:23.373Z",
            "user": null,
            "name": "Mali"
        }
    },
    {
        "model": "field.fieldoffice",
        "pk": 17,
        "fields": {
            "created_date": "2020-09-22T03:59:23.382Z",
            "last_modified_date": "2020-09-22T03:59:23.382Z",
            "user": null,
            "name": "Mozambique"
        }
    },
    {
        "model": "field.fieldoffice",
        "pk": 18,
        "fields": {
            "created_date": "2020-09-22T03:59:23.391Z",
            "last_modified_date": "2020-09-22T03:59:23.391Z",
            "user": null,
            "name": "Malawi"
        }
    },
    {
        "model": "field.fieldoffice",
        "pk": 19,
        "fields": {
            "created_date": "2020-09-22T03:59:23.399Z",
            "last_modified_date": "2020-09-22T03:59:23.399Z",
            "user": null,
            "name": "Niger"
        }
    },
    {
        "model": "field.fieldoffice",
        "pk": 20,
        "fields": {
            "created_date": "2020-09-22T03:59:23.408Z",
            "last_modified_date": "2020-09-22T03:59:23.408Z",
            "user": null,
            "name": "Nigeria"
        }
    },
    {
        "model": "field.fieldoffice",
        "pk": 21,
        "fields": {
            "created_date": "2020-09-22T03:59:23.416Z",
            "last_modified_date": "2020-09-22T03:59:23.416Z",
            "user": null,
            "name": "Rwanda"
        }
    },
    {
        "model": "field.fieldoffice",
        "pk": 22,
        "fields": {
            "created_date": "2020-09-22T03:59:23.425Z",
            "last_modified_date": "2020-09-22T03:59:23.425Z",
            "user": null,
            "name": "Sudan"
        }
    },
    {
        "model": "field.fieldoffice",
        "pk": 23,
        "fields": {
            "created_date": "2020-09-22T03:59:23.433Z",
            "last_modified_date": "2020-09-22T03:59:23.433Z",
            "user": null,
            "name": "Senegal"
        }
    },
    {
        "model": "field.fieldoffice",
        "pk": 24,
        "fields": {
            "created_date": "2020-09-22T03:59:23.443Z",
            "last_modified_date": "2020-09-22T03:59:23.443Z",
            "user": null,
            "name": "Somalia"
        }
    },
    {
        "model": "field.fieldoffice",
        "pk": 25,
        "fields": {
            "created_date": "2020-09-22T03:59:23.452Z",
            "last_modified_date": "2020-09-22T03:59:23.452Z",
            "user": null,
            "name": "South Sudan"
        }
    },
    {
        "model": "field.fieldoffice",
        "pk": 26,
        "fields": {
            "created_date": "2020-09-22T03:59:23.460Z",
            "last_modified_date": "2020-09-22T03:59:23.460Z",
            "user": null,
            "name": "Chad"
        }
    },
    {
        "model": "field.fieldoffice",
        "pk": 27,
        "fields": {
            "created_date": "2020-09-22T03:59:23.469Z",
            "last_modified_date": "2020-09-22T03:59:23.469Z",
            "user": null,
            "name": "Togo"
        }
    },
    {
        "model": "field.fieldoffice",
        "pk": 28,
        "fields": {
            "created_date": "2020-09-22T03:59:23.478Z",
            "last_modified_date": "2020-09-22T03:59:23.478Z",
            "user": null,
            "name": "Tanzania, United Republic of"
        }
    },
    {
        "model": "field.fieldoffice",
        "pk": 29,
        "fields": {
            "created_date": "2020-09-22T03:59:23.486Z",
            "last_modified_date": "2020-09-22T03:59:23.486Z",
            "user": null,
            "name": "Uganda"
        }
    },
    {
        "model": "field.fieldoffice",
        "pk": 30,
        "fields": {
            "created_date": "2020-09-22T03:59:23.495Z",
            "last_modified_date": "2020-09-22T03:59:23.495Z",
            "user": null,
            "name": "South Africa"
        }
    },
    {
        "model": "field.fieldoffice",
        "pk": 31,
        "fields": {
            "created_date": "2020-09-22T03:59:23.504Z",
            "last_modified_date": "2020-09-22T03:59:23.504Z",
            "user": null,
            "name": "Zambia"
        }
    },
    {
        "model": "field.fieldoffice",
        "pk": 32,
        "fields": {
            "created_date": "2020-09-22T03:59:23.513Z",
            "last_modified_date": "2020-09-22T03:59:23.513Z",
            "user": null,
            "name": "Zimbabwe"
        }
    },
    {
        "model": "field.fieldoffice",
        "pk": 33,
        "fields": {
            "created_date": "2020-09-22T03:59:23.522Z",
            "last_modified_date": "2020-09-22T03:59:23.522Z",
            "user": null,
            "name": "Argentina"
        }
    },
    {
        "model": "field.fieldoffice",
        "pk": 34,
        "fields": {
            "created_date": "2020-09-22T03:59:23.531Z",
            "last_modified_date": "2020-09-22T03:59:23.531Z",
            "user": null,
            "name": "Brazil"
        }
    },
    {
        "model": "field.fieldoffice",
        "pk": 35,
        "fields": {
            "created_date": "2020-09-22T03:59:23.540Z",
            "last_modified_date": "2020-09-22T03:59:23.540Z",
            "user": null,
            "name": "Colombia"
        }
    },
    {
        "model": "field.fieldoffice",
        "pk": 36,
        "fields": {
            "created_date": "2020-09-22T03:59:23.550Z",
            "last_modified_date": "2020-09-22T03:59:23.550Z",
            "user": null,
            "name": "Costa Rica"
        }
    },
    {
        "model": "field.fieldoffice",
        "pk": 37,
        "fields": {
            "created_date": "2020-09-22T03:59:23.562Z",
            "last_modified_date": "2020-09-22T03:59:23.562Z",
            "user": null,
            "name": "Dominican Republic"
        }
    },
    {
        "model": "field.fieldoffice",
        "pk": 38,
        "fields": {
            "created_date": "2020-09-22T03:59:23.573Z",
            "last_modified_date": "2020-09-22T03:59:23.573Z",
            "user": null,
            "name": "Ecuador"
        }
    },
    {
        "model": "field.fieldoffice",
        "pk": 39,
        "fields": {
            "created_date": "2020-09-22T03:59:23.583Z",
            "last_modified_date": "2020-09-22T03:59:23.583Z",
            "user": null,
            "name": "Mexico"
        }
    },
    {
        "model": "field.fieldoffice",
        "pk": 40,
        "fields": {
            "created_date": "2020-09-22T03:59:23.594Z",
            "last_modified_date": "2020-09-22T03:59:23.594Z",
            "user": null,
            "name": "Panama"
        }
    },
    {
        "model": "field.fieldoffice",
        "pk": 41,
        "fields": {
            "created_date": "2020-09-22T03:59:23.604Z",
            "last_modified_date": "2020-09-22T03:59:23.604Z",
            "user": null,
            "name": "Peru"
        }
    },
    {
        "model": "field.fieldoffice",
        "pk": 42,
        "fields": {
            "created_date": "2020-09-22T03:59:23.614Z",
            "last_modified_date": "2020-09-22T03:59:23.614Z",
            "user": null,
            "name": "United States of America"
        }
    },
    {
        "model": "field.fieldoffice",
        "pk": 43,
        "fields": {
            "created_date": "2020-09-22T03:59:23.624Z",
            "last_modified_date": "2020-09-22T03:59:23.624Z",
            "user": null,
            "name": "Venezuela"
        }
    },
    {
        "model": "field.fieldoffice",
        "pk": 44,
        "fields": {
            "created_date": "2020-09-22T03:59:23.663Z",
            "last_modified_date": "2020-09-22T03:59:23.663Z",
            "user": null,
            "name": "Afghanistan"
        }
    },
    {
        "model": "field.fieldoffice",
        "pk": 45,
        "fields": {
            "created_date": "2020-09-22T03:59:23.699Z",
            "last_modified_date": "2020-09-22T03:59:23.699Z",
            "user": null,
            "name": "Bangladesh"
        }
    },
    {
        "model": "field.fieldoffice",
        "pk": 46,
        "fields": {
            "created_date": "2020-09-22T03:59:23.709Z",
            "last_modified_date": "2020-09-22T03:59:23.709Z",
            "user": null,
            "name": "Indonesia"
        }
    },
    {
        "model": "field.fieldoffice",
        "pk": 47,
        "fields": {
            "created_date": "2020-09-22T03:59:23.719Z",
            "last_modified_date": "2020-09-22T03:59:23.719Z",
            "user": null,
            "name": "India"
        }
    },
    {
        "model": "field.fieldoffice",
        "pk": 48,
        "fields": {
            "created_date": "2020-09-22T03:59:23.728Z",
            "last_modified_date": "2020-09-22T03:59:23.728Z",
            "user": null,
            "name": "Iran"
        }
    },
    {
        "model": "field.fieldoffice",
        "pk": 49,
        "fields": {
            "created_date": "2020-09-22T03:59:23.736Z",
            "last_modified_date": "2020-09-22T03:59:23.736Z",
            "user": null,
            "name": "Japan"
        }
    },
    {
        "model": "field.fieldoffice",
        "pk": 50,
        "fields": {
            "created_date": "2020-09-22T03:59:23.746Z",
            "last_modified_date": "2020-09-22T03:59:23.746Z",
            "user": null,
            "name": "Kazakhstan"
        }
    },
    {
        "model": "field.fieldoffice",
        "pk": 51,
        "fields": {
            "created_date": "2020-09-22T03:59:23.755Z",
            "last_modified_date": "2020-09-22T03:59:23.755Z",
            "user": null,
            "name": "Kyrgyztan"
        }
    },
    {
        "model": "field.fieldoffice",
        "pk": 52,
        "fields": {
            "created_date": "2020-09-22T03:59:23.764Z",
            "last_modified_date": "2020-09-22T03:59:23.764Z",
            "user": null,
            "name": "Sri Lanka"
        }
    },
    {
        "model": "field.fieldoffice",
        "pk": 53,
        "fields": {
            "created_date": "2020-09-22T03:59:23.773Z",
            "last_modified_date": "2020-09-22T03:59:23.773Z",
            "user": null,
            "name": "Myanmar"
        }
    },
    {
        "model": "field.fieldoffice",
        "pk": 54,
        "fields": {
            "created_date": "2020-09-22T03:59:23.782Z",
            "last_modified_date": "2020-09-22T03:59:23.782Z",
            "user": null,
            "name": "Malaysia"
        }
    },
    {
        "model": "field.fieldoffice",
        "pk": 55,
        "fields": {
            "created_date": "2020-09-22T03:59:23.791Z",
            "last_modified_date": "2020-09-22T03:59:23.791Z",
            "user": null,
            "name": "Nepal"
        }
    },
    {
        "model": "field.fieldoffice",
        "pk": 56,
        "fields": {
            "created_date": "2020-09-22T03:59:23.800Z",
            "last_modified_date": "2020-09-22T03:59:23.800Z",
            "user": null,
            "name": "Pakistan"
        }
    },
    {
        "model": "field.fieldoffice",
        "pk": 57,
        "fields": {
            "created_date": "2020-09-22T03:59:23.809Z",
            "last_modified_date": "2020-09-22T03:59:23.809Z",
            "user": null,
            "name": "Philippines"
        }
    },
    {
        "model": "field.fieldoffice",
        "pk": 58,
        "fields": {
            "created_date": "2020-09-22T03:59:23.818Z",
            "last_modified_date": "2020-09-22T03:59:23.818Z",
            "user": null,
            "name": "Thailand"
        }
    },
    {
        "model": "field.fieldoffice",
        "pk": 59,
        "fields": {
            "created_date": "2020-09-22T03:59:23.828Z",
            "last_modified_date": "2020-09-22T03:59:23.828Z",
            "user": null,
            "name": "Tajikistan"
        }
    },
    {
        "model": "field.fieldoffice",
        "pk": 60,
        "fields": {
            "created_date": "2020-09-22T03:59:23.837Z",
            "last_modified_date": "2020-09-22T03:59:23.837Z",
            "user": null,
            "name": "Albania"
        }
    },
    {
        "model": "field.fieldoffice",
        "pk": 61,
        "fields": {
            "created_date": "2020-09-22T03:59:23.847Z",
            "last_modified_date": "2020-09-22T03:59:23.847Z",
            "user": null,
            "name": "Armenia"
        }
    },
    {
        "model": "field.fieldoffice",
        "pk": 62,
        "fields": {
            "created_date": "2020-09-22T03:59:23.858Z",
            "last_modified_date": "2020-09-22T03:59:23.858Z",
            "user": null,
            "name": "Belgium"
        }
    },
    {
        "model": "field.fieldoffice",
        "pk": 63,
        "fields": {
            "created_date": "2020-09-22T03:59:23.868Z",
            "last_modified_date": "2020-09-22T03:59:23.868Z",
            "user": null,
            "name": "Bulgaria"
        }
    },
    {
        "model": "field.fieldoffice",
        "pk": 64,
        "fields": {
            "created_date": "2020-09-22T03:59:23.876Z",
            "last_modified_date": "2020-09-22T03:59:23.876Z",
            "user": null,
            "name": "Bosnia and Herzegovina"
        }
    },
    {
        "model": "field.fieldoffice",
        "pk": 65,
        "fields": {
            "created_date": "2020-09-22T03:59:23.885Z",
            "last_modified_date": "2020-09-22T03:59:23.885Z",
            "user": null,
            "name": "Belarus"
        }
    },
    {
        "model": "field.fieldoffice",
        "pk": 66,
        "fields": {
            "created_date": "2020-09-22T03:59:23.894Z",
            "last_modified_date": "2020-09-22T03:59:23.894Z",
            "user": null,
            "name": "SWITZERLAND & LIECHTENSTEIN"
        }
    },
    {
        "model": "field.fieldoffice",
        "pk": 67,
        "fields": {
            "created_date": "2020-09-22T03:59:23.903Z",
            "last_modified_date": "2020-09-22T03:59:23.903Z",
            "user": null,
            "name": "Cyprus"
        }
    },
    {
        "model": "field.fieldoffice",
        "pk": 68,
        "fields": {
            "created_date": "2020-09-22T03:59:23.912Z",
            "last_modified_date": "2020-09-22T03:59:23.912Z",
            "user": null,
            "name": "Czech Republic"
        }
    },
    {
        "model": "field.fieldoffice",
        "pk": 69,
        "fields": {
            "created_date": "2020-09-22T03:59:23.921Z",
            "last_modified_date": "2020-09-22T03:59:23.921Z",
            "user": null,
            "name": "Germany"
        }
    },
    {
        "model": "field.fieldoffice",
        "pk": 70,
        "fields": {
            "created_date": "2020-09-22T03:59:23.931Z",
            "last_modified_date": "2020-09-22T03:59:23.931Z",
            "user": null,
            "name": "France"
        }
    },
    {
        "model": "field.fieldoffice",
        "pk": 71,
        "fields": {
            "created_date": "2020-09-22T03:59:23.941Z",
            "last_modified_date": "2020-09-22T03:59:23.941Z",
            "user": null,
            "name": "United Kingdom"
        }
    },
    {
        "model": "field.fieldoffice",
        "pk": 72,
        "fields": {
            "created_date": "2020-09-22T03:59:23.951Z",
            "last_modified_date": "2020-09-22T03:59:23.951Z",
            "user": null,
            "name": "Georgia"
        }
    },
    {
        "model": "field.fieldoffice",
        "pk": 73,
        "fields": {
            "created_date": "2020-09-22T03:59:23.960Z",
            "last_modified_date": "2020-09-22T03:59:23.960Z",
            "user": null,
            "name": "Greece"
        }
    },
    {
        "model": "field.fieldoffice",
        "pk": 74,
        "fields": {
            "created_date": "2020-09-22T03:59:23.969Z",
            "last_modified_date": "2020-09-22T03:59:23.970Z",
            "user": null,
            "name": "Croatia"
        }
    },
    {
        "model": "field.fieldoffice",
        "pk": 75,
        "fields": {
            "created_date": "2020-09-22T03:59:23.979Z",
            "last_modified_date": "2020-09-22T03:59:23.979Z",
            "user": null,
            "name": "Hungary"
        }
    },
    {
        "model": "field.fieldoffice",
        "pk": 76,
        "fields": {
            "created_date": "2020-09-22T03:59:23.988Z",
            "last_modified_date": "2020-09-22T03:59:23.988Z",
            "user": null,
            "name": "Ireland"
        }
    },
    {
        "model": "field.fieldoffice",
        "pk": 77,
        "fields": {
            "created_date": "2020-09-22T03:59:23.997Z",
            "last_modified_date": "2020-09-22T03:59:23.997Z",
            "user": null,
            "name": "Italy"
        }
    },
    {
        "model": "field.fieldoffice",
        "pk": 78,
        "fields": {
            "created_date": "2020-09-22T03:59:24.006Z",
            "last_modified_date": "2020-09-22T03:59:24.006Z",
            "user": null,
            "name": "Moldova"
        }
    },
    {
        "model": "field.fieldoffice",
        "pk": 79,
        "fields": {
            "created_date": "2020-09-22T03:59:24.015Z",
            "last_modified_date": "2020-09-22T03:59:24.015Z",
            "user": null,
            "name": "Macedonia"
        }
    },
    {
        "model": "field.fieldoffice",
        "pk": 80,
        "fields": {
            "created_date": "2020-09-22T03:59:24.025Z",
            "last_modified_date": "2020-09-22T03:59:24.025Z",
            "user": null,
            "name": "Montenegro"
        }
    },
    {
        "model": "field.fieldoffice",
        "pk": 81,
        "fields": {
            "created_date": "2020-09-22T03:59:24.034Z",
            "last_modified_date": "2020-09-22T03:59:24.034Z",
            "user": null,
            "name": "Poland"
        }
    },
    {
        "model": "field.fieldoffice",
        "pk": 82,
        "fields": {
            "created_date": "2020-09-22T03:59:24.043Z",
            "last_modified_date": "2020-09-22T03:59:24.043Z",
            "user": null,
            "name": "Romania"
        }
    },
    {
        "model": "field.fieldoffice",
        "pk": 83,
        "fields": {
            "created_date": "2020-09-22T03:59:24.052Z",
            "last_modified_date": "2020-09-22T03:59:24.052Z",
            "user": null,
            "name": "Russia"
        }
    },
    {
        "model": "field.fieldoffice",
        "pk": 84,
        "fields": {
            "created_date": "2020-09-22T03:59:24.061Z",
            "last_modified_date": "2020-09-22T03:59:24.061Z",
            "user": null,
            "name": "Kosovo"
        }
    },
    {
        "model": "field.fieldoffice",
        "pk": 85,
        "fields": {
            "created_date": "2020-09-22T03:59:24.070Z",
            "last_modified_date": "2020-09-22T03:59:24.070Z",
            "user": null,
            "name": "Serbia, Republic of"
        }
    },
    {
        "model": "field.fieldoffice",
        "pk": 86,
        "fields": {
            "created_date": "2020-09-22T03:59:24.079Z",
            "last_modified_date": "2020-09-22T03:59:24.079Z",
            "user": null,
            "name": "Slovenia"
        }
    },
    {
        "model": "field.fieldoffice",
        "pk": 87,
        "fields": {
            "created_date": "2020-09-22T03:59:24.088Z",
            "last_modified_date": "2020-09-22T03:59:24.088Z",
            "user": null,
            "name": "Sweden"
        }
    },
    {
        "model": "field.fieldoffice",
        "pk": 88,
        "fields": {
            "created_date": "2020-09-22T03:59:24.098Z",
            "last_modified_date": "2020-09-22T03:59:24.098Z",
            "user": null,
            "name": "Turkey"
        }
    },
    {
        "model": "field.fieldoffice",
        "pk": 89,
        "fields": {
            "created_date": "2020-09-22T03:59:24.107Z",
            "last_modified_date": "2020-09-22T03:59:24.107Z",
            "user": null,
            "name": "Ukraine"
        }
    },
    {
        "model": "field.fieldoffice",
        "pk": 90,
        "fields": {
            "created_date": "2020-09-22T03:59:24.116Z",
            "last_modified_date": "2020-09-22T03:59:24.116Z",
            "user": null,
            "name": "High Commissioner for Refugees"
        }
    },
    {
        "model": "field.fieldoffice",
        "pk": 91,
        "fields": {
            "created_date": "2020-09-22T03:59:24Z",
            "last_modified_date": "2020-09-22T03:59:24Z",
            "user": 1,
            "name": "Div of External Relations (DER)"
        }
    },
    {
        "model": "field.fieldoffice",
        "pk": 92,
        "fields": {
            "created_date": "2020-09-22T03:59:24.134Z",
            "last_modified_date": "2020-09-22T03:59:24.134Z",
            "user": null,
            "name": "Div International Protection"
        }
    },
    {
        "model": "field.fieldoffice",
        "pk": 93,
        "fields": {
            "created_date": "2020-09-22T03:59:24Z",
            "last_modified_date": "2020-09-22T03:59:24Z",
            "user": 1,
            "name": "Div of External Relations (PSP)"
        }
    },
    {
        "model": "field.fieldoffice",
        "pk": 94,
        "fields": {
            "created_date": "2020-09-22T03:59:24.153Z",
            "last_modified_date": "2020-09-22T03:59:24.153Z",
            "user": null,
            "name": "Div of Resilience & Solutions"
        }
    },
    {
        "model": "field.fieldoffice",
        "pk": 95,
        "fields": {
            "created_date": "2020-09-22T03:59:24.162Z",
            "last_modified_date": "2020-09-22T03:59:24.162Z",
            "user": null,
            "name": "Div Programme Support Manageme"
        }
    },
    {
        "model": "field.fieldoffice",
        "pk": 96,
        "fields": {
            "created_date": "2020-09-22T03:59:24Z",
            "last_modified_date": "2020-09-22T03:59:24Z",
            "user": 1,
            "name": "Div Executive Direction & Mgmt (EVALUATION)"
        }
    },
    {
        "model": "field.fieldoffice",
        "pk": 97,
        "fields": {
            "created_date": "2020-09-22T03:59:24Z",
            "last_modified_date": "2020-09-22T03:59:24Z",
            "user": 1,
            "name": "Global Service Center Denmark"
        }
    },
    {
        "model": "field.fieldoffice",
        "pk": 98,
        "fields": {
            "created_date": "2020-09-22T03:59:24.188Z",
            "last_modified_date": "2020-09-22T03:59:24.188Z",
            "user": null,
            "name": "Algeria"
        }
    },
    {
        "model": "field.fieldoffice",
        "pk": 99,
        "fields": {
            "created_date": "2020-09-22T03:59:24.197Z",
            "last_modified_date": "2020-09-22T03:59:24.197Z",
            "user": null,
            "name": "Egypt"
        }
    },
    {
        "model": "field.fieldoffice",
        "pk": 100,
        "fields": {
            "created_date": "2020-09-22T03:59:24.206Z",
            "last_modified_date": "2020-09-22T03:59:24.206Z",
            "user": null,
            "name": "Iraq"
        }
    },
    {
        "model": "field.fieldoffice",
        "pk": 101,
        "fields": {
            "created_date": "2020-09-22T03:59:24.214Z",
            "last_modified_date": "2020-09-22T03:59:24.214Z",
            "user": null,
            "name": "Israel"
        }
    },
    {
        "model": "field.fieldoffice",
        "pk": 102,
        "fields": {
            "created_date": "2020-09-22T03:59:24.223Z",
            "last_modified_date": "2020-09-22T03:59:24.223Z",
            "user": null,
            "name": "Jordan"
        }
    },
    {
        "model": "field.fieldoffice",
        "pk": 103,
        "fields": {
            "created_date": "2020-09-22T03:59:24.232Z",
            "last_modified_date": "2020-09-22T03:59:24.232Z",
            "user": null,
            "name": "Lebanon"
        }
    },
    {
        "model": "field.fieldoffice",
        "pk": 104,
        "fields": {
            "created_date": "2020-09-22T03:59:24.242Z",
            "last_modified_date": "2020-09-22T03:59:24.242Z",
            "user": null,
            "name": "Libya"
        }
    },
    {
        "model": "field.fieldoffice",
        "pk": 105,
        "fields": {
            "created_date": "2020-09-22T03:59:24.252Z",
            "last_modified_date": "2020-09-22T03:59:24.252Z",
            "user": null,
            "name": "Morocco"
        }
    },
    {
        "model": "field.fieldoffice",
        "pk": 106,
        "fields": {
            "created_date": "2020-09-22T03:59:24.260Z",
            "last_modified_date": "2020-09-22T03:59:24.260Z",
            "user": null,
            "name": "Mauritania"
        }
    },
    {
        "model": "field.fieldoffice",
        "pk": 107,
        "fields": {
            "created_date": "2020-09-22T03:59:24.269Z",
            "last_modified_date": "2020-09-22T03:59:24.269Z",
            "user": null,
            "name": "Syria"
        }
    },
    {
        "model": "field.fieldoffice",
        "pk": 108,
        "fields": {
            "created_date": "2020-09-22T03:59:24.277Z",
            "last_modified_date": "2020-09-22T03:59:24.277Z",
            "user": null,
            "name": "Tunisia"
        }
    },
    {
        "model": "field.fieldoffice",
        "pk": 109,
        "fields": {
            "created_date": "2020-09-22T03:59:24.286Z",
            "last_modified_date": "2020-09-22T03:59:24.286Z",
            "user": null,
            "name": "Yemen"
        }
    },
    {
        "model": "field.fieldoffice",
        "pk": 110,
        "fields": {
            "created_date": "2020-09-22T03:59:24.295Z",
            "last_modified_date": "2020-09-22T03:59:24.295Z",
            "user": null,
            "name": "Australia"
        }
    },
    {
        "model": "field.fieldoffice",
        "pk": 111,
        "fields": {
            "created_date": "2020-09-22T03:59:24.304Z",
            "last_modified_date": "2020-09-22T03:59:24.304Z",
            "user": null,
            "name": "Austria"
        }
    },
    {
        "model": "field.fieldoffice",
        "pk": 112,
        "fields": {
            "created_date": "2020-09-22T03:59:24.313Z",
            "last_modified_date": "2020-09-22T03:59:24.313Z",
            "user": null,
            "name": "Azerbaijan"
        }
    },
    {
        "model": "field.fieldoffice",
        "pk": 113,
        "fields": {
            "created_date": "2020-09-22T03:59:24.322Z",
            "last_modified_date": "2020-09-22T03:59:24.322Z",
            "user": null,
            "name": "Benin"
        }
    },
    {
        "model": "field.fieldoffice",
        "pk": 114,
        "fields": {
            "created_date": "2020-09-22T03:59:24.331Z",
            "last_modified_date": "2020-09-22T03:59:24.331Z",
            "user": null,
            "name": "Botswana"
        }
    },
    {
        "model": "field.fieldoffice",
        "pk": 115,
        "fields": {
            "created_date": "2020-09-22T03:59:24.340Z",
            "last_modified_date": "2020-09-22T03:59:24.340Z",
            "user": null,
            "name": "Canada"
        }
    },
    {
        "model": "field.fieldoffice",
        "pk": 116,
        "fields": {
            "created_date": "2020-09-22T03:59:24.349Z",
            "last_modified_date": "2020-09-22T03:59:24.349Z",
            "user": null,
            "name": "China"
        }
    },
    {
        "model": "field.fieldoffice",
        "pk": 117,
        "fields": {
            "created_date": "2020-09-22T03:59:24.359Z",
            "last_modified_date": "2020-09-22T03:59:24.359Z",
            "user": null,
            "name": "Western Sahara"
        }
    },
    {
        "model": "field.fieldoffice",
        "pk": 118,
        "fields": {
            "created_date": "2020-09-22T03:59:24.369Z",
            "last_modified_date": "2020-09-22T03:59:24.369Z",
            "user": null,
            "name": "Spain"
        }
    },
    {
        "model": "field.fieldoffice",
        "pk": 119,
        "fields": {
            "created_date": "2020-09-22T03:59:24.378Z",
            "last_modified_date": "2020-09-22T03:59:24.378Z",
            "user": null,
            "name": "Gabon"
        }
    },
    {
        "model": "field.fieldoffice",
        "pk": 120,
        "fields": {
            "created_date": "2020-09-22T03:59:24.387Z",
            "last_modified_date": "2020-09-22T03:59:24.387Z",
            "user": null,
            "name": "Gambia"
        }
    },
    {
        "model": "field.fieldoffice",
        "pk": 121,
        "fields": {
            "created_date": "2020-09-22T03:59:24.399Z",
            "last_modified_date": "2020-09-22T03:59:24.399Z",
            "user": null,
            "name": "Guinea-Bissau"
        }
    },
    {
        "model": "field.fieldoffice",
        "pk": 122,
        "fields": {
            "created_date": "2020-09-22T03:59:24.409Z",
            "last_modified_date": "2020-09-22T03:59:24.409Z",
            "user": null,
            "name": "Office of the Dir for Middle East and North Africa"
        }
    },
    {
        "model": "field.fieldoffice",
        "pk": 123,
        "fields": {
            "created_date": "2020-09-22T03:59:24.421Z",
            "last_modified_date": "2020-09-22T03:59:24.421Z",
            "user": null,
            "name": "Cambodia"
        }
    },
    {
        "model": "field.fieldoffice",
        "pk": 124,
        "fields": {
            "created_date": "2020-09-22T03:59:24.430Z",
            "last_modified_date": "2020-09-22T03:59:24.430Z",
            "user": null,
            "name": "Korea"
        }
    },
    {
        "model": "field.fieldoffice",
        "pk": 125,
        "fields": {
            "created_date": "2020-09-22T03:59:24.440Z",
            "last_modified_date": "2020-09-22T03:59:24.440Z",
            "user": null,
            "name": "Kuwait"
        }
    },
    {
        "model": "field.fieldoffice",
        "pk": 126,
        "fields": {
            "created_date": "2020-09-22T03:59:24.449Z",
            "last_modified_date": "2020-09-22T03:59:24.449Z",
            "user": null,
            "name": "Malta"
        }
    },
    {
        "model": "field.fieldoffice",
        "pk": 127,
        "fields": {
            "created_date": "2020-09-22T03:59:24.458Z",
            "last_modified_date": "2020-09-22T03:59:24.458Z",
            "user": null,
            "name": "Mongolia"
        }
    },
    {
        "model": "field.fieldoffice",
        "pk": 128,
        "fields": {
            "created_date": "2020-09-22T03:59:24.468Z",
            "last_modified_date": "2020-09-22T03:59:24.468Z",
            "user": null,
            "name": "Namibia"
        }
    },
    {
        "model": "field.fieldoffice",
        "pk": 129,
        "fields": {
            "created_date": "2020-09-22T03:59:24.477Z",
            "last_modified_date": "2020-09-22T03:59:24.477Z",
            "user": null,
            "name": "The Netherlands"
        }
    },
    {
        "model": "field.fieldoffice",
        "pk": 130,
        "fields": {
            "created_date": "2020-09-22T03:59:24.486Z",
            "last_modified_date": "2020-09-22T03:59:24.487Z",
            "user": null,
            "name": "Papua New Guinea"
        }
    },
    {
        "model": "field.fieldoffice",
        "pk": 131,
        "fields": {
            "created_date": "2020-09-22T03:59:24.496Z",
            "last_modified_date": "2020-09-22T03:59:24.496Z",
            "user": null,
            "name": "Saudia Arabia"
        }
    },
    {
        "model": "field.fieldoffice",
        "pk": 132,
        "fields": {
            "created_date": "2020-09-22T03:59:24.505Z",
            "last_modified_date": "2020-09-22T03:59:24.505Z",
            "user": null,
            "name": "Serbia & Montenegro"
        }
    },
    {
        "model": "field.fieldoffice",
        "pk": 133,
        "fields": {
            "created_date": "2020-09-22T03:59:24.514Z",
            "last_modified_date": "2020-09-22T03:59:24.514Z",
            "user": null,
            "name": "Sierra Leone"
        }
    },
    {
        "model": "field.fieldoffice",
        "pk": 134,
        "fields": {
            "created_date": "2020-09-22T03:59:24.524Z",
            "last_modified_date": "2020-09-22T03:59:24.524Z",
            "user": null,
            "name": "Slovakia"
        }
    },
    {
        "model": "field.fieldoffice",
        "pk": 135,
        "fields": {
            "created_date": "2020-09-22T03:59:24.533Z",
            "last_modified_date": "2020-09-22T03:59:24.533Z",
            "user": null,
            "name": "Turkmenistan"
        }
    },
    {
        "model": "field.fieldoffice",
        "pk": 136,
        "fields": {
            "created_date": "2020-09-22T03:59:24.543Z",
            "last_modified_date": "2020-09-22T03:59:24.543Z",
            "user": null,
            "name": "Timor Leste"
        }
    },
    {
        "model": "field.fieldoffice",
        "pk": 137,
        "fields": {
            "created_date": "2020-09-22T03:59:24.552Z",
            "last_modified_date": "2020-09-22T03:59:24.552Z",
            "user": null,
            "name": "Uzbekistan"
        }
    },
    {
        "model": "field.fieldoffice",
        "pk": 138,
        "fields": {
            "created_date": "2020-09-22T03:59:24.560Z",
            "last_modified_date": "2020-09-22T03:59:24.560Z",
            "user": null,
            "name": "Viet Nam"
        }
    },
    {
        "model": "field.fieldoffice",
        "pk": 139,
        "fields": {
            "created_date": "2020-09-22T03:59:24.569Z",
            "last_modified_date": "2020-09-22T03:59:24.569Z",
            "user": null,
            "name": "In-Kind Donations"
        }
    },
    {
        "model": "field.fieldoffice",
        "pk": 140,
        "fields": {
            "created_date": "2020-09-22T03:59:24.578Z",
            "last_modified_date": "2020-09-22T03:59:24.578Z",
            "user": null,
            "name": "Admin BU for Budapest in TnE"
        }
    },
    {
        "model": "field.fieldoffice",
        "pk": 141,
        "fields": {
            "created_date": "2020-09-22T03:59:24.587Z",
            "last_modified_date": "2020-09-22T03:59:24.587Z",
            "user": null,
            "name": "Admin BU for Copenhagen in TnE"
        }
    },
    {
        "model": "field.fieldoffice",
        "pk": 142,
        "fields": {
            "created_date": "2020-09-22T03:59:24.596Z",
            "last_modified_date": "2020-09-22T03:59:24.596Z",
            "user": null,
            "name": "Admin BU for Geneva in TnE"
        }
    },
    {
        "model": "field.fieldoffice",
        "pk": 143,
        "fields": {
            "created_date": "2020-09-22T03:59:24.606Z",
            "last_modified_date": "2020-09-22T03:59:24.606Z",
            "user": null,
            "name": "Jordan ICT Service Centre"
        }
    },
    {
        "model": "field.fieldoffice",
        "pk": 144,
        "fields": {
            "created_date": "2020-09-22T03:59:24.615Z",
            "last_modified_date": "2020-09-22T03:59:24.615Z",
            "user": null,
            "name": "PSFR Copenhagen"
        }
    },
    {
        "model": "field.fieldoffice",
        "pk": 145,
        "fields": {
            "created_date": "2020-09-22T03:59:24.624Z",
            "last_modified_date": "2020-09-22T03:59:24.624Z",
            "user": null,
            "name": "PSFR Global"
        }
    },
    {
        "model": "field.fieldoffice",
        "pk": 146,
        "fields": {
            "created_date": "2020-09-22T03:59:24.633Z",
            "last_modified_date": "2020-09-22T03:59:24.633Z",
            "user": null,
            "name": "PSFR London"
        }
    },
    {
        "model": "field.fieldoffice",
        "pk": 147,
        "fields": {
            "created_date": "2020-09-22T03:59:24.643Z",
            "last_modified_date": "2020-09-22T03:59:24.643Z",
            "user": null,
            "name": "PSFR Rome"
        }
    },
    {
        "model": "field.fieldoffice",
        "pk": 148,
        "fields": {
            "created_date": "2020-09-22T03:59:24.652Z",
            "last_modified_date": "2020-09-22T03:59:24.652Z",
            "user": null,
            "name": "RSH Accra"
        }
    },
    {
        "model": "field.fieldoffice",
        "pk": 149,
        "fields": {
            "created_date": "2020-09-22T03:59:24.664Z",
            "last_modified_date": "2020-09-22T03:59:24.664Z",
            "user": null,
            "name": "RSH Nairobi"
        }
    },
    {
        "model": "field.fieldoffice",
        "pk": 150,
        "fields": {
            "created_date": "2020-09-22T03:59:59.511Z",
            "last_modified_date": "2020-09-22T03:59:59.511Z",
            "user": null,
            "name": "French Polynesia"
        }
    },
    {
        "model": "field.fieldoffice",
        "pk": 151,
        "fields": {
            "created_date": "2020-09-22T03:59:59.530Z",
            "last_modified_date": "2020-09-22T03:59:59.530Z",
            "user": null,
            "name": "New Zealand"
        }
    },
    {
        "model": "field.fieldoffice",
        "pk": 152,
        "fields": {
            "created_date": "2020-09-22T03:59:59.719Z",
            "last_modified_date": "2020-09-22T03:59:59.719Z",
            "user": null,
            "name": "Russian Federation"
        }
    },
    {
        "model": "field.fieldoffice",
        "pk": 153,
        "fields": {
            "created_date": "2020-09-22T03:59:59.852Z",
            "last_modified_date": "2020-09-22T03:59:59.852Z",
            "user": null,
            "name": "Syrian Arab Republic"
        }
    },
    {
        "model": "field.fieldoffice",
        "pk": 154,
        "fields": {
            "created_date": "2020-09-22T03:59:59.891Z",
            "last_modified_date": "2020-09-22T03:59:59.891Z",
            "user": null,
            "name": "Moldova, Republic of"
        }
    },
    {
        "model": "field.fieldoffice",
        "pk": 155,
        "fields": {
            "created_date": "2020-09-22T03:59:59.927Z",
            "last_modified_date": "2020-09-22T03:59:59.927Z",
            "user": null,
            "name": "Bolivia"
        }
    },
    {
        "model": "field.fieldoffice",
        "pk": 156,
        "fields": {
            "created_date": "2020-09-22T03:59:59.985Z",
            "last_modified_date": "2020-09-22T03:59:59.985Z",
            "user": null,
            "name": "Brunei Darussalam"
        }
    },
    {
        "model": "field.fieldoffice",
        "pk": 157,
        "fields": {
            "created_date": "2020-09-22T04:00:00.034Z",
            "last_modified_date": "2020-09-22T04:00:00.034Z",
            "user": null,
            "name": "Uruguay"
        }
    },
    {
        "model": "field.fieldoffice",
        "pk": 158,
        "fields": {
            "created_date": "2020-09-22T04:00:00.067Z",
            "last_modified_date": "2020-09-22T04:00:00.067Z",
            "user": null,
            "name": "Denmark"
        }
    },
    {
        "model": "field.fieldoffice",
        "pk": 159,
        "fields": {
            "created_date": "2020-09-22T04:00:00.129Z",
            "last_modified_date": "2020-09-22T04:00:00.129Z",
            "user": null,
            "name": "Korea, Republic of"
        }
    },
    {
        "model": "field.fieldoffice",
        "pk": 160,
        "fields": {
            "created_date": "2021-08-24T12:09:23.729Z",
            "last_modified_date": "2021-08-24T12:09:23.729Z",
            "user": null,
            "name": "Latin America"
        }
    },
    {
        "model": "field.fieldoffice",
        "pk": 161,
        "fields": {
            "created_date": "2021-08-24T12:10:08Z",
            "last_modified_date": "2021-08-24T12:10:08Z",
            "user": 1,
            "name": "Americas Reg Bureau Panama"
        }
    },
    {
        "model": "field.fieldoffice",
        "pk": 162,
        "fields": {
            "created_date": "2021-08-24T12:10:38Z",
            "last_modified_date": "2021-08-24T12:10:38Z",
            "user": 1,
            "name": "Asia Reg Bureau Bangkok"
        }
    },
    {
        "model": "field.fieldoffice",
        "pk": 163,
        "fields": {
            "created_date": "2021-09-09T12:43:56Z",
            "last_modified_date": "2021-09-09T12:43:56Z",
            "user": 1,
            "name": "Reg Bureau for Southern Africa"
        }
    },
    {
        "model": "field.fieldoffice",
        "pk": 164,
        "fields": {
            "created_date": "2021-09-10T12:44:41.906Z",
            "last_modified_date": "2021-09-10T12:44:41.906Z",
            "user": null,
            "name": "El Salvador"
        }
    },
    {
        "model": "field.fieldoffice",
        "pk": 165,
        "fields": {
            "created_date": "2021-09-10T13:02:23.256Z",
            "last_modified_date": "2021-09-10T13:02:23.256Z",
            "user": null,
            "name": "Guatemala"
        }
    },
    {
        "model": "field.fieldoffice",
        "pk": 166,
        "fields": {
            "created_date": "2021-09-10T13:04:53.926Z",
            "last_modified_date": "2021-09-10T13:04:53.926Z",
            "user": null,
            "name": "Honduras"
        }
    },
    {
        "model": "field.fieldoffice",
        "pk": 167,
        "fields": {
            "created_date": "2021-09-13T11:04:13Z",
            "last_modified_date": "2021-09-13T11:04:13Z",
            "user": 1,
            "name": "Div Executive Direction & Mgmt (INNOVATION)"
        }
    },
    {
        "model": "field.fieldoffice",
        "pk": 168,
        "fields": {
            "created_date": "2021-09-13T11:16:37Z",
            "last_modified_date": "2021-09-13T11:16:37Z",
            "user": 1,
            "name": "Div Human Resources"
        }
    },
    {
        "model": "field.fieldoffice",
        "pk": 169,
        "fields": {
            "created_date": "2021-09-13T11:25:55Z",
            "last_modified_date": "2021-09-13T11:25:55Z",
            "user": 1,
            "name": "Europe Regional Bureau (XEU ABC)"
        }
    },
    {
        "model": "field.fieldoffice",
        "pk": 170,
        "fields": {
            "created_date": "2021-09-13T11:26:38Z",
            "last_modified_date": "2021-09-13T11:26:38Z",
            "user": 1,
            "name": "Europe Regional Bureau (OOE ABC)"
        }
    },
    {
        "model": "field.role",
        "pk": 1,
        "fields": {
            "created_date": "2020-09-22T03:59:50.249Z",
            "last_modified_date": "2020-09-22T03:59:50.249Z",
            "user": null,
            "role": "REVIEWER",
            "permissions": [
                1
            ]
        }
    },
    {
        "model": "field.role",
        "pk": 2,
        "fields": {
            "created_date": "2020-09-22T03:59:50.269Z",
            "last_modified_date": "2020-09-22T03:59:50.269Z",
            "user": null,
            "role": "APPROVER",
            "permissions": [
                1
            ]
        }
    },
    {
        "model": "field.score",
        "pk": 1,
        "fields": {
            "description": "Partner Meets Expectations",
            "value": 1
        }
    },
    {
        "model": "field.score",
        "pk": 2,
        "fields": {
            "description": "Partner Medium Level - Some risk exposure",
            "value": 3
        }
    },
    {
        "model": "field.score",
        "pk": 3,
        "fields": {
            "description": "Partner Weak Level - High risk",
            "value": 5
        }
    },
    {
        "model": "field.score",
        "pk": 4,
        "fields": {
            "description": "No Field Response/Assessment Received",
            "value": 5
        }
    },
    {
        "model": "field.score",
        "pk": 5,
        "fields": {
            "description": "UN Agencies Agreement Not Implemented - National Fund Raising",
            "value": 0
        }
    }
]