Partner number	 Overall score
AFG011001000	 0,91
AFG011001024	 0,94
AFG011001041	 0,94
AFG011001078	 0,95
AFG011001181	 0,94
AFG011001216	 0,94
AFG011060000	 0,94
AFG011060001	 0,92
AFG011094002	 0,94
AFG011094045	 0,93
AGO011126007	 0,75
ALB011002001	 0,93
ARM011007013	 0,90
ARM011007018	 0,94
ARM011007039	 0,95
ARM011007043	 0,69
BGD011024006	 0,91
BGD011024009	 0,93
BGD011081025	 0,94
BGD011092074	 0,90
BIH011009006	 0,92
BIH011030052	 0,87
BIH011030056	 0,86
BIH011030057	 0,89
BIH011030060	 0,85
BRA011029002	 0,50
BRA011029005	 0,44
BWA011028003	 0,91
BWA011092072	 0,93
CMR011045005	 0,76
CMR011045006	 0,93
CMR011081056	 0,93
CMR011092047	 0,87
CMR011246004	 0,90
CMR011271031	 0,93
CMR011274036	 0,88
CMR011274108	 0,93
COL011049005	 0,93
COL011049038	 0,89
COL011049056	 0,81
COL011238011	 0,93
ECU011173016	 0,75
EGY011005002	 0,88
EGY011005005	 0,89
EGY011005014	 0,89
EGY011005016	 0,90
EGY011092074	 0,91
EGY011246030	 0,85
EGY011274036	 0,93
EGY011274040	 0,90
ETH011073002	 0,82
ETH011073017	 0,88
ETH011073019	 0,85
ETH011073021	 0,85
ETH011073042	 0,91
ETH011073055	 0,73
ETH011073058	 0,93
ETH011073060	 0,90
ETH011073061	 0,60
ETH011073062	 0,93
ETH011081025	 0,94
ETH011092045	 0,92
ETH011092047	 0,90
ETH011193000	 0,87
ETH011274001	 0,93
ETH011274071	 0,89
GBR011092071	 0,91
GEO011060001	 0,93
GEO011093000	 0,87
GEO011093019	 0,91
GEO011093037	 0,93
GEO011093056	 0,91
GEO011238007	 0,95
GHA011095002	 0,93
GHA011095003	 0,95
GHA011095009	 0,93
GHA011274071	 0,89
GRC011081069	 0,71
GRC011097009	 0,89
HUN011110008	 0,81
IDN011122031	 0,91
IND011121019	 0,76
IND011121020	 0,92
IRQ011081025	 0,94
ITA011212001	 0,80
ITA011246002	 0,93
JOR011081029	 0,93
JOR011092066	 0,95
JOR011133001	 0,95
JOR011133015	 0,88
JOR011133022	 0,95
JOR011133026	 0,95
JOR011133027	 0,95
JOR011133028	 0,94
JOR011133030	 0,95
JOR011133031	 0,92
JOR011197000	 0,94
JOR011274001	 0,93
JOR011274040	 0,94
JOR011274079	 0,95
JORMN1133033	 0,70
KAZ011141002	 0,90
KAZ011141012	 0,89
KEN011060001	 0,91
KEN011092019	 0,93
KEN011092074	 0,93
KEN011134018	 0,93
KEN011142003	 0,93
KEN011142014	 0,93
KEN011142019	 0,93
KEN011142020	 0,95
KEN011142021	 0,93
KEN011142022	 0,93
KEN011142027	 0,88
KEN011142033	 0,94
KEN011142034	 0,92
KEN011142038	 0,95
KEN011142039	 0,92
KEN011142046	 0,85
KEN011197000	 0,93
KEN011246004	 0,93
KEN011274001	 0,93
KEN011274075	 0,93
KEN011274130	 0,91
KGZ011143008	 0,86
LBN011060001	 0,93
LBN011081029	 0,93
LBN011092066	 0,92
LBN011092074	 0,92
LBN011123000	 0,93
LBN011126008	 0,91
LBN011126018	 0,94
LBN011126037	 0,93
LBN011155010	 0,91
LBN011155011	 0,92
LBN011155012	 0,92
LBN011155013	 0,89
LBN011155014	 0,92
LBN011155016	 0,87
LBN011155017	 0,95
LBN011155018	 0,92
LBN011155019	 0,92
LBN011155020	 0,93
LBN011155021	 0,91
LBN011155022	 0,93
LBN011155023	 0,79
LBN011155024	 0,92
LBN011155025	 0,78
LBN011193026	 0,90
LBN011197000	 0,93
LBN011238007	 0,92
LBN011246007	 0,93
LBN011246042	 0,94
LBN011274001	 0,93
LBN011274011	 0,92
LBN011274024	 0,92
LBN011274074	 0,91
LBN011274079	 0,94
LBR011073021	 0,95
LBR011092074	 0,93
LBR011153000	 0,83
LBR011153032	 0,84
LBR011271031	 0,93
LBR011274040	 0,91
LBR011274071	 0,90
LBY011060001	 0,92
LKA011158018	 0,74
MKD011172018	 0,93
MKD011172022	 0,93
MMR011060001	 0,90
MMR011081029	 0,95
MMR011094026	 0,91
MMR011134013	 0,76
MMR011182003	 0,20
MMR011182007	 0,89
MMR011182008	 0,94
MMR011182009	 0,91
MMR011182010	 0,94
MMR011182012	 0,91
MMR011209006	 0,94
MMR011246004	 0,91
MMR011274050	 0,83
MNE011300008	 0,90
MOZ011180002	 0,95
MOZ011180032	 0,95
MOZ011180034	 0,89
MRT011126018	 0,93
MRT011171011	 0,81
MYS011175017	 0,88
MYS011175029	 0,86
NGA011196002	 0,95
NGA011196005	 0,91
NGA011196015	 0,93
NGA011196016	 0,90
BDI011021028	 0,91
BDI011126007	 0,88
NPL011192004	 0,95
NPL011192008	 0,94
NPL011192019	 0,93
NPL011192022	 0,95
NPL011192024	 0,84
NPL011205088	 0,94
NPL011246004	 0,95
PAK011060001	 0,85
PAK011197000	 0,88
PAK011205009	 0,62
PAK011205030	 0,65
PAK011205031	 0,82
PAK011205032	 0,90
PAK011205034	 0,73
PAK011205037	 0,91
PAK011205047	 0,82
PAK011205048	 0,70
PAK011205059	 0,87
PAK011205060	 0,93
PAK011205067	 0,70
PAK011205067	 0,74
PAK011205068	 0,82
PAK011205077	 0,61
PAK011205078	 0,87
PAK011205079	 0,56
PAK011205081	 0,70
PAK011205082	 0,72
PAK011205095	 0,90
PAK011205106	 0,66
PAK011205111	 0,81
PAK011205115	 0,76
PAK011205116	 0,83
PAK011205118	 0,54
PAK011205136	 0,81
PAK011205138	 0,83
PAK011205143	 0,88
PAK011205152	 0,77
PAK011205154	 0,75
PAK011205155	 0,82
PAK011205159	 0,82
PAK011205162	 0,78
PAK011205163	 0,85
PAK011205164	 0,91
PAK011205166	 0,66
PAK011205167	 0,67
PAK011205168	 0,54
PAK011205169	 0,72
PAK011246002	 0,87
PAK011274001	 0,93
PAK011274050	 0,85
PAK011274059	 0,82
PHL011209006	 0,93
ROU011220013	 0,90
RUS011222039	 0,91
RUS011222050	 0,63
RUS011222060	 0,65
RUS011222089	 0,89
RWA011073021	 0,91
RWA011092047	 0,92
RWA011092076	 0,92
RWA011223054	 0,92
RWA011223055	 0,90
RWA011223057	 0,85
RWA011274050	 0,92
RWA011274071	 0,93
SCG021291034	 0,89
SCG021291040	 0,91
SCG021291057	 0,87
SDN011092028	 0,92
SDN011092081	 0,95
SDN011240001	 0,89
SDN011240006	 0,93
SDN011240015	 0,95
SDN011240023	 0,94
SDN011240027	 0,95
SDN011240028	 0,95
SDN011240059	 0,93
SDN011240061	 0,88
SDN011240073	 0,93
SDN011240078	 0,90
SDN011240088	 0,81
SDN011240089	 0,93
SDN011240105	 0,90
SDN011240109	 0,94
SDN011240111	 0,95
SDN011240112	 0,93
SDN011240113	 0,89
SDN011240116	 0,83
SDN011240117	 0,86
SDN011240123	 0,90
SDN011240124	 0,88
SDN011245009	 0,95
SDN011274071	 0,95
SEN011091005	 0,95
SEN011092047	 0,94
SEN011096006	 0,72
SOM011060001	 0,91
SOM011080002	 0,94
SOM011142030	 0,86
SOM011197000	 0,93
SOM011237061	 0,90
SOM011237076	 0,95
SOM011237095	 0,95
SOM011237115	 0,88
SOM011237118	 0,74
SOM011274011	 0,95
SOM011274032	 0,93
SRB011060001	 0,91
SRB011126018	 0,91
SRB011291023	 0,91
SRB011291028	 0,91
SRB011291032	 0,91
SRB011291058	 0,91
SRB011291063	 0,91
SSD011060001	 0,87
SSD011073021	 0,93
SSD011081049	 0,95
SSD011092056	 0,93
SSD011092066	 0,95
SSD011092074	 0,95
SSD011126018	 0,95
SSD011142033	 0,94
SSD011158044	 0,95
SSD011197000	 0,93
SSD011246004	 0,95
SSD011248008	 0,95
SSD011248012	 0,87
SSD011248013	 0,95
SSD011248014	 0,47
SSD011248016	 0,94
SSD011274001	 0,91
SSD011274048	 0,95
SSD011274054	 0,93
SSD011274071	 0,95
SYR011060001	 0,95
SYR011081029	 0,94
SYR011081064	 0,93
SYR011092066	 0,95
SYR011123001	 0,95
SYR011197000	 0,92
SYR011247000	 0,57
SYR011247003	 0,93
SYR011247018	 0,93
SYR011247019	 0,84
SYR011247021	 0,95
SYR011247024	 0,89
SYR011247025	 0,90
SYR011247026	 0,65
SYR011247027	 0,95
SYR011247031	 0,87
SYR011247032	 0,94
SYR011247033	 0,80
SYR011247034	 0,84
SYR011247035	 0,69
SYR011247036	 0,86
SYR011247037	 0,89
SYR011274001	 0,95
SYR011274071	 0,91
SYR011274074	 0,95
SYR011274079	 0,95
THA011081029	 0,92
THA011257005	 0,90
THA011257022	 0,92
THA011274001	 0,95
THA011274050	 0,92
TJK011258001	 0,85
TUR011060001	 0,81
TUR011123000	 0,91
TUR011246014	 0,89
TUR011246031	 0,92
TUR011263003	 0,77
TUR011263006	 0,48
TUR011263008	 0,81
TUR011263010	 0,90
TUR011263011	 0,67
TZA011256001	 0,89
TZA011256008	 0,79
TZA011256031	 0,90
TZA011256046	 0,87
TZA011256050	 0,93
TZA011274001	 0,91
UGA011060001	 0,89
UGA011094032	 0,91
UGA011142044	 0,92
UGA011271004	 0,92
UGA011271006	 0,91
UGA011271020	 0,93
UGA011271024	 0,93
UGA011271025	 0,91
UGA011271031	 0,93
UGA011271041	 0,95
UGA011274050	 0,89
UGA011274104	 0,94
UGA011274128	 0,91
UKR011054008	 0,94
UKR011060001	 0,89
UKR011197000	 0,93
UKR011246045	 0,95
UKR011272015	 0,95
UKR011272033	 0,95
UKR011272038	 0,91
UKR011272040	 0,93
UKR011272041	 0,84
UKR011272042	 0,95
UKR011272043	 0,93
UKR011272047	 0,58
UKR011272048	 0,92
UKR011272063	 0,95
UKR011272064	 0,58
UKR011272066	 0,83
UKR011274071	 0,95
USA011274136	 0,81
YEM011060001	 0,92
YEM011092019	 0,95
YEM011126018	 0,92
YEM011274071	 0,95
YEM011274079	 0,86
YEM011274137	 0,95
YEM011290002	 0,86
YEM011290003	 0,82
YEM011290007	 0,61
YEM011290009	 0,81
YEM011290010	 0,83
YEM011290013	 0,71
YEM011290016	 0,72
YEM011290018	 0,93
YEM011290020	 0,56
YEM011290025	 0,92
YEM011290027	 0,92
YEM011290028	 0,95
ZAF011126007	 0,91
ZAF011221002	 0,93
ZAF011221005	 0,88
ZAF011221007	 0,91
ZAF011221008	 0,93
ZAF011221024	 0,95
ZAF011221028	 0,93
ZAF011221033	 0,92
ZMB011054003	 0,92
ZMB011094032	 0,91
ZMB011123000	 0,91
ZMB011274127	 0,95
ZMB011296000	 0,95
ZMB011296003	 0,95
ZMB011296016	 0,95
ZMB011296027	 0,91
ZWE011123001	 0,93
ZWE011126037	 0,93
ZWE011297005	 0,86
ZWE011297007	 0,95
ETH011142044	 0,93
ETH011271006	 0,93
ETH011271020	 0,93
ETH011274050	 0,90
ETH011274104	 0,95
CMR011041007	 0,30
CMR011081038	 0,70
CMR011274071	 0,42
COD011040019	 0,85
COD011042016	 0,83
COD011047017	 0,83
COD011047074	 0,88
COD011047075	 0,91
COD011090003	 0,78
COD011271031	 0,91
COD011274093	 0,95
COD011274108	 0,92
BFA011022006	 0,91
BFA011025003	 0,81
BFA011042020	 0,86
BFA011060001	 0,86
BFA011092047	 0,93
BFA011094014	 0,78
BFA011197000	 0,94
CAF011041000	 0,86
CAF011060001	 0,89
CAF011092066	 0,86
CAF011120014	 0,86
CAF011126017	 0,88
CAF011126018	 0,80
CAF011197000	 0,90
CAF011271031	 0,86
CAF011274011	 0,82
CAF011274024	 0,85
CAF011274108	 0,87
CIV011120004	 0,95
CIV011120011	 0,89
CIV011120012	 0,89
CIV011197000	 0,95
CMR011042016	 0,69
CMR011045008	 0,59
CMR011073021	 0,82
CMR011081029	 0,89
CMR011081067	 0,75
CMR011092066	 0,94
CMR011246016	 0,81
COD011047105	 0,94
COD011274024	 0,94
COG011040019	 0,79
COG011046002	 0,91
COG011046008	 0,88
COG011271031	 0,80
DZA011003002	 0,80
DZA011003008	 0,82
DZA011003010	 0,82
DZA011081036	 0,86
DZA011081052	 0,91
DZA011238011	 0,67
MAR011179006	 0,91
MAR011179007	 0,91
MAR011182005	 0,91
MLI011060001	 0,93
MLI011159001	 0,77
MLI011174008	 0,88
MLI011174014	 0,57
MLI011274011	 0,94
MLI011274108	 0,88
MRT011171000	 0,60
MRT011171019	 0,86
MRT011238007	 0,91
MRT011246004	 0,85
NER011081016	 0,94
NER011081039	 0,95
NER011092047	 0,94
NER011159001	 0,87
NER011194008	 0,91
NER011194009	 0,87
NER011194010	 0,95
NER011194013	 0,78
NER011194014	 0,88
NER011194015	 0,75
NER011274001	 0,92
NER011274024	 0,94
NER011274040	 0,93
NER011274108	 0,90
SEN011233003	 0,79
TCD011040007	 0,86
TCD011042000	 0,81
TCD011042003	 0,87
TCD011042005	 0,59
TCD011042016	 0,76
TCD011042020	 0,87
TCD011042026	 0,75
TCD011092015	 0,84
TCD011092066	 0,90
TCD011126007	 0,73
TCD011126039	 0,85
TCD011246004	 0,86
TCD011271031	 0,86
TCD011274001	 0,89
TCD011274075	 0,87
TUN011262001	 0,84
COL011049011	 0,95
COL011049045	 0,94
COL011049053	 0,95
COL011049071	 0,95
CRI011050003	 0,94
DOM011062005	 0,94
DOM011062024	 0,84
ETH011060001	 0,92
ETH011073001	 0,20
ETH011073004	 0,95
ETH011073010	 0,95
ETH011073026	 0,88
ETH011073033	 0,92
ETH011073037	 0,92
ETH011073038	 0,89
ETH011073045	 0,93
ETH011073047	 0,82
ETH011073048	 0,95
ETH011073049	 0,75
ETH011073050	 0,20
ETH011073056	 0,92
ETH011073057	 0,92
ETH011073059	 0,94
ETH011092028	 0,94
ETH011092074	 0,95
ETH011126007	 0,93
ETH011197000	 0,94
ETH011246004	 0,94
ETH011274019	 0,94
ETH011274054	 0,90
ETH011274131	 0,90
IND011121003	 0,95
IND011121009	 0,72
IND011121017	 0,73
IND011121021	 0,90
PAK011205148	 0,87
UGA011073021	 0,92
UGA011246004	 0,92
CAF011081039	 0,93
DJI011061009	 0,67
DJI011197000	 0,94
DZA011003001	 0,85
DZA011238012	 0,64
MLI011022007	 0,91
IRN011124002	 0,95
IRN011124025	 0,95
IRQ011060001	 0,88
IRQ011060010	 0,94
IRQ011081029	 0,94
IRQ011081049	 0,95
IRQ011081056	 0,94
IRQ011092019	 0,94
IRQ011092066	 0,94
IRQ011092074	 0,94
IRQ011092078	 0,79
IRQ011125006	 0,87
IRQ011125015	 0,94
IRQ011125016	 0,92
IRQ011125018	 0,94
IRQ011125040	 0,73
IRQ011125043	 0,66
IRQ011125046	 0,87
IRQ011125047	 0,84
IRQ011125048	 0,81
IRQ011125049	 0,80
IRQ011125050	 0,88
IRQ011125051	 0,66
IRQ011126005	 0,88
IRQ011126018	 0,94
IRQ011126032	 0,95
IRQ011134018	 0,86
IRQ011197000	 0,94
IRQ011245011	 0,86
IRQ011246038	 0,83
IRQ011274001	 0,87
IRQ011274054	 0,90
IRQ011274079	 0,94
NPL011092074	 0,92
TUR011094002	 0,80
IRN011124000	 0,95
IRQ011092062	 0,95
IRQ011125005	 0,83
IRQ011125020	 0,87
IRQ011125027	 0,93
IRQ011125041	 0,93
IRQ011125042	 0,92
IRQ011125052	 0,84
LKA011092062	 0,89
IRQ011094047	 0,93