BU+Partner ID	Year	Commissioned (Yes)	Modified
AFG011001181	2015	1	1
AFG011197000	2015	1	1
BGD011024006	2015	1	1
BRA011029002	2015	1	1
BRA011029005	2015	1	1
BRA011029001	2015	1	1
BWA011028003	2015	1	1
CAF011041000	2015	1	1
CAF011274011	2015	1	1
CAF011271031	2015	1	1
CIV011120004	2015	1	1
CMR011081029	2015	1	1
CMR011092047	2015	1	1
CMR011045006	2015	1	1
CMR011041007	2015	1	1
COD011274108	2015	1	1
COD011274024	2015	1	1
COG011271031	2015	1	1
COG011040019	2015	1	1
COG011046008	2015	1	1
DJI011073021	2015	1	1
DJI011060001	2015	1	1
ECU011070008	2015	1	1
ETH011197000	2015	1	1
ETH011126007	2015	1	1
ETH011073019	2015	1	1
ETH011073017	2015	1	1
ETH011126007	2015	1	1
ETH011073054	2015	1	1
ETH011060001	2015	1	1
ETH011092045	2015	1	1
ETH011073004	2015	1	1
ETH011073001	2015	1	1
ETH011073021	2015	1	1
ETH011274131	2015	1	1
ETH011274054	2015	1	1
ETH011274001	2015	1	1
ETH011081025	2015	1	1
ETH011274054	2015	1	1
ETH011073001	2015	1	1
ETH011073001	2015	1	1
ETH011073047	2015	1	1
ETH011073001	2015	1	1
ETH011073049	2015	1	1
ETH011073045L	2015	1	1
ETH011073059	2015	1	1
ETH011073061	2015	1	1
ETH011073001	2015	1	1
ETH011092047	2015	1	1
ETH011073057	2015	1	1
ETH011073001	2015	1	1
ETH011073042G	2015	1	1
ETH011193000	2015	1	1
IND011121021	2015	1	1
LBR011274071	2015	1	1
MLI011174014	2015	1	1
NER011274108	2015	1	1
NER011194015	2015	1	1
NPL011092074	2015	1	1
PAK011060001	2015	1	1
PAK011197000	2015	1	1
PAK011205030	2015	1	1
PAK011205159	2015	1	1
PAK011205077	2015	1	1
PAK011205059	2015	1	1
PAK011205081	2015	1	1
PAK011060001	2015	1	1
PAK011205082	2015	1	1
PAK011205166	2015	1	1
PAK011205169	2015	1	1
PAK011205111	2015	1	1
PAN011098011	2015	1	1
RWA011092047	2015	1	1
RWA011073021	2015	1	1
RWA011223054	2015	1	1
SDN011240078	2015	1	1
SDN011240073	2015	1	1
SDN011240116	2015	1	1
SDN011092028	2015	1	1
SDN011092028	2015	1	1
SDN011240089	2015	1	1
SDN011240088	2015	1	1
SDN011240117	2015	1	1
SDN011240123	2015	1	1
SOM011142030I	2015	1	1
SOM011237115	2015	1	1
SOM011237118	2015	1	1
SSD011248014	2015	1	1
SSD011158044	2015	1	1
SSD011081049	2015	1	1
TCD011092015	2015	1	1
TCD011040007	2015	1	1
TCD011042000	2015	1	1
TCD011042020	2015	1	1
TCD011126007	2015	1	1
TCD011274001	2015	1	1
TUR011246031	2015	1	1
TUR011094002	2015	1	1
TZA011256031	2015	1	1
TZA011256001	2015	1	1
TZA011256001	2015	1	1
UKR011060001	2015	1	1
UKR011272047	2015	1	1
ZMB011296000	2015	1	1
ZMB011274127	2015	1	1
ZMB011274054	2015	1	1
ZWE011297007L	2015	1	1
AFG011001192	2014	1	1
AFG011197000	2014	1	1
AFG011001000	2014	1	1
AFG011197000	2014	1	1
AFG011197000	2014	1	1
AFG011197000	2014	1	1
BDI011021028	2014	1	1
BFA011025009	2014	1	1
BGR011031005	2014	1	1
CAF011060001	2014	1	1
CAF011092066	2014	1	1
CAF011041000	2014	1	1
CAF011274036	2014	1	1
CAF011060001	2014	1	1
CAF011197000	2014	1	1
CAF011274108	2014	1	1
CAF011274024	2014	1	1
CIV011197000	2014	1	1
CMR011274036	2014	1	1
COD011090003	2014	1	1
COD011047075	2014	1	1
COD011047074	2014	1	1
COD011047074	2014	1	1
COD011047074	2014	1	1
COD011274024	2014	1	1
COD011274024	2014	1	1
COD011274024	2014	1	1
COD011047074	2014	1	1
COG011046002	2014	1	1
DOM011062010	2014	1	1
DOM011062024	2014	1	1
DZA011003008	2014	1	1
DZA011081052	2014	1	1
DZA011238011	2014	1	1
DZA011003010	2014	1	1
EGY011005005	2014	1	1
EGY011005005	2014	1	1
EGY011092019	2014	1	1
ETH011073002	2014	1	1
ETH011073026	2014	1	1
ETH011073017	2014	1	1
ETH011073019	2014	1	1
ETH011073017	2014	1	1
ETH011092045	2014	1	1
ETH011073026	2014	1	1
ETH011073017	2014	1	1
ETH011073021	2014	1	1
ETH011126007	2014	1	1
ETH011274001	2014	1	1
ETH011073026	2014	1	1
ETH011274001	2014	1	1
ETH011193000	2014	1	1
ETH011060001	2014	1	1
ETH011073026	2014	1	1
ETH011246004	2014	1	1
ETH011073001	2014	1	1
ETH011274001	2014	1	1
ETH011073001	2014	1	1
ETH011073001	2014	1	1
ETH011092074	2014	1	1
ETH011073001	2014	1	1
ETH011092074	2014	1	1
ETH011073001	2014	1	1
ETH011073001	2014	1	1
ETH011274019	2014	1	1
ETH011092074	2014	1	1
ETH011274001	2014	1	1
ETH011092028	2014	1	1
ETH011274001	2014	1	1
ETH011073001	2014	1	1
ETH011073057	2014	1	1
IRN011124025	2014	1	1
IRN011124000	2014	1	1
IRN011124020	2014	1	1
IRQ011092062	2014	1	1
IRQ011092062	2014	1	1
IRQ011274001	2014	1	1
IRQ011060001	2014	1	1
IRQ011125018	2014	1	1
IRQ011125018	2014	1	1
IRQ011092019	2014	1	1
IRQ011092062	2014	1	1
IRQ011125005	2014	1	1
IRQ011092074	2014	1	1
IRQ011125040	2014	1	1
IRQ011125018	2014	1	1
IRQ011125045	2014	1	1
JOR011274040	2014	1	1
KEN011142034	2014	1	1
KEN011142020	2014	1	1
KEN011142020	2014	1	1
LBY011126026	2014	1	1
MLI011274108	2014	1	1
MLI011060001	2014	1	1
MMR011182003	2014	1	1
MOZ011180031	2014	1	1
MRT011171000	2014	1	1
MRT011238007	2014	1	1
MRT011246004	2014	1	1
MWI011092047	2014	1	1
MWI011176023	2014	1	1
NAM011191007G	2014	1	1
NAM011073021	2014	1	1
NER011194003	2014	1	1
NER011194007	2014	1	1
NER011120014	2014	1	1
NER011274001	2014	1	1
NER011159001	2014	1	1
NER011092074	2014	1	1
NER011194009	2014	1	1
NER011274108	2014	1	1
NER011274108	2014	1	1
PAK011205078	2014	1	1
PAK011205037	2014	1	1
PAK011205031	2014	1	1
PAK011205097	2014	1	1
PAK011205034	2014	1	1
PAK011205059	2014	1	1
PAK011205030	2014	1	1
PAK011060001	2014	1	1
PAK011205032	2014	1	1
PAK011205060	2014	1	1
PAK011246002	2014	1	1
PAK011274059	2014	1	1
PAK011274036	2014	1	1
PAK011205155	2014	1	1
PAK011205156	2014	1	1
PAK011197000	2014	1	1
PAK011205160	2014	1	1
PAK011205159	2014	1	1
PAK011205158	2014	1	1
PAK011205161	2014	1	1
PAK011205115	2014	1	1
PAK011205148	2014	1	1
PAK011205159	2014	1	1
PAN011206009	2014	1	1
SOM011142030I	2014	1	1
SOM011237115	2014	1	1
SOM011237095	2014	1	1
SSD011060001	2014	1	1
SSD011248012	2014	1	1
SSD011248006	2014	1	1
SSD011060001	2014	1	1
SYR011060001	2014	1	1
TCD011126007	2014	1	1
TCD011246004	2014	1	1
TCD011042020	2014	1	1
TCD011042020	2014	1	1
TCD011042016	2014	1	1
TCD011246031	2014	1	1
TCD011042005	2014	1	1
TUR011246031	2014	1	1
TZA011256001	2014	1	1
TZA011256001	2014	1	1
UGA011271031	2014	1	1
UKR011272042	2014	1	1
UKR011272044	2014	1	1
UKR011272042	2014	1	1
UKR011054008	2014	1	1
UKR011272051	2014	1	1
UNHCR1246031A	2014	1	1
UNHCR1081055	2014	1	1
UNHCR1121020	2014	1	1
UNHCR1142047	2014	1	1
UNHCR1049046	2014	1	1
USA011020001	2014	1	1
YEM011290002	2014	1	1
ZAF011170001	2014	1	1
ZMB011296019	2014	1	1
ZMB011296003	2014	1	1
ZMB011296016	2014	1	1
ZMB011296017	2014	1	1
ZMB011296023	2014	1	1
ZMB011296025	2014	1	1
ZMB011296027	2014	1	1
ARG011207000	2016	1	1
BFA011022006	2016	1	1
BGD011024006	2016	1	1
BRA011029014	2016	1	1
CAN011040021	2016	1	1
CIV011120004	2016	1	1
CIV011120004	2016	1	1
CMR011081025	2016	1	1
COD011047074	2016	1	1
COD011047074	2016	1	1
COD011047074	2016	1	1
COD011090003	2016	1	1
COD011047074	2016	1	1
COD011047074	2016	1	1
COL011049057	2016	1	1
COL011049018	2016	1	1
DJI011073021	2016	1	1
DJI011061000	2016	1	1
ECU011070043	2016	1	1
EGY011005016	2016	1	1
EGY011092047	2016	1	1
ETH011073001	2016	1	1
ETH011073001	2016	1	1
ETH011073001	2016	1	1
ETH011073001	2016	1	1
ETH011073001	2016	1	1
ETH011092074	2016	1	1
ETH011092045	2016	1	1
ETH011073042G	2016	1	1
LBN011246007	2016	1	1
IRQ011092062	2016	1	1
JOR011133031	2016	1	1
JOR011133026	2016	1	1
JORMN1123001	2016	1	1
IRQ011274079	2016	1	1
IRQ011040018	2016	1	1
IRQ011274001	2016	1	1
IRQ011125053	2016	1	1
IRQ011125046	2016	1	1
IRQ011125046	2016	1	1
LBY011092066	2016	1	1
LBY011081049	2016	1	1
LBY011274011	2016	1	1
LKA011193000	2016	1	1
MEX011173013	2016	1	1
MEX011173017	2016	1	1
MEX011173027	2016	1	1
MOZ011180005	2016	1	1
MWI011274040	2016	1	1
MYS011175027	2016	1	1
MYS011175033	2016	1	1
NER011194017	2016	1	1
NER011194013	2016	1	1
NER011194015	2016	1	1
NER011194009	2016	1	1
NGA011197000	2016	1	1
NGA011274035	2016	1	1
NGA011126018	2016	1	1
PAK011205048	2016	1	1
PAK011205046	2016	1	1
PAK011205060	2016	1	1
PAK011205046	2016	1	1
PAN011231005	2016	1	1
PAN011092074	2016	1	1
PHL011209010	2016	1	1
PHL011209030	2016	1	1
RWA011223054	2016	1	1
RWA011081016	2016	1	1
RWA011092074	2016	1	1
RWA011092045	2016	1	1
RWA011223058	2016	1	1
RWA011223054	2016	1	1
RWA011274071	2016	1	1
RWA011223059	2016	1	1
SDN011240090	2016	1	1
SDN011240116	2016	1	1
SOM011237061L	2016	1	1
SOM011237118	2016	1	1
SOM011237061L	2016	1	1
SSD011274015	2016	1	1
SSD011081049	2016	1	1
TZA011256008	2016	1	1
TZA011092028	2016	1	1
TZA011256026	2016	1	1
TZA011092045	2016	1	1
TZA011256001	2016	1	1
UGA011271018	2016	1	1
UGA011274054	2016	1	1
UKR011272055	2016	1	1
UNHCR1193029	2016	1	1
UNHCR1081070	2016	1	1
UNHCR1274059	2016	1	1
UNHCR1060001	2016	1	1
VEN011197000	2016	1	1
YEM011290002	2016	1	1
ZWE011297007L	2016	1	1
UGA011271006	2016	0	1
UGA011271006	2016	0	1
IRN011124065	2016	1	1
IRN011124065	2016	1	1
CAF011041000	2017	1	1
BDI011021007	2017	1	1
TCD011042005	2017	1	1
DJI011246004	2017	1	1
TCD011042005	2017	1	1
BDI011126036	2017	1	1
TCD011042000	2017	1	1
DJI011061000	2017	1	1
TCD011042005	2017	1	1
TCD011274001	2017	1	1
CAF011197000	2017	1	1
BDI011274001	2017	1	1
TCD011042012	2017	1	1
CAF011041008	2017	1	1
TCD011274001	2017	1	1
TCD011042003	2017	1	1
COD011047074	2017	1	1
COD011047074	2017	1	1
COD011046009	2017	1	1
COD011047074	2017	1	1
COD011042016	2017	1	1
SSD011274015	2017	1	1
TZA011144004	2017	1	1
TZA011197000	2017	1	1
SOM011237073	2017	1	1
SOM011237097	2017	1	1
UGA011271038G	2017	1	1
UGA011274128	2017	1	1
SOM011237125	2017	1	1
UGA011271004	2017	1	1
UGA011246004	2017	1	1
UGA011246004	2017	1	1
UGA011271020	2017	1	1
UGA011094032	2017	1	1
UGA011274104	2017	1	1
UGA011271037G	2017	1	1
UGA011271015	2017	1	1
UGA011197000	2017	1	1
UGA011271013	2017	1	1
UGA011271020	2017	1	1
UGA011060012	2017	1	1
UGA011126026	2017	1	1
UGA011271051	2017	1	1
UGA011271027	2017	1	1
UGA011271054	2017	1	1
BWA011028003	2017	1	1
NER011194021	2017	1	1
NER011194013	2017	1	1
CMR011246016	2017	1	1
CMR011042016	2017	1	1
COL011049018	2017	1	1
USA011092084	2017	1	1
UNHCR1274059	2017	1	1
BRA011029006	2017	1	1
DOM011062018	2017	1	1
DOM011062018	2017	1	1
BRA011029017	2017	1	1
PAN011231005	2017	1	1
MYS011175033	2017	1	1
BGD011274056	2017	1	1
BGD011246030I	2017	1	1
BGD011092045	2017	1	1
MYS011175019	2017	1	1
AFG011001201	2017	1	1
AFG011001201	2017	1	1
AFG011001201	2017	1	1
AFG011001024	2017	1	1
AFG011001024	2017	1	1
AFG011001181	2017	1	1
AFG011001201	2017	1	1
AFG011001201	2017	1	1
AFG011001201	2017	1	1
PAK011246002	2017	1	1
ALB011002020	2017	1	1
ARM011007013	2017	1	1
TUR011054008	2017	1	1
TUR011263017	2017	1	1
UNHCR1193029	2017	1	1
GRC011081069	2017	1	1
UNHCR1246002	2017	1	1
TUR011081049	2017	1	1
TUR011263003	2017	1	1
UNHCR1246051	2017	1	1
EGY011005010	2017	1	1
LBY011081049	2017	1	1
MRT011171014	2017	1	1
RWA011223055	2017	1	1
RWA011223060	2017	1	1
SSD011092056	2017	1	1
SSD011073021	2017	1	1
SSD011248012	2017	1	1
TZA011256031	2017	1	1
TZA011092045	2017	1	1
RWA011223055	2017	1	1
TZA011271031	2017	1	1
UGA011271006	2017	1	1
UGA011271018	2017	1	1
UGA011271024	2017	1	1
IRQ011125046	2017	1	1
IRQ011125046	2017	1	1
IRQ011274001	2017	1	1