[
  {
    "model": "project.sensecheck",
    "pk": 1,
    "fields": {
      "code": "SC01",
      "description": "Projects at Risk Threshold 2.6 or above (Before Sense Check) with values >=150,000",
      "settings": {
        "function": "check_risk_and_cost_benefit"
      }
    }
  },
  {
    "model": "project.sensecheck",
    "pk": 2,
    "fields": {
      "code": "SC02",
      "description": "Projects Having Adverse or Disclaimer of Opinion between {current_year - 4; current_year - 1} - with values >=150000",
      "settings": {
        "function": "check_adverse_disclaimer"
      }
    }
  },
  {
    "model": "project.sensecheck",
    "pk": 3,
    "fields": {
      "code": "SC03",
      "description": "Projects implemented by All New Partner to UNHCR Worldwide with values >=150,000",
      "settings": {
        "function": "check_if_new_partner"
      }
    }
  },
  {
    "model": "project.sensecheck",
    "pk": 4,
    "fields": {
      "code": "SC04",
      "description": "Partners not Audited in the last 4 years with values >=150,000",
      "settings": {
        "function": "check_if_not_audited_in_last_4_year"
      }
    }
  },
  {
    "model": "project.sensecheck",
    "pk": 5,
    "fields": {
      "code": "SC05",
      "description": "Partners with qualified opinions in {current_year - 1} audit cycle with values >=150000",
      "settings": {
        "function": "check_if_qualified_opinion_last_year"
      }
    }
  },
  {
    "model": "project.sensecheck",
    "pk": 6,
    "fields": {
      "code": "SC06",
      "description": "Projects with Budget >=5M",
      "settings": {
        "function": "check_high_values_threshold"
      }
    }
  },
  {
    "model": "project.sensecheck",
    "pk": 7,
    "fields": {
      "code": "SC07",
      "description": "Projects having Budget >=645K (In OIOS Top 20 Countries)",
      "settings": {
        "function": "check_materiality_and_oios"
      }
    }
  },
  {
    "model": "project.sensecheck",
    "pk": 8,
    "fields": {
      "code": "SC08",
      "description": "Projects having Budget >=645K (In OIOS Top 20 Countries) - 10 Highest Budget",
      "settings": {
        "function": "check_materiality_oios_and_budget"
      }
    }
  },
  {
    "model": "project.sensecheck",
    "pk": 9,
    "fields": {
      "code": "SC09",
      "description": "Projects having Budget >=645K (In OIOS Top 20 Countries) - out of 10 Highest Budget but with recent ICQ <0.70",
      "settings": {
        "function": "check_materiality_oios_budget_and_icq"
      }
    }
  },
  {
    "model": "project.sensecheck",
    "pk": 10,
    "fields": {
      "code": "SC10",
      "description": "Partner Not Audited for 2016/17 agreements in 2018-2019 audit cycles with values >=150000",
      "settings": {
        "function": "check_not_audited_projects"
      }
    }
  },
  {
    "model": "project.sensecheck",
    "pk": 11,
    "fields": {
      "code": "SC11",
      "description": "Projects Having Budget <645K, Not in Top 20 Risky Countries with values >=150000",
      "settings": {
        "function": "check_materiality_and_not_in_oios"
      }
    }
  },
  {
    "model": "project.sensecheck",
    "pk": 12,
    "fields": {
      "code": "SC12",
      "description": "Manually Included"
    }
  },
  {
    "model": "project.sensecheck",
    "pk": 13,
    "fields": {
      "code": "SC13",
      "description": "Manually Excluded"
    }
  },
  {
    "model": "project.sensecheck",
    "pk": 14,
    "fields": {
      "code": "SC14",
      "description": "Added as per Field request"
    }
  },
  {
    "model": "project.sensecheck",
    "pk": 15,
    "fields": {
      "code": "SC15",
      "description": "Posponed and cancelled audits not audited so far due to the COVID",
      "settings": {
        "function": "check_postponed_and_cancelled"
      }
    }
  },
  {
    "model": "project.sensecheck",
    "pk": 16,
    "fields": {
      "code": "SC16",
      "description": "Already selected for audit"
    }
  }
]