[
  {
    "model": "project.selectionsettings",
    "pk": 1,
    "fields": {
      "created_date": "2020-06-16T09:06:46Z",
      "last_modified_date": "2020-06-16T09:06:46Z",
      "user": null,
      "cycle": 1,
      "procurement_perc": "0.100",
      "cash_perc": "0.100",
      "staff_cost_perc": "0.100",
      "emergency_perc": "0.050",
      "audit_perc": "0.200",
      "oios_perc": "0.200",
      "field_assessment_perc": "0.250",
      "risk_threshold": "1.000",
      "cost_benefit": 150000,
      "high_values": 5000000,
      "materiality": 645000,
      "sense_check_icq": 0
    }
  },
  {
    "model": "project.selectionsettings",
    "pk": 2,
    "fields": {
      "created_date": "2020-06-16T09:06:46Z",
      "last_modified_date": "2020-06-16T09:06:46Z",
      "user": null,
      "cycle": 2,
      "procurement_perc": "0.100",
      "cash_perc": "0.100",
      "staff_cost_perc": "0.100",
      "emergency_perc": "0.050",
      "audit_perc": "0.200",
      "oios_perc": "0.200",
      "field_assessment_perc": "0.250",
      "risk_threshold": "1.000"
    }
  },
  {
    "model": "project.selectionsettings",
    "pk": 3,
    "fields": {
      "created_date": "2020-06-16T09:06:46Z",
      "last_modified_date": "2020-06-16T09:06:46Z",
      "user": null,
      "cycle": 3,
      "procurement_perc": "0.100",
      "cash_perc": "0.100",
      "staff_cost_perc": "0.100",
      "emergency_perc": "0.050",
      "audit_perc": "0.200",
      "oios_perc": "0.200",
      "field_assessment_perc": "0.250",
      "risk_threshold": "1.000",
    }
  },
  {
    "model": "project.selectionsettings",
    "pk": 4,
    "fields": {
      "created_date": "2020-06-16T09:06:46Z",
      "last_modified_date": "2020-06-16T09:06:46Z",
      "user": null,
      "cycle": 4,
      "procurement_perc": "0.100",
      "cash_perc": "0.100",
      "staff_cost_perc": "0.100",
      "emergency_perc": "0.050",
      "audit_perc": "0.200",
      "oios_perc": "0.200",
      "field_assessment_perc": "0.250",
      "risk_threshold": "1.000"
    }
  }
]
