[
    {
        "model": "unhcr.role",
        "pk": 1,
        "fields": {
            "created_date": "2020-09-22T03:59:50.322Z",
            "last_modified_date": "2020-09-22T03:59:50.322Z",
            "user": null,
            "role": "PREPARER",
            "permissions": [
                1,
                2
            ]
        }
    },
    {
        "model": "unhcr.role",
        "pk": 2,
        "fields": {
            "created_date": "2020-09-22T03:59:50.346Z",
            "last_modified_date": "2020-09-22T03:59:50.346Z",
            "user": null,
            "role": "REVIEWER",
            "permissions": [
                1,
                2
            ]
        }
    },
    {
        "model": "unhcr.role",
        "pk": 3,
        "fields": {
            "created_date": "2020-09-22T03:59:50.371Z",
            "last_modified_date": "2020-09-22T03:59:50.371Z",
            "user": null,
            "role": "APPROVER",
            "permissions": [
                1,
                2
            ]
        }
    }
]