[
    {
        "model": "auditing.auditagency",
        "pk": 5,
        "fields": {
            "created_date": "2020-09-22T03:59:55.833Z",
            "last_modified_date": "2020-09-22T03:59:55.833Z",
            "user": null,
            "legal_name": "BDO Jordan",
            "address_1": "256, King Abdullah II",
            "address_2": "Jandaweel",
            "city": "Amman",
            "telephone": null,
            "fullname": null,
            "email": null,
            "country": 114
        }
    },
    {
        "model": "auditing.auditagency",
        "pk": 6,
        "fields": {
            "created_date": "2020-09-22T03:59:56.674Z",
            "last_modified_date": "2020-09-22T03:59:56.674Z",
            "user": null,
            "legal_name": "BDO LLP UK",
            "address_1": "150 Aldersgate Street",
            "address_2": "Aldersgate,  EC1A 4AB ",
            "city": "London",
            "telephone": null,
            "fullname": null,
            "email": null,
            "country": 239
        }
    },
    {
        "model": "auditing.auditagency",
        "pk": 7,
        "fields": {
            "created_date": "2020-09-22T03:59:57.461Z",
            "last_modified_date": "2020-09-22T03:59:57.461Z",
            "user": null,
            "legal_name": "KPMG",
            "address_1": "Laan van Langerhuize 9",
            "address_2": "",
            "city": "Amstelveen",
            "telephone": null,
            "fullname": null,
            "email": null,
            "country": null
        }
    },
    {
        "model": "auditing.auditagency",
        "pk": 8,
        "fields": {
            "created_date": "2020-09-22T03:59:58.118Z",
            "last_modified_date": "2020-09-22T03:59:58.118Z",
            "user": null,
            "legal_name": "PWC",
            "address_1": "Via Ettore Petrolini 2",
            "address_2": "",
            "city": "Rome",
            "telephone": null,
            "fullname": null,
            "email": null,
            "country": 109
        }
    },
    {
        "model": "auditing.auditagency",
        "pk": 9,
        "fields": {
            "created_date": "2020-09-22T03:59:58.841Z",
            "last_modified_date": "2020-09-22T03:59:58.841Z",
            "user": null,
            "legal_name": "ALGA (Association Local Government Auditors)",
            "address_1": "449 Lewis Hargett Circle",
            "address_2": "Suite 1900, KY 40503",
            "city": "Lexington",
            "telephone": null,
            "fullname": null,
            "email": null,
            "country": 240
        }
    },
    {
        "model": "auditing.role",
        "pk": 1,
        "fields": {
            "created_date": "2020-09-22T03:59:50.395Z",
            "last_modified_date": "2020-09-22T03:59:50.395Z",
            "user": null,
            "role": "REVIEWER",
            "permissions": [
                1
            ]
        }
    },
    {
        "model": "auditing.role",
        "pk": 2,
        "fields": {
            "created_date": "2020-09-22T03:59:50.413Z",
            "last_modified_date": "2020-09-22T03:59:50.413Z",
            "user": null,
            "role": "ADMIN",
            "permissions": [
                1
            ]
        }
    },
    {
        "model": "auditing.auditworksplitgroup",
        "pk": 1,
        "fields": {
            "created_date": "2020-09-22T04:01:02.803Z",
            "last_modified_date": "2020-09-22T04:01:02.803Z",
            "user": null,
            "name": "Group A",
            "business_units": [
                12,
                15,
                20
            ]
        }
    },
    {
        "model": "auditing.auditworksplitgroup",
        "pk": 2,
        "fields": {
            "created_date": "2020-09-22T04:01:02.834Z",
            "last_modified_date": "2020-09-22T04:01:02.834Z",
            "user": null,
            "name": "Group B",
            "business_units": [
                4,
                6,
                9,
                26
            ]
        }
    },
    {
        "model": "auditing.auditworksplitgroup",
        "pk": 3,
        "fields": {
            "created_date": "2020-09-22T04:01:02.863Z",
            "last_modified_date": "2020-09-22T04:01:02.863Z",
            "user": null,
            "name": "Group C",
            "business_units": [
                22,
                25
            ]
        }
    },
    {
        "model": "auditing.auditworksplitgroup",
        "pk": 4,
        "fields": {
            "created_date": "2020-09-22T04:01:02.893Z",
            "last_modified_date": "2020-09-22T04:01:02.893Z",
            "user": null,
            "name": "Group D",
            "business_units": [
                11,
                24
            ]
        }
    },
    {
        "model": "auditing.auditworksplitgroup",
        "pk": 5,
        "fields": {
            "created_date": "2020-09-22T04:01:02.927Z",
            "last_modified_date": "2020-09-22T04:01:02.927Z",
            "user": null,
            "name": "Group E",
            "business_units": [
                2,
                7,
                8,
                21
            ]
        }
    },
    {
        "model": "auditing.auditworksplitgroup",
        "pk": 6,
        "fields": {
            "created_date": "2020-09-22T04:01:02.961Z",
            "last_modified_date": "2020-09-22T04:01:02.961Z",
            "user": null,
            "name": "Group F",
            "business_units": [
                21,
                29
            ]
        }
    },
    {
        "model": "auditing.auditworksplitgroup",
        "pk": 7,
        "fields": {
            "created_date": "2020-09-22T04:01:03.010Z",
            "last_modified_date": "2020-09-22T04:01:03.010Z",
            "user": null,
            "name": "Group G",
            "business_units": [
                32,
                1,
                17,
                18,
                28,
                30,
                31
            ]
        }
    },
    {
        "model": "auditing.auditworksplitgroup",
        "pk": 8,
        "fields": {
            "created_date": "2020-09-22T04:01:03.064Z",
            "last_modified_date": "2020-09-22T04:01:03.064Z",
            "user": null,
            "name": "Group H",
            "business_units": [
                3,
                5,
                13,
                16,
                19,
                23,
                27
            ]
        }
    },
    {
        "model": "auditing.auditworksplitgroup",
        "pk": 9,
        "fields": {
            "created_date": "2020-09-22T04:01:03.117Z",
            "last_modified_date": "2020-09-22T04:01:03.117Z",
            "user": null,
            "name": "Group I",
            "business_units": [
                36,
                37,
                39,
                40,
                42
            ]
        }
    },
    {
        "model": "auditing.auditworksplitgroup",
        "pk": 10,
        "fields": {
            "created_date": "2020-09-22T04:01:03.178Z",
            "last_modified_date": "2020-09-22T04:01:03.178Z",
            "user": null,
            "name": "Group J",
            "business_units": [
                33,
                34,
                35,
                38,
                41,
                43
            ]
        }
    },
    {
        "model": "auditing.auditworksplitgroup",
        "pk": 11,
        "fields": {
            "created_date": "2020-09-22T04:01:03.234Z",
            "last_modified_date": "2020-09-22T04:01:03.234Z",
            "user": null,
            "name": "Group K",
            "business_units": [
                44,
                48
            ]
        }
    },
    {
        "model": "auditing.auditworksplitgroup",
        "pk": 12,
        "fields": {
            "created_date": "2020-09-22T04:01:03.296Z",
            "last_modified_date": "2020-09-22T04:01:03.296Z",
            "user": null,
            "name": "Group L",
            "business_units": [
                50,
                51,
                56,
                59
            ]
        }
    },
    {
        "model": "auditing.auditworksplitgroup",
        "pk": 13,
        "fields": {
            "created_date": "2020-09-22T04:01:03.376Z",
            "last_modified_date": "2020-09-22T04:01:03.376Z",
            "user": null,
            "name": "Group M",
            "business_units": [
                45,
                47,
                52,
                53,
                54,
                55,
                57,
                58
            ]
        }
    },
    {
        "model": "auditing.auditworksplitgroup",
        "pk": 14,
        "fields": {
            "created_date": "2020-09-22T04:01:03.469Z",
            "last_modified_date": "2020-09-22T04:01:03.469Z",
            "user": null,
            "name": "Group N",
            "business_units": [
                74,
                75,
                77,
                81,
                86,
                87,
                62
            ]
        }
    },
    {
        "model": "auditing.auditworksplitgroup",
        "pk": 15,
        "fields": {
            "created_date": "2020-09-22T04:01:03.584Z",
            "last_modified_date": "2020-09-22T04:01:03.584Z",
            "user": null,
            "name": "Group O",
            "business_units": [
                65,
                72,
                83,
                88,
                89,
                122,
                61
            ]
        }
    },
    {
        "model": "auditing.auditworksplitgroup",
        "pk": 16,
        "fields": {
            "created_date": "2020-09-22T04:01:03.679Z",
            "last_modified_date": "2020-09-22T04:01:03.679Z",
            "user": null,
            "name": "Group P",
            "business_units": [
                67,
                73,
                79,
                80,
                84,
                85,
                60,
                63
            ]
        }
    },
    {
        "model": "auditing.auditworksplitgroup",
        "pk": 17,
        "fields": {
            "created_date": "2020-09-22T04:01:03.783Z",
            "last_modified_date": "2020-09-22T04:01:03.783Z",
            "user": null,
            "name": "Group Q",
            "business_units": [
                98,
                104,
                105,
                106,
                108,
                117
            ]
        }
    },
    {
        "model": "auditing.auditworksplitgroup",
        "pk": 18,
        "fields": {
            "created_date": "2020-09-22T04:01:03.892Z",
            "last_modified_date": "2020-09-22T04:01:03.892Z",
            "user": null,
            "name": "Group R",
            "business_units": [
                101,
                103
            ]
        }
    },
    {
        "model": "auditing.auditworksplitgroup",
        "pk": 19,
        "fields": {
            "created_date": "2020-09-22T04:01:03.990Z",
            "last_modified_date": "2020-09-22T04:01:03.990Z",
            "user": null,
            "name": "Group S",
            "business_units": [
                99,
                109
            ]
        }
    },
    {
        "model": "auditing.auditworksplitgroup",
        "pk": 20,
        "fields": {
            "created_date": "2020-09-22T04:01:04.085Z",
            "last_modified_date": "2020-09-22T04:01:04.085Z",
            "user": null,
            "name": "Group T",
            "business_units": [
                102,
                107
            ]
        }
    },
    {
        "model": "auditing.auditworksplitgroup",
        "pk": 21,
        "fields": {
            "created_date": "2020-09-22T04:01:04.181Z",
            "last_modified_date": "2020-09-22T04:01:04.181Z",
            "user": null,
            "name": "Group U",
            "business_units": [
                100
            ]
        }
    }
]