[
    {
        "model": "account.user",
        "pk": 1,
        "fields": {
            "password": "pbkdf2_sha256$150000$SV1PlBhW0S21$HBTzyCerd6ZoTKxPK8zmXGDaadtHd8zwMEVQcGgRlDM=",
            "last_login": null,
            "is_superuser": true,
            "fullname": "Admin",
            "email": "admin@unhcr.org",
            "is_staff": true,
            "is_active": true,
            "phone": null,
            "date_joined": "2020-09-22T03:59:50.431Z",
            "groups": [],
            "user_permissions": []
        }
    }
]