﻿id,code,type,desc
1,601100,1,Tents
2,602100,1,Blankets
3,602200,1,Mosquito Nets
4,602400,1,Sleeping Matresses
5,602500,1,Other Bedding Materials
6,603050,1,Kitchen Sets
7,603100,1,Cooking Stoves
8,603150,1,Jerry Cans / Water Buckets
9,603200,1,Finishing Materials
10,603250,1,Wiring and Electrical Supplies
11,603300,1,Agri/Forest/Fish/Farming Suppl
12,603350,1,Fuel/Gas/Wood for Household
13,603450,1,Other Household Items
14,604250,1,Clothing and Footware
15,604300,1,"Drugs, Medicines, Med Supplies"
16,604350,1,Emergency Medical Kits
17,604400,1,Medical Supplies - Laboratory
18,604450,1,Nutrition Surveillance Kits
19,604500,1,Vaccines
20,604550,1,Personal Care & Hygenic Suppl.
21,604600,1,Medical Tools and Equipment
22,605100,1,Construction Materials
23,605150,1,Constr Tools Equipm
24,606200,1,Basic Food
25,609100,1,Educ. & School Supplies
26,609200,1,Teaching/Training Equip
27,609300,1,Water Pump
28,609400,1,Water Tank
29,609500,1,Other Water Tools Equipm
30,609600,1,Water Pipes & Related Suppl
31,609700,1,Other Tools and Equipment
32,611000,2,Intl Partner-HQ Support Cost
33,611150,3,CBI-Basic Needs (Multipurpose)
34,611250,3,"CBI - Shelter, Housing"
35,611350,3,CBI - Food
36,611450,3,CBI - Winterisation
37,611550,3,CBI - Energy
38,612440,3,CBI - Education
39,612480,3,CBI - Vol Repatriation Needs
40,612520,3,CBI - Resettlement Needs
41,612560,3,"CBI-Hygiene, Sanitation Needs"
42,612600,3,CBI-Livelihood/Business Grant
43,612640,3,CBI - Training (Livelihood)
44,612680,3,CBI - Water
45,612720,3,CBI - Cash-for-Work
46,613050,3,CBI - Health
47,614070,2,Centrally Managed Direct Cost
48,614075,2,Locally Managed Direct Cost
49,619050,3,"CBI - Visa, Permits, Documents"
50,619150,3,CBI - Other
51,621050,4,Consultants Fees
52,621100,1,Consultants Travel
53,621150,4,Consultants Per Diem
54,622050,4,UNV/UN Int'l Personnel Cost
55,622100,4,UNV/UN Nat'l Personnel Cost
56,622200,1,UNV/UN Personnel - Other Costs
57,622250,4,Partner Personnel Cost - Int'l
58,622300,4,Partner Personnel Cost - Nat'l
59,622650,4,POC Hired - Prof Work
60,622700,4,Other Individual Contractors
61,622750,4,POC Hired for Casual Labor
62,623050,1,Construction - Bldgs for Ops
63,623250,1,Construction - Earthworks
64,623300,1,Construction-Pipeline & Canal
65,623350,1,Construction-Site Construction
66,623400,1,"Construct-Borehole, Reservoir"
67,623450,1,"Construction - Road, Bridge"
68,624050,1,Transportation Land
69,624350,1,Transportation Air
70,624550,1,Transport - Maritime & Fluvial
71,624560,1,Transportation Services for Be
72,624700,1,"Cargo Handling, Customs, Etc"
73,624750,1,Warehouse Rental & Magmt
74,625200,1,Audit - Partnership Audits
75,625400,1,Medical Care for Beneficiaries
76,625500,1,Legal Services
77,625550,1,Evaluation Services
78,625600,1,Inspection Services
79,625650,1,"Reports, Specialized Services"
80,625700,1,Other Professional Services
81,626050,1,Advertising/Marketing Contract
82,626100,1,Film/Video Producing Contract
83,626200,1,"Graphics, Design Contract"
84,626250,1,"Other Media, PI Contract"
85,627050,1,Software Development Service
86,627060,1,Software Maintenance Service
87,627100,1,Data Processing Service
88,627200,1,ICT Managed Equipment and Serv
89,628050,1,Translation/ Interpretation
90,628100,1,Printing / Publications
91,629100,1,Vehicle Maintenance/Repair
92,629150,1,Trave Docume for Benefi
93,629200,1,Other Contractual Services
94,629300,1,GFM Inter-Unit-Vehicle Trackin
95,631050,1,Rental of Premises
96,631100,1,Office Repairs & Alterations
97,631150,1,Cleaning Services
98,631200,1,Office - Maintenance
99,632100,1,Vehicle Maintenance
100,632200,1,GFM Inter-Unit Charge - Vehicl
101,632300,1,Vehicle Rental - Other
102,632400,1,Office Equipment Rental
103,632500,1,Other Equipment Maintenance
104,634100,1,Telecommunications
105,634200,1,"Mail, Courier Service"
106,635100,1,Utilities - Electricity
107,635200,1,Utilities - Water
108,635300,1,Utilities - Gas
109,635400,1,Utilities - Other
110,636100,1,Security Services
111,637100,1,Fuel for Vehicles - Diesel
112,637200,1,Fuel for Vehicl Petrol Benzin
113,637300,1,Fuel for Vehicles - Other
114,637400,1,Engine Oil and Lubricants
115,638150,1,GFM Inter-Unit Charge - Insura
116,638200,1,Insurance
117,639100,1,Bank Charges - Partners
118,639150,3,CBI Financial Service Provider
119,639300,1,"Local Transport-Taxi, Car Rent"
120,639400,1,Other Supplies and Materials
121,639450,1,Other Operating Expense
122,651200,1,Buildings
123,651300,1,Container
124,651400,1,Prefabricated House
125,651500,1,Prefabricated Warehouse
126,652100,1,Alterations and Improvements
127,653100,1,Computer Equipment
128,653200,1,Data Processing Supplies
129,653300,1,Comm Equipment & Supplies
130,653400,1,Security & Safety Equipment
131,653500,1,Generators
132,653600,1,Registration Equipment
133,653700,1,Other Equipment and Supplies
134,654100,1,Heavy Comm'l Vehicles & Trucks
135,654200,1,Vehicles & Transport Equip.
136,654300,1,Vessels and Boats
137,654400,1,Transpt Supplies & Spareparts
138,655100,1,Furniture and Fixture
139,657100,1,Stationary Office Supplies
140,657200,1,Subscriptions
141,661200,1,"Travel- Staff-Local, Regional"
142,665100,1,UNV/UN Travel
143,665200,4,Partner Travel
144,665300,1,Travel - Non UNHCR Personnel
145,691300,1,Training UNHCR Staff
146,691400,1,Partner Training/Capacity Bldg
147,692100,1,Seminars and Workshops
148,695700,1,Quick Impact Activities
149,629050,2,Joint Contribution to UN Administration
150,602300,1,Plastic Sheeting
151,622450,4,Individual Contractors (UNOPS ICAs) – National
152,622400,4,Individual Contractors (UNOPS ICAs) – International
153,629250,1,GFM Hub Contracting Service
154,622800,4,Intern Food and Transportation Allowances