﻿id,code,name,country-code,country
1,AFG01,Afghanistan,AFG,117
2,AGO01,Angola,AGO,101
3,ALB01,Albania,ALB,2
4,ARG01,Argentina,ARG,72
5,ARM01,Armenia,ARM,3
6,BDI01,Burundi,BDI,64
6,BDI01,Burundi,DRSGO,47
7,BEL01,Belgium,GBR,95
7,BEL01,Belgium,BEL,4
7,BEL01,Belgium,FRA,96
8,BFA01,Burkina Faso,BFA,120
9,BGD01,Bangladesh,BGD,107
10,BGR01,Bulgaria,BGR,5
11,BIH01,Bosnia and Herzegovina,BIH,6
12,BLR01,Belarus,BLR,51
13,BRA01,Brazil,BRA,73
14,CAF01,Central African Republic,CAF,65
15,CHE01,SWITZERLAND & LIECHTENSTEIN,CHE,7
16,CIV01,Ivory Coast,CIV,121
17,CMR01,Cameroon,CMR,66
17,CMR01,Cameroon,DRSGO,47
18,COD01,"Congo, Democratic Republic of",COD RO,67
18,COD01,"Congo, Democratic Republic of",GAB,8
19,COG01,"Congo, Republic of",COG,68
20,COL01,Colombia,COL,74
21,CRI01,Costa Rica,CRI,75
21,CRI01,Costa Rica,CRIRLU,76
22,CYP01,Cyprus,CYP,9
23,CZE01,Czech Republic,CZE,10
24,DEU01,Germany,DEU,97
25,DJI01,Djibouti,DJI,55
26,DOM01,Dominican Republic,USA,1
26,DOM01,Dominican Republic,DOM,11
27,DZA01,Algeria,DZA,88
27,DZA01,Algeria,DRSGO,47
27,DZA01,Algeria,DIP-GLO,44
28,ECU01,Ecuador,ECU,77
28,ECU01,Ecuador,DRSGO,47
28,ECU01,Ecuador,DIP-GLO,44
29,EGY01,Egypt,EGY,89
29,EGY01,Egypt,DRSGO,47
30,ERI01,Eritrea,ERI,56
31,ESH01,Western Sahara,ESH,90
32,ETH01,Ethiopia,ETH,57
32,ETH01,Ethiopia,DRSGO,47
33,FRA01,France,FRA,96
34,GBR01,United Kingdom,GBR,95
35,GEO01,Georgia,GEO,12
36,GHA01,Ghana,GHA,122
36,GHA01,Ghana,DRSGO,47
37,GIN01,Guinea,GIN,13
37,GIN01,Guinea,SEN,14
38,GRC01,Greece,GRC,98
39,HRV01,Croatia,HRV,15
40,HUN01,Hungary,HUN,16
40,HUN01,Hungary,DERS-GLO,40
41,IDN01,Indonesia,IDN,108
42,IND01,India,IND,114
42,IND01,India,DRSGO,47
43,IRL01,Ireland,IRL,17
44,IRN01,Iran,IRN,118
45,IRQ01,Iraq,IRQ,81
45,IRQ01,Iraq,DRSGO,47
46,ISR01,Israel,ISR,82
46,ISR01,Israel,DIP-GLO,44
47,ITA01,Italy,ITA,18
47,ITA01,Italy,MLT,19
47,ITA01,Italy,ESP,20
48,JOR01,Jordan,JOR,83
48,JOR01,Jordan,DRSGO,47
49,JORMN,Office of the Dir for MENA,SRRCO,84
50,JPN01,Japan,JPN,48
51,KAZ01,Kazakhstan,KAZ RO,37
52,KEN01,Kenya,KEN,58
52,KEN01,Kenya,DRSGO,47
53,KGZ01,Kyrgyztan,KGZ,38
54,LBN01,Lebanon,LBN,85
54,LBN01,Lebanon,DRSGO,47
55,LBR01,Liberia,LBR,123
55,LBR01,Liberia,DRSGO,47
56,LBY01,Libya,LBY,91
57,LKA01,Sri Lanka,LKA,115
58,MAR01,Morocco,MAR,92
58,MAR01,Morocco,DRSGO,47
58,MAR01,Morocco,DIP-GLO,44
59,MDA01,Moldova,MDA,21
60,MEX01,Mexico,MEX,78
61,MKD01,Macedonia,MKD,22
62,MLI01,Mali,MLI,124
62,MLI01,Mali,DRSGO,47
63,MMR01,Myanmar,MMR,109
64,MNE01,Montenegro,MNE,23
65,MOZ01,Mozambique,MOZ,102
66,MRT01,Mauritania,MRT,93
66,MRT01,Mauritania,DRSGO,47
67,MWI01,Malawi,MWI,103
67,MWI01,Malawi,DIP-GLO,44
68,MYS01,Malaysia,MYS,110
69,NER01,Niger,NER,125
70,NGA01,Nigeria,NGA,126
71,NPL01,Nepal,NPL,116
72,PAK01,Pakistan,PAK,119
72,PAK01,Pakistan,DRSGO,47
72,PAK01,Pakistan,DIP-GLO,44
73,PAN01,Panama,PAN RO,79
73,PAN01,Panama,BZE,24
74,PHL01,Philippines,PHL,111
75,POL01,Poland,POL,25
76,ROU01,Romania,ROU,26
77,RUS01,Russia,RUS,52
78,RWA01,Rwanda,RWA,69
78,RWA01,Rwanda,DIP-GLO,44
79,SCG02,Kosovo,KOS,27
80,SDN01,Sudan,SDN,59
80,SDN01,Sudan,DRSGO,47
81,SEN01,Senegal,GNB,28
81,SEN01,Senegal,GMB,29
81,SEN01,Senegal,SEN,14
81,SEN01,Senegal,DRSGO,47
81,SEN01,Senegal,BEN,30
81,SEN01,Senegal,SLE,31
82,SOM01,Somalia,SOM,60
83,SRB01,"Serbia, Republic of",SRB,32
84,SSD01,South Sudan,SSD,61
84,SSD01,South Sudan,DRSGO,47
85,SVN01,Slovenia,SVN,33
86,SWE01,Sweden,SWE RO,99
87,SYR01,Syria,SYR,86
88,TCD01,Chad,TCD,62
88,TCD01,Chad,DRSGO,47
88,TCD01,Chad,DIP-GLO,44
89,TGO01,Togo,TGO,34
90,THA01,Thailand,THA,112
90,THA01,Thailand,THA RO,113
91,TJK01,Tajikistan,TJK,39
91,TJK01,Tajikistan,DRSGO,47
92,TUN01,Tunisia,TUN,94
93,TUR01,Turkey,TUR,53
93,TUR01,Turkey,DRSGO,47
94,TZA01,Tanzania,TZA,70
94,TZA01,Tanzania,DRSGO,47
95,UGA01,Uganda,UGA,63
95,UGA01,Uganda,DRSGO,47
95,UGA01,Uganda,DERS-GLO,40
96,UKR01,Ukraine,UKR,54
97,UNHCR,High Commissioner for Refugees,DIP-GLO,44
97,UNHCR,High Commissioner for Refugees,REU,100
97,UNHCR,High Commissioner for Refugees,EXOFF-GO,50
97,UNHCR,High Commissioner for Refugees,DIP RE,45
97,UNHCR,High Commissioner for Refugees,PSP GO,41
97,UNHCR,High Commissioner for Refugees,DERS-GLO,40
97,UNHCR,High Commissioner for Refugees,DRSGO,47
97,UNHCR,High Commissioner for Refugees,DPSM GO,46
97,UNHCR,High Commissioner for Refugees,DHRM-GLO,43
97,UNHCR,High Commissioner for Refugees,DESS GLO SMS,42
97,UNHCR,High Commissioner for Refugees,EAPOV,49
98,USA01,United States of America,TTO,35
98,USA01,United States of America,USA,1
99,VEN01,Venezuela,VEN,80
100,YEM01,Yemen,YEM,87
101,ZAF01,South Africa,ZAF RO,104
101,ZAF01,South Africa,BWA,36
101,ZAF01,South Africa,DRSGO,47
102,ZMB01,Zambia,ZMB,105
103,ZWE01,Zimbabwe,ZWE,106
103,ZWE01,Zimbabwe,DIP-GLO,44