﻿pk,code,name
2,SWASIA,South-West Asia
3,LAM,Latin Africa
4,NWCENSEUROPE,North West Cen South Europe
6,DIP-GO,Div International Protection
1,SAO,Southern Africa
1,GLA,Central Africa and Great Lakes
6,DRS GO,Div of Resilience & Solutions
1,WCA,West Africa
2,SEA,South East Asia
4,EEUROPE,Eastern Europe
1,EHA,East and Horn of Africa
5,NAFRICA,North Africa
6,DER-GO,Div of External Relations
2,SOA,South Asia
5,MIDEAST,Middle East
2,EAP,East Asia and the Pacific
2,CASIA,Central Asia
6,EDM-GO,Executive Direction & Mgmt
6,DPSM-GO,Div Programme Support Manageme
6,DHRM-GO,Div Human Resources
6,DESS - GO,"Div Emergency, Security&Supply"