﻿code,id,name
AFG01,1,Afghanistan
AGO01,2,Angola
ALB01,3,Albania
ARG01,4,Argentina
ARM01,5,Armenia
BDI01,6,Burundi
BEL01,7,Belgium
BFA01,8,Burkina Faso
BGD01,9,Bangladesh
BGR01,10,Bulgaria
BIH01,11,Bosnia and Herzegovina
BLR01,12,Belarus
BRA01,13,Brazil
CAF01,14,Central African Republic
CHE01,15,SWITZERLAND & LIECHTENSTEIN
CIV01,16,Ivory Coast
CMR01,17,Cameroon
COD01,18,"Congo, Democratic Republic of"
COG01,19,"Congo, Republic of"
COL01,20,Colombia
CRI01,21,Costa Rica
CYP01,22,Cyprus
CZE01,23,Czech Republic
DEU01,24,Germany
DJI01,25,Djibouti
DOM01,26,Dominican Republic
DZA01,27,Algeria
ECU01,28,Ecuador
EGY01,29,Egypt
ERI01,30,Eritrea
ESH01,31,Western Sahara
ETH01,32,Ethiopia
FRA01,33,France
GBR01,34,United Kingdom
GEO01,35,Georgia
GHA01,36,Ghana
GIN01,37,Guinea
GRC01,38,Greece
HRV01,39,Croatia
HUN01,40,Hungary
IDN01,41,Indonesia
IND01,42,India
IRL01,43,Ireland
IRN01,44,Iran
IRQ01,45,Iraq
ISR01,46,Israel
ITA01,47,Italy
JOR01,48,Jordan
JORMN,49,Office of the Dir for MENA
JPN01,50,Japan
KAZ01,51,Kazakhstan
KEN01,52,Kenya
KGZ01,53,Kyrgyztan
LBN01,54,Lebanon
LBR01,55,Liberia
LBY01,56,Libya
LKA01,57,Sri Lanka
MAR01,58,Morocco
MDA01,59,Moldova
MEX01,60,Mexico
MKD01,61,Macedonia
MLI01,62,Mali
MMR01,63,Myanmar
MNE01,64,Montenegro
MOZ01,65,Mozambique
MRT01,66,Mauritania
MWI01,67,Malawi
MYS01,68,Malaysia
NER01,69,Niger
NGA01,70,Nigeria
NPL01,71,Nepal
PAK01,72,Pakistan
PAN01,73,Panama
PHL01,74,Philippines
POL01,75,Poland
ROU01,76,Romania
RUS01,77,Russia
RWA01,78,Rwanda
SCG02,79,Kosovo
SDN01,80,Sudan
SEN01,81,Senegal
SOM01,82,Somalia
SRB01,83,"Serbia, Republic of"
SSD01,84,South Sudan
SVN01,85,Slovenia
SWE01,86,Sweden
SYR01,87,Syria
TCD01,88,Chad
TGO01,89,Togo
THA01,90,Thailand
TJK01,91,Tajikistan
TUN01,92,Tunisia
TUR01,93,Turkey
TZA01,94,Tanzania
UGA01,95,Uganda
UKR01,96,Ukraine
UNHCR,97,High Commissioner for Refugees
USA01,98,United States of America
VEN01,99,Venezuela
YEM01,100,Yemen
ZAF01,101,South Africa
ZMB01,102,Zambia
ZWE01,103,Zimbabwe