﻿OPERATING_UNIT,HCR_DESCR,PARENT_NODE_NAME
1001019,ANSARI REHABILITATION ASSOCIATION FOR AFGHANISTAN,LOCALNGO
1001052,COORD.OF REHAB & DEVELOP. SERVICE FOR AFGHANISTAN,LOCALNGO
1001041,"COORD. OF HUMANITARIAN ASSISTANCE, AFGHANISTAN",LOCALNGO
1001060,"WOMEN ACTIVITIES & SOCIAL SERVICES ASSOC.,AFG",LOCALNGO
1060001,DANISH REFUGEE COUNCIL,INTLNGO
1001181,Rural Rehabilitation Association for Afghanistan,LOCALNGO
1001078,WATAN SOCIAL AND TECHNICAL SERVICES ASSOCIATION,LOCALNGO
1001024,"AFGHAN PLANNING AGENCY, AFGHANISTAN",LOCALNGO
1001218,Afghan Amputee Bicyclists for Rehabilitation and Recreation,LOCALNGO
1001177,ORGANIZATION OF HUMAN WELFARE,LOCALNGO
1001201,RECONSTRUCTION AND  SOCIAL SERVICES FOR AFGHANISTAN ORGANIZATION,LOCALNGO
1001217,Coordination of Afghan Relief,LOCALNGO
1193005,"HEALTH NET INTERNATIONAL, NETHERLANDS",INTLNGO
1001198,ORGANIZATION FOR RELIEF DEVELOPMENT,LOCALNGO
1001211,WOMEN FOR AFGHAN WOMEN,LOCALNGO
1001221,Afghan Community and Health Rehabilitation Organization,LOCALNGO
1001213,ORGANIZATION FOR RESEARCH & COMMUNITY DEVELOPMENT,LOCALNGO
1001195,CENTRAL AFGHANISTAN WELFARE COMMITTEE,LOCALNGO
1081075,Mission d'Aide au Développement des Economies Rurales,INTLNGO
1001108,AFGHAN MOBILE RECONSTRUCTION ASSOCIATION,LOCALNGO
1001223,The Welfare Association for the Development of Afghanistan,LOCALNGO
1001222,"HEWAD Reconstruction, Health and Humanitarian Assistance committee",LOCALNGO
1060000,DANISH COMMITTEE FOR AID TO AFGHAN REFUGEES,INTLNGO
1001224,Community Action for Healing Poverty Organization,LOCALNGO
1001179,BASIC EDUCATION AND EMPLOYABLE SKILLS TRAINING,LOCALNGO
1001000,"MINISTRY OF REFUGEES & REPATRIATION, KABUL, AFGHANISTAN",GOVT
1081038,SOLIDARITÉS INTERNATIONAL,INTLNGO
1001219,ARZU-AFG,INTLNGO
1001225,Organization for Humanitarian Assistance and Services for Afghanistan,LOCALNGO
1238004,"MDICOS DEL MUNDO, ESPAA",INTLNGO
1197004,NORWEGIAN CHURCH AID,INTLNGO
1274054,WORLD VISION INTERNATIONAL,INTLNGO
1246004,"LUTHERAN WORLD FEDERATION, SWITZERLAND",INTLNGO
1126007,JESUIT REFUGEE SERVICE,INTLNGO
7000022,INTERNATIONAL ORGANIZATION FOR MIGRATION,PROGFUND
1092027,"MINES ADVISORY GROUP, GREAT BRITAIN",INTLNGO
1002022,Avokati i Popullit,GOVT
1002020,Tirana Legal Aid Society,LOCALNGO
1002006,CARITAS ALBANIA,LOCALNGO
1002018,REFUGEE AND MIGRANT SERVICES IN ALBANIA,LOCALNGO
1002021,Instituti i Kulturës Rome në Shqipëri,LOCALNGO
1002001,Ministry of Interior,GOVT
1273001,"SERVICIO ECUMENICO PARA LA DIGNIDAD HUMANA, URUGUAY",LOCALNGO
1006008,Fundacion Mirares,LOCALNGO
1274071,ADVENTIST DEVELOPMENT AND RELIEF AGENCY,INTLNGO
1044005,FUNDACION DE AYUDA SOCIAL DE LAS IGLESIAS CRISTIANAS,LOCALNGO
1207001,Semillas para la Democracia,LOCALNGO
1208004,Encuentros Servicio Jesuita de la Solidaridad,LOCALNGO
1044003,Arzobispado de Santiago Vicaría de Pastoral Social,LOCALNGO
1027003,Caritas Boliviana,LOCALNGO
1246016,INT.FED.OF RED CROSS & RED CRESCENT SOCIETIES,INTLNGO
1208005,Asociacion Misioneros de San Carlos Scalabrinianos,LOCALNGO
1006009,Comision Argentina para los Refugiados y Migrantes - CAREF,LOCALNGO
1208006,Programa de Soporte a la Autoayuda de Personas Seropositivas,LOCALNGO
1092077,British Council,INTLNGO
1092047,"PLAN INTERNATIONAL, UNITED KINGDOM",INTLNGO
7000000,UNITED NATIONS CHILDREN'S FUND (UNICEF),PROGFUND
1044008,Fundacion Scalabrini,LOCALNGO
1007043,KASA SWISS HUMANITARIAN FOUNDATION,LOCALNGO
1007018,ARMENIAN RED CROSS SOCIETY,LOCALNGO
1007013,MISSION ARMENIA,LOCALNGO
1007046,Children's Support Center Foundation,LOCALNGO
1007038,HUMAN RIGHTS DEFENDER OFFICE,GOVT
1007045,Academy of Justice,GOVT
1021028,"CONSEIL POUR EDUCATION AND DEVELOPMENT, BURUNDI",LOCALNGO
1021033,CROIX ROUGE BURUNDI,LOCALNGO
1021007,CED - CARITAS BURUNDI,LOCALNGO
1126036,WE WORLD - G.V.C. Organizzazione Non lucrativa di Utilita Sociale,INTLNGO
1021036,OFFICE NATIONAL DE PROTECTION DES REFUGIES ET APATRIDES,GOVT
1021018,Ministère de l’Intérieur et de la Formation Patriotique,GOVT
1274001,"International Rescue Committee, Inc.",INTLNGO
1246031,RET International,INTLNGO
1022028,MYRIA -Federal Migration Center,GOVT
1022027,Nansen,LOCALNGO
1022023,EUROPEAN COUNCIL ON REFUGEES AND EXILES,INTLNGO
1022024,Migration Policy Group,INTLNGO
1094051,Schwarzkopf Stiftung Junges Europa,INTLNGO
1092083,CITIZENS UK,INTLNGO
1193033,Radboud University,GOVT
1022030,Centre d'Aide aux Personnes BRABANTIA,INTLNGO
1042020,CENTRE DE SUPPORT EN SANTE INTL  AU TCHAD,LOCALNGO
1271031,AFRICAN INITIATIVE FOR RELIEF AND DEVELOPMENT,INTLNGO
1094014,HELP - HILFE ZUR SELBSTHILFE E.V.,INTLNGO
1025003,"CHRISTIAN RELIEF & DEV. ORGANIZATION, BURKINA FASO",LOCALNGO
1022006,VETERINAIRES SANS FRONTIERES,INTLNGO
1274108,"IEDA RELIEF, INTERNATIONAL EMERGENCY AND DEVELOPMENT AID",INTLNGO
1025000,"COMMISSION NATIONALE D'AIDE AUX REFUGIES, BKF",LOCALNGO
1092074,SAVE THE CHILDREN INTERNATIONAL,INTLNGO
1024005,BANGLADESH RED CRESCENT SOCIETY,LOCALNGO
1024015,NGO Forum for Public Health,LOCALNGO
1024003,"COMMUNITY DEVELOPMENT CENTRE, BANGLADESH",LOCALNGO
1081025,"ACTION CONTRE LA FAIM, FRANCE",INTLNGO
1274056,FOOD FOR THE HUNGRY INTERNATIONAL,INTLNGO
1024001,Gonoshasthaya Kendra,LOCALNGO
1024017,Caritas Bangladesh,LOCALNGO
1024009,TECHNICAL ASSISTANCE INCORPORATED,LOCALNGO
1024010,RESEARCH TRAINING AND MANAGEMENT INTERNATIONAL,INTLNGO
1092045,"OXFAM, THE UNITED KINGDOM",INTLNGO
1024016,Bangladesh National Women Lawyers' Association,LOCALNGO
1092075,RELIEF INTERNATIONAL UK,INTLNGO
1246022,"IUCN, International Union for Conservation of Nature and Natural Resources",INTLNGO
7000004,WORLD FOOD PROGRAMME,PROGFUND
1022007,HANDICAP INTERNATIONAL,INTLNGO
1246030I,FONDATION TERRE DES HOMMES,INTLNGO
1024014,BRAC BANGLADESH,LOCALNGO
1246052,HELVETAS Swiss Intercooperation,INTLNGO
1024006,MINISTRY OF DISASTER MANAGEMENT AND RELIEF,GOVT
7000019,UNITED NATIONS DEVELOPMENT PROGRAMME,PROGFUND
7000006,UNITED NATIONS HUMAN SETTLEMENTS PROGRAMME,PROGFUND
1274151,Sesame Workshop,INTLNGO
1031010,BULGARIAN COUNCIL FOR REFUGEES AND MIGRANTS,LOCALNGO
1031007,BULGARIAN HELSINKI COMMITTEE,LOCALNGO
1031008,BULGARIAN RED CROSS,LOCALNGO
1031011,COUNCIL OF REFUGEE WOMEN IN BULGARIA,LOCALNGO
1031012,Nadja Centre Foundation,LOCALNGO
1030058,"MINISTRY OF SECURITY, BiH",GOVT
1030007,"Min.for Human Rights&Rfgs., BSN",GOVT
1030056,"B&H Women's Initiative, BSN",LOCALNGO
1030057,"UUDRUZENJE 'VASA PRAVA  BIH',BSN",LOCALNGO
1274036,"CATHOLIC RELIEF SERVICES USCCB,USA",INTLNGO
1026007,"CENTER FOR CHILD AND ADOLESCENTS 'EVRIKA', BELARUS",LOCALNGO
1026022,"INT PUBL ASSOC FOR SCIENTIFIC RESEARCH, INFO AND EDUC PROGS, BELARUS",LOCALNGO
1026019,BELARUSIAN MOVEMENT OF MEDICAL WORKERS,LOCALNGO
1026023,RED CROSS OF BELARUS,LOCALNGO
1026026,BELARUSIAN YOUNG WOMEN CHRISTIAN ASSOCIATION,LOCALNGO
1029001,"CARITAS ARQUIDIOCESANA DE RIO DE JANEIRO, BRAZIL",LOCALNGO
1029002,"CARITAS ARQUIDIOCESANA DE SAO PAULO, BRAZIL",LOCALNGO
1029014,I Know My Rights,LOCALNGO
1029013,Caritas Brasileira Regional Parana,LOCALNGO
1029015,Associacao Compassiva,LOCALNGO
1029005,"SOCIEDAD ANTONIO VIEIRA - JESUITAS, BRAZIL",LOCALNGO
1029006,INSTITUTO DE MIGRACOES E DIREITOS HUMANOS,LOCALNGO
1029017,Fraternidade - Federação Humanitária Internacional,LOCALNGO
1029011,CARITAS ARQUIDIOCESANA DE MANAUS,LOCALNGO
1246045,IMPACT INITIATIVES,INTLNGO
1126013,AVSI Foundation,INTLNGO
1081070,TELECOMS SANS FRONTIERES,INTLNGO
1029018,Aldeias Infantis SOS Brasil,LOCALNGO
1197000,NORWEGIAN REFUGEE COUNCIL,INTLNGO
1029012,Associacao Voluntarios Para o Servicio Internacional - BRASIL,LOCALNGO
1029019,ASAV Servico Jesuita a Migrantes e Refugiados,LOCALNGO
1041011,Ong Nourrir,LOCALNGO
1041000,"COMMISSION NATIONALE POUR LES REFUGIES, C.A.R.",GOVT
1041010,Association Grenier d'Afrique,INTLNGO
1120014,"AFRIQUE SECOURS ET ASSISTANCE, COTE D'IVOIRE",LOCALNGO
1126018,"INTERSOS, ITALY",INTLNGO
1126017,COOPERAZIONE INTERNATIONALE,INTLNGO
1041008,Jeunesse Unie pour la Protection de l'Environnement et le Developpement Communau,LOCALNGO
1041009,PROJET D'APPUI AU RETOUR ET A LA REINTEGRATION EN RCA,GOVT
1274011,MERCY CORPS,INTLNGO
1041002,"CARITAS, CENTRAL AFRICAN REPUBLIC",LOCALNGO
1246050,Centre suisse pour la défense des droits des migrants (CSDM),LOCALNGO
1246048,Federation of Swiss Protestant Churches,INTLNGO
1246008,"SERVICE SOCIAL INTERNATIONAL, SECTION SUISSE",INTLNGO
1120024,"MINISTERE D ETAT, MINISTERE DE LA JUSTICE",GOVT
1120025,ASSOCIATION DES FEMMES JURISTES DE COTE D¿IVOIRE,LOCALNGO
1120026,DEVELOPPEMENT RURAL ET AGRICOLE A L'OUEST,LOCALNGO
1120011,CARITAS COTE D'IVOIRE,LOCALNGO
1120012,"L'ASSOCIATION DE SOUTIEN A L'AUTOPROMOTION SANIATIRE URBAINE, COTE D'IVOIRE",LOCALNGO
1120004,"SERV.D'AIDE & ASSIST.AUX REFUGIES ET APATRIDES,ICO",LOCALNGO
1045008,FAIRMED FOUNDATION,INTLNGO
1042016,AGENCE DE DÉVELOPPEMENT ECONOMIQUE ET SOCIAL,INTLNGO
1045006,PUBLIC CONCERN,LOCALNGO
1081029,Premiere Urgence International,INTLNGO
1045011,SECRÉTARIAT TECHNIQUE DES ORGANES DE GESTION DU STATUT DES RÉFUGIÉS,GOVT
1073021,"AFRICA HUMANITARIAN ACTION, ETHIOPIA",INTLNGO
1092066,"INTERNATIONAL MEDICAL CORPS, UK",INTLNGO
1047061,"ASSOC.DEV.SOCIAL & SAUVEGARDE DE L'ENV., R.D.CONGO",LOCALNGO
1040019,TERRES SANS FRONTIÈRES,INTLNGO
1047074,COMMISSION NATIONALE POUR LE REFUGIES,GOVT
1047017,"ACTIONS & INTERV.DVPT.& ENCAD.SOCIAL, R.D.CONGO",LOCALNGO
1046009,SAVE CONGO,LOCALNGO
1090000,"COMMISSION NATIONALE AUX REFUGIES, GABON",GOVT
1092020,"ACTIONAID, GREAT BRITAIN",INTLNGO
1090003,AGIR POUR LE GENRE,LOCALNGO
1193026,STICHTING WAR CHILD,INTLNGO
1081049,AGENCE D'AIDE A LA COOPERATION TECHNIQUE ET AU DEVELOPPMENT,INTLNGO
1040023,Comite International Pour L’Aide D’Urgence et le Developpement,LOCALNGO
1092053,"WAR CHILD, U.K.",INTLNGO
1047107,Programme National Multisectoriel de Lutte contre le SIDA,GOVT
1047108,Caritas Developpement du Diocese de Bunia,LOCALNGO
1047109,Solidarite Cooperative Agricole du Congo,LOCALNGO
1047110,Action Nourriture Pour Tous Partnership Program,LOCALNGO
1047111,Association des Jeunes pour le Developpement Communautaire,LOCALNGO
1047112,Helpage RDC,LOCALNGO
1081016,FEDERATION HANDICAP INTERNATIONAL,INTLNGO
1046000,"COMITE NATIONAL D'ASSISTANCE AUX REFUGIES,CONGO",GOVT
1046006,AGENCE D'ASSIST. AUX REPATRIES ET REFUGIES AU CONGO - COB,LOCALNGO
1046002,"COMMISSION D'ENTRAIDE POUR MIGRANTS/REEFUGIES,CONGO",LOCALNGO
1049005,"SECRETARIADO NACIONAL DE PASTORAL SOCIAL, COLOMBIA",LOCALNGO
1049011,"OPCION LEGAL, COLOMBIA",LOCALNGO
1049077,Corporación Scalabrini,LOCALNGO
1049058,SECRETARIADO DE PASTORAL SOCIAL RIOHACHA,LOCALNGO
1049055,CORPORACIÓN DE SERVICIO PASTORAL DE LA DIÓCESIS DE CÚCUTA,LOCALNGO
1049056,DIÓCESIS DE TIBÚ,LOCALNGO
1049073,ASOCIACIÓN MOVIMIENTO FEMINISTA POR LA PAZ - RUTA PACIFICA DE LAS MUJERES,LOCALNGO
1049078,"EL SECRETARIADO DIOCESANO DE PASTORAL SOCIAL, APARTADO",LOCALNGO
1049045,FUNDACIÓN YAPAWAYRA,LOCALNGO
1049083,Secretariado Diocesano de Pastoral Social - Diócesis de Pasto,LOCALNGO
1238007,"ACCION CONTRA EL HAMBRE, ESPANA",INTLNGO
1049081,Asociacion Alianza Departamental de Organizaciones de Mujeres Tejedoras de Vida,LOCALNGO
1049012,CONSULT.PARA DERECHOS HUMANOS Y DESPLAZAM.COLOMBIA,LOCALNGO
1049057,CORPORACIÓN DE PROFESIONALES PARA EL DESARROLLO INTEGRAL COMUNITARIO COPRODINCO,LOCALNGO
1238020,"Fundacion Alianza por los Derechos, la Igualdad y la Solidaridad Internacional",INTLNGO
1049062,FUNDACIÓN DE ESPACIOS DE CONVIVENCIA Y DESARROLLO SOCIAL,LOCALNGO
1049064,CORPORACIÓN CHACANA,LOCALNGO
1049085,Corporacion Ayuda Humanitaria,INTLNGO
1049086,Comfenalco Antioquia,LOCALNGO
1049061,ASOCIACION CRISTIANA MENONITA PARA JUSTICIA PAZ Y ACCION NO VIOLENTA,LOCALNGO
1049059,"SECRETARIADO DIOCESANO DE PASTORAL SOCIAL, IPIALES",LOCALNGO
1049060,CORPORACION SISMA MUJER,LOCALNGO
1049087,Cruz Roja Colombiana Seccional Antioquia,LOCALNGO
1049042,CORPORACION PARA LA INVESTIGACION Y EL DESARROLLO DE LA DEMOCRACIA CIDEMOS,LOCALNGO
1049084,Caja de Compensacion Familar de Arauca,LOCALNGO
1049088,Departmental Institute of Health of North of Santander,GOVT
1049041,CORPARACION INFANCIA Y DESARROLLO,LOCALNGO
1274153,Bethany Christian Services Global,INTLNGO
1049053,FUNDACIÓN MAKIKUNA,LOCALNGO
1049089,Secretariado de Pastoral Social – Caritas Barranquilla,LOCALNGO
1049070,FUNDACIÓN PLAN COLUMBIA,LOCALNGO
1049090,Pastoral Social Diocesis Mocoa Sibundoy,GOVT
1274075,HIAS Inc,INTLNGO
1050017,Centro de Derechos Sociales del Inmigrante,LOCALNGO
1050014,FUNDACION MUJER,LOCALNGO
1050013,JESUIT MIGRANT SERVICE (JMS),INTLNGO
1050018,University for Peace,GOVT
1050003,"ASS. CONSULTORES y ASESORES INTERNACIONALES, COSTA RICA",LOCALNGO
1274140,Executive Secretariat of the Inter-American Commission of Human Rights,INTERGOV
1050020,Instituto Interamericano de Derechos Humanos,GOVT
1092076,World Vision,INTLNGO
1050021,Fundacion Crisalida Internacional,LOCALNGO
1053011,CY.R.C. CYPRUS REFUGEE COUNCIL,LOCALNGO
1053010,SOS Children's Village,LOCALNGO
1054004,OPU (ORGANISATION FOR AID TO REFUGEES),LOCALNGO
1094018,"INFORMATIONSVERBUND ASYL E.V, GERMANY",LOCALNGO
1061009,"MINISTERE DE L'ENVIRONMENT,HABITAT,URBANISME ET AMENAGEMENT",GOVT
1142033,ACTION AFRICA HELP INTERNATIONAL,INTLNGO
1061010,UNION NATIONALE DES FEMMES DJIBOUTIENNES,LOCALNGO
1061013,Ministere de l'Education,GOVT
1061000,OFF. NAT. D'ASSISTANCE AUX REFUGIES ET SINISTRES,GOVT
1061014,Ministère de la Santé,GOVT
1134028,International Children's Action Network,INTLNGO
1062005,ASOCIACION SCALABRINIANA AL SERVICIO DE LA MOVILIDAD HUMANA,LOCALNGO
1062018,INSTITUTO DOMINICANO DE DESARROLLO INTEGRAL,LOCALNGO
1062026,HEARTLAND ALLIANCE INTERNATIONAL,INTLNGO
1062023,EL CENTRO PARA LA OBSERVACION MIGRATORIA Y EL DESARROLLO SOCIAL EN EL CARIBE,LOCALNGO
1274133,CENTER FOR JUSTICE AND INTERNATIONAL LAW,LOCALNGO
1070038,FUNDACIÓN DE LAS AMÉRICAS PARA EL DESARROLLO - FUDELA,LOCALNGO
7000015,THE UNITED NATIONS POPULATION FUND,PROGFUND
1062024,CENTRO DE DESARROLLO SOSTENIBLE,LOCALNGO
1062027,Instituto Nacional de Migración,GOVT
1238012,"MOVEMENT FOR PEACE, DISARMAMENT & LIBERTY, SPAIN",INTLNGO
1003002,CROISSANT ROUGE ALGERIEN,LOCALNGO
1238011,SOLIDARIDAD INTERNATIONAL ANDALUCIA,INTLNGO
1081052,"ENFANTS REFUGIES DU MONDE PAYS DE LOIRE,FRANCE",INTLNGO
1003001,ASSOCIATION FEMMES ACTION ET DEVELOPPEMENT-AFAD,LOCALNGO
1081036,"TRIANGLE GENERATION HUMANITAIRE, FRANCE",INTLNGO
1003010,ASSOCIATION D'INFORMATION ET DE COMMUNICATION POUR LA SOLIDARITÉ,LOCALNGO
1238021,UNIVERSIDAD AUTONOMA DE MADRID,GOVT
1003006,RESEAU ALGERIEN POUR LA DEFENSE DES DROITS DE L'ENFANT,LOCALNGO
1003011,Association Green Tea,LOCALNGO
1003012,Association Adwaa Rights pour la Démocratie et Droits de L'homme,LOCALNGO
1070033,COMITE PERMANENTE DE DEFENSA DE LOS DERECHOS HUMANOS,LOCALNGO
1070040,Fundacion Casa de Refugio Matilde,LOCALNGO
1070041,Association Solidarity and Action,LOCALNGO
1070008,FONDO ECUATORIANO POPULORUM PROGRESSIO,LOCALNGO
1070044,VICARIATO APOSTOLICO DE ESMERALDAS,LOCALNGO
1070030,FUNDACION TARABITA,LOCALNGO
7000030,UN Women,UN
1005002,CARITAS EGYPT,LOCALNGO
1005009,ARAB COUNCIL SUPPORTING FAIR TRIAL AND HUMAN RIGHTS,LOCALNGO
1005020,EGYPTIAN FOUNDATION FOR REFUGEE RIGHTS,LOCALNGO
1005010,EGYPTIAN RED CRESCENT SOCIETY,LOCALNGO
1005014,MAHMOUD MOSQUE SOCIETY,LOCALNGO
1005003,"ALL SAINTS CATHEDRAL, EGYPT",LOCALNGO
1274040,"Cooperative for Assistance and Relief Everywhere, Inc. (Care)",INTLNGO
7000023,UNITED NATIONS RELIEF AND WORKS AGENCY,UN
1071010,"OFFICE OF REFUGEE AFFAIRS, ERITREA",GOVT
1274118,AMERICAN INSTITUTES FOR RESEARCH,INTLNGO
1073017,"Ethiopian Orthodox Church, Development and Inter Church Aid Commission",LOCALNGO
1073001,Agency for Refugee and Returnee Affairs,GOVT
1073033,AFRICAN HUMANITARIAN AID AND DEVELOPMENT AGENCY,LOCALNGO
1073026,"REHABILIATION & DEVELOPMENT ORGANIZATION, ETHIOPIA",LOCALNGO
1073038,"GAIA ASSOCIATION, ETHIOPIA",LOCALNGO
1073047,PARTNERSHIP FOR PASTORALIST DEVELOPMENT ASSOCIATION,LOCALNGO
1073010,"BUREAU OF AGRICULTURE, ETHIOPIA",GOVT
1073048,TSELEMET WEREDA AGRICULTURE AND RURAL DEVELOPMENT OFFICE,GOVT
1073056,AGRICULTURAL AND RURAL DEVELOPMENT OFFICE,GOVT
1073055,ORGANIZATION FOR SUSTAINABLE DEVELOPMENT,LOCALNGO
1073037,MOTHER AND CHILD DEVELOPMENT ORG. - ETHIOPIA,LOCALNGO
1073058,MOTHERS AND CHILDREN MULTISECTORAL DEVELOPMENT ORGANIZATION,LOCALNGO
1073054,PARTNER FOR REFUGEE SERVICES,LOCALNGO
1274131,INNOVATIVE HUMANITARIAN SOLUTIONS,INTLNGO
1073059,ETHIOPIAN EVANGELICAL CHURCH MEKANE YESUS DEVELOPMENT AND SOCIAL SERVICE COMMISS,LOCALNGO
1073045L,"SAVE THE ENVIRONMENT, ETH",LOCALNGO
1073002,"NATURAL RESOURCES DEVELOPMENT & PROTECTION, (ASSOSA) ETH",GOVT
1073057,ACTION FOR THE NEEDY IN ETHIOPIA,LOCALNGO
1073019,"OPPORTUNITIES IN INDUSTRIALISATION CENTRE, ETHIOPIA",LOCALNGO
1274019,"INTERNATIONAL MEDICAL CORPS, USA",INTLNGO
1073062,WOMEN AND PASTORALIST YOUTH DEVELOPMENT ORGANIZATION,LOCALNGO
1073049,PASTORALIST WELFARE ORGANIZATION,LOCALNGO
1073050,ASSOCIATION OF ETHIOPIANS EDUCATED IN GERMANY,LOCALNGO
1073004,"NATURAL RESOURCES DEVELOPMENT AND ENVIRONMENTAL PROTECTION, ETHIOPIA",GOVT
1073077,Ethiopian Somali Regional State Education Bureau,GOVT
1073023,"RELIEF SOCIETY OF TIGRAY, ETHIOPIA",LOCALNGO
1073066,Dolo Addo Woreda Administration,GOVT
1073063,Development Expertise Center,LOCALNGO
1123001,"GOAL, IRELAND",INTLNGO
1073067,"Liban Zone High Court, Somali Regional State",GOVT
1073065,"Bokolmanyo Woreda Administration, Somali Regional State",GOVT
1073078,Gambella Peoples National Regional State Supreme Court,GOVT
1081047,LA CIMADE,LOCALNGO
1081074,Food Sweet Food,INTLNGO
1081027,"ASSOC.NAT.D'ASS.AUX FRONTIERES POUR ETRANGERS, FRA",LOCALNGO
1081063,INSTITUT INTERNATIONAL DES DROITS DE L'HOMME,LOCALNGO
1092034,BRITISH RED CROSS SOCIETY,INTLNGO
1092087,Breaking Barriers,LOCALNGO
1274099F,UNITED NATIONS ENTITY FOR GENDER EQUALITY AND THE EMPOWERMENT OF WOMEN,PROGFUND
1093057,CENTER FOR HUMANITARIAN PROGRAMS,LOCALNGO
1093052,PUBLIC DEFENDER OF GEORGIA,LOCALNGO
1093037,ADVICE CENTER FOR WOMEN  SAKHLI,LOCALNGO
1093040L,PUBLIC SERVICE DEVELOPMENT AGENCY,GOVT
1093050,INNOVATIONS AND REFORMS CENTRE,LOCALNGO
1093056,CONSORTIUM LEGAL ASSISTANCE GEORGIA,LOCALNGO
1093019,UNITED NATIONS ASSOCIATION OF GEORGIA,LOCALNGO
1093000,"MINISTRY FOR IDPS FROM OCCUPIED TERRITORIES, ACCOMM. AND REFUGEES OF GEORGIA",GOVT
1093058,LEPL Zurab Zhvania School of State Administration,GOVT
1093059,Public Advocacy,LOCALNGO
1095002,CHRISTIAN COUNCIL OF GHANA,LOCALNGO
1095003,"NATIONAL CATHOLIC SECRETARIAT, GHANA",LOCALNGO
1095009,GHANA REFUGEE BOARD - GHANA,GOVT
1099023G,COMMISSION NATIONALE POUR L'INTEGRATION ET EL SUIVI DES REFUGIES,GOVT
1099017,"ORG.POUR LE DEVEL.INTEGRE COMMUNAUTAIRE, GUINEE",LOCALNGO
1097021,Faros,LOCALNGO
1097016,Eteria Kinonikis kai Politistikis Stiriksis Palinostoudon Omogenon - NOSTOS,LOCALNGO
1097031,Koinofelis Epicheirisi Dimou Filadelfeias- Chalkidonos (K.E.D.F.X.),GOVT
1097034,Dimotiki Koinofelis Epicheirisi Larissas (DI.KE.L.),GOVT
1097010,"PRAKSIS, PROJECTS OF DEVELOPMENT SOCIAL SUPPORT AND MEDICAL COOPERATION",LOCALNGO
1097030,Network for Children's Rights,LOCALNGO
1097017,Allileggie Solidarity Now,LOCALNGO
1097018,Association for the Social Support of Youth - ARSIS,LOCALNGO
1097032,"e-Trikala, Development Agency of the Municipality of Trikala",GOVT
1097024,KOINOFELIS EPICHEIRISI DIMOU LEVADEON,GOVT
1097033,Development Agency of Karditsa (AN.KA.),GOVT
1097027,Heraklion Development Agency,LOCALNGO
1097014,ATHENS DEVELOPMENT AND DESTINATION MANAGEMENT AGENCY,GOVT
1097015,ILIAKTIDA NON- PROFIT COMPANY,LOCALNGO
1097019,Municipality of Thessaloniki,GOVT
1246002,INTERNATIONAL CATHOLIC MIGRATION COMMISSION,INTLNGO
1097020,DOCTORS OF THE WORLD GREECE,LOCALNGO
1097036,Centre Of Research On Women's Issues Diotima,LOCALNGO
1097028,National Confederation of Disabled People,LOCALNGO
1097035,Kean - Cell Of Alternative Youth Activities,LOCALNGO
1097037,Regional Development Company of Parnonas,GOVT
1097013,HELLENIC THEATRE/DRAMA & EDUCATION NETWORK,LOCALNGO
1097003,INTEGRATION CENTRE FOR MIGRANT WORKERS - ECUMENICAL REFUGEE PROGRAM (KSPM-ERP),LOCALNGO
1097001,GREEK COUNCIL FOR REFUGEES,LOCALNGO
1097009,METADRASI,LOCALNGO
1097025,Reception and Identification Service,GOVT
1097040,Association for Regional Development and Mental Health,LOCALNGO
1097039,Koinofelis Dimotiki Epicheirisi Peiraia (KO.DE.P.),GOVT
1097041,Koinoniko Elliniko Klimakio Amesis Voitheias,LOCALNGO
1109027,"CIVIL RIGHTS PROJECT SISAK, CROATIA",LOCALNGO
1109013,"ASSOCIATION MI, CROATIA",LOCALNGO
1109023,CROATIAN LAW CENTER,LOCALNGO
1109017,CROATIAN RED CROSS,LOCALNGO
1109034,Festival Suvremenog Zidovskog Filma Zagreb,LOCALNGO
1110006,MENEDEK - HUNGARIAN ASSOC. FOR MIGRANTS,LOCALNGO
1110008,HUNGARIAN HELSINKI COMMITTEE,LOCALNGO
1110007,"CORDELIA FOUNDATION, HUNGARY",LOCALNGO
1110013,Artemisszio Alapitvany,LOCALNGO
1122041,Yayasan Sayangi Tunas Cilik,LOCALNGO
1274028,"CHURCH WORLD SERVICE, USA",INTLNGO
1121011,"GANDHI NATIONAL MEMORIAL SOCIETY, INDIA",LOCALNGO
1121009,"SOCIO-LEGAL INFORMATION CENTRE, INDIA",LOCALNGO
1121017,CONFEDERATION OF VOLUNTARY ASSOCIATIONS,LOCALNGO
1121019,DEVELOPMENT AND JUSTICE INITIATIVE,LOCALNGO
1121003,BOSCO ORGANISATION FOR SOCIAL CONCERN AND OPERATION (BOSCO),LOCALNGO
1121024,BAL RAKSHA BHARAT,LOCALNGO
1121025,Fair Trade Forum - India,LOCALNGO
1124065,IRAN HEALTH INSURANCE ORGANIZATION,GOVT
1124006,"SOCIETY TO PROTECT CHILDREN SUFFERING FROM CANCER, ISLAMIC REPUBLIC OF IRAN",LOCALNGO
1124040,REBIRTH CHARITY ORGANIZATION - IRAN,LOCALNGO
1124061,INTERNATIONAL WORLD RELIEF FOUNDATION,LOCALNGO
1124066,Iranian Life Quality Empowerment,LOCALNGO
1124068,Pars Development Actors Institute,LOCALNGO
1124060,SOCIETY FOR RECOVERY SUPPORT,LOCALNGO
1124027,ASSOCIATION FOR PROTECTION OF REFUGEE WOMEN AND CHILDREN,LOCALNGO
1081065,CHAIN OF HOPE CHARITY ORGANIZATION,INTLNGO
1124000,"MINISTRY OF HEALTH, ISLAMIC REPUBLIC OF IRAN",GOVT
1124063,KOWSAR SCIENTIFIC AND CULTURAL INSTITUE,LOCALNGO
1124004,"IRAQI REFUGEE AID COUNCIL, IRAN",INTLNGO
1124015,Technical and Vocational Training Organization,GOVT
1124067,Kiyana cultural and social group,LOCALNGO
1124002,"MINISTRY OF EDUCATION & TRAINING, ISL.REP. OF IRAN",GOVT
1124020,MOI/BUREAU OF ALIENS AND FOREIGN IMMIGRANTS AFFAIRS,GOVT
1124012,"LITERACY MOVEMENT ORGANIZATION,  ISLAMIC REPUBLIC OF IRAN",GOVT
1124025,STATE WELFARE ORGANIZATION OF IRAN,GOVT
1125043,YOUTH ACTIVITY ORGANIZATION,LOCALNGO
1092078,SEEKING TO EQUIP PEOPLE,INTLNGO
1125049,WCHAN ORGANIZATION FOR VICTIMS OF HUMAN RIGHTS VIOLATIONS,LOCALNGO
1125018,KURDISTAN RECONSTR & DEVT SOCIETY,LOCALNGO
1245011,"QANDIL, SWEDEN",INTLNGO
1126037,"TERRE DES HOMMES, ITALY",INTLNGO
1125053,General Directorate of Health in Erbil,GOVT
1126032,"UN PONTE PER, ITALY",INTLNGO
1125027,IRAQI SALVATION HUMANITARIAN ORGANIZATION,LOCALNGO
1040018,CANADIAN AID ORGANIZATION FOR IRAQI SOCIETY REHABILITATION,INTLNGO
1134018,PEACE WINDS JAPAN,INTLNGO
1125015,CIVIL DEVELOPMENT ORGANIZATION,LOCALNGO
1125054,Joint Crisis Coordination Committee,GOVT
1125055,Directorate General of Health  Duhok,GOVT
1125016,HARIKAR NGO,LOCALNGO
1125041,UNITED IRAQI MEDICAL SOCIETY FOR RELIEF AND DEVELOPMENT,LOCALNGO
1125058,Erbil Joint Crisis Coordination Centre,GOVT
1125042,AL-MAMOURA HUMANITARIAN ESTABLISHMENT,LOCALNGO
1274079,"Blumont International, Inc.",INTLNGO
1092019,ISLAMIC RELIEF WORLDWIDE,INTLNGO
1125035,AL KHAIR HUMANITARIAN ORGANIZATION,LOCALNGO
1125057,Darya Organization for Developing Women and Community,LOCALNGO
1240023,"HUMAN APPEAL INTERNATIONAL, SUDAN",INTLNGO
1125005,MINISTRY OF DISPLACEMENT AND MIGRATION,GOVT
1125052,LEGAL CLINIC NETWORK,LOCALNGO
1125056,General Directorate of Combating Violence Against Women,GOVT
1125011,"MERCY HANDS, IRAQ",LOCALNGO
1092088,Human Relief Foundation,INTLNGO
1125059,Permanent Committee for Refugees Affair Ministry of Interior PC-MOI,GOVT
1125046,BOARD OF RELIEF AND HUMANITARIAN AFFAIRS,GOVT
1245020,Swedish Humanitarian Relief,INTLNGO
1092089,Human Appeal - UK,INTLNGO
1127001L,HOTLINE FOR REFUGEES AND MIGRANTS,LOCALNGO
1127002L,AID ORGANIZATION FOR REFUGEES AND ASYLUM SEEKERS,LOCALNGO
1127003L,PHYSICIANS FOR HUMAN RIGHTS,LOCALNGO
1127004L,AFRICAN REFUGEES DEVELOPMENT CENTER,LOCALNGO
1127005,MESILA- AID AND INFORAMTION CENTRE FOR MIGRANT WORKERS AND REFUGEES,LOCALNGO
1127006,KAV LAOVED,LOCALNGO
1127007,CENTER FOR INTERNATIONAL MIGRATION AND INTEGRATION,LOCALNGO
1126054,Medici per i Diritti Umani,LOCALNGO
1126047,ARCI Associazione di Promozione Sociale,LOCALNGO
1126046,ASSOCIAZIONE CARTA DI ROMA,LOCALNGO
1126052,Lega Italiana per la Lotta contro l'AIDS,LOCALNGO
1126062,"Associazione di Promozione Sociale ""Cambalache""",LOCALNGO
1126051,Associazione Italiana Donne per lo Sviluppo Onlus,INTLNGO
1126061,Universita degli Studi di Scienze Gastronomiche,LOCALNGO
1126060,C.I.D.A.S. - Cooperativa Inserimento Disabili Assistenza Solidarietà,LOCALNGO
1212001,PORTUGUESE REFUGEE COUNCIL,LOCALNGO
1126057,Fondazione Adecco per le Pari Opportunità,LOCALNGO
1126053,Associazione D.i.Re - Donne in Rete contro la violenza,LOCALNGO
1126058,SPORT SENZA FRONTIERE ONLUS,LOCALNGO
1126063,Associazione Multietnica dei Mediatori Interculturali (A.M.M.I.),LOCALNGO
1126004,CONSIGLIO ITALIANO PER I RIFUGIATI,INTLNGO
1126056,Teatro Dell'Argine soc.coop.so,LOCALNGO
1238000,Comision Espanola de Ayuda al Refugiado,INTLNGO
1133001,"MINISTRY OF INTERIOR, JORDAN",GOVT
1133031,SYRIAN REFUGEE AFFAIRS DIRECTORATE,GOVT
1133015,"MINISTRY OF PLANNING AND INTERNATIONAL COOPERATION, JORDAN",GOVT
1133009,CARITAS JORDAN,LOCALNGO
1133027,ARAB RENAISSANCE FOR DEMOCRACY AND DEVELOPMENT - LEGAL AID,LOCALNGO
1133030,JORDANIAN HASHEMITE FUND FOR HUMAN DEVELOPMENT,LOCALNGO
1133023L,JORDAN RIVER FOUNDATION,LOCALNGO
1133036,Arabian Medical Relief,LOCALNGO
1133026,JORDAN HEALTH AID SOCIETY INTERNATIONAL,LOCALNGO
1133022L,"NOOR-AL HUSSEIN FOUNDATION, JOR",LOCALNGO
1133034,National Council for Family Affairs,LOCALNGO
1133007,"UNITED NATIONS DEVELOPMENT PROGRAMME, JORDAN",PROGFUND
1081076,iMMAP France,INTLNGO
1263018,Vatan Dernegi,LOCALNGO
1263020,Bir Dunya Cocuk Dernegi,LOCALNGO
1263012,SAFAK DERNEGI,LOCALNGO
1263029,Ruh Dernegi,LOCALNGO
1134020,JAPAN ASSOCIATION FOR REFUGEES,LOCALNGO
1134008,INTERNATIONAL SOCIAL SERVICE JAPAN,INTLNGO
1141012,RED CRESCENT SOCIETY OF THE REPUBLIC OF KAZAKHSTAN,LOCALNGO
1141002,"INT'L BUREAU ON HUMAN RIGHTS & RULE OF LAW, KAZ",LOCALNGO
1141019,Legal Center for Women's Initiatives Sana Sezim,LOCALNGO
1259004,"KEIK OKARA, TURKMENISTAN",LOCALNGO
1259018,TURKMENISTAN RED CRESCENT SOCIETY,LOCALNGO
1142034,REFUGEE CONSORTIUM OF KENYA,LOCALNGO
1142055,Refugee Affairs Secretariat,GOVT
1142019,"DON BOSCO, KAKUMA, KENYA",LOCALNGO
1142021,"CARE INTERNATIONAL, KENYA",INTLNGO
1274092,"FILMAID INTERNATIONAL, USA",INTLNGO
1142049,FRANCIS XAVIER PROJECT,INTLNGO
1142027L,"LEGAL ADVICE CENTRE (KITUO CHA SHERIA), KENYA",LOCALNGO
1142046,LOTUS KENYA ACTION FOR DEVELOPMENT ORGANIZATION,LOCALNGO
1142003,NATIONAL COUNCIL OF CHURCHES OF KENYA,LOCALNGO
1040010,"WORLD UNIVERSITY SERVICE, CANADA",INTLNGO
1142014,KENYA RED CROSS SOCIETY,LOCALNGO
1142022,Windle International Kenya,INTLNGO
1142050,HAKI CENTRE ORGANIZATION,LOCALNGO
1142048,PASTORALIST INITIATIVE FOR DEVELOPMENT AND ADVOCACY (PIDAD),LOCALNGO
1142038,FAFI INTEGRATED DEVELOPMENT ASSOCIATION,LOCALNGO
1142039,RELIEF RECONSTRUCTION AND DEVELOPMENT ORGANISATION,LOCALNGO
1142051,HAKI NA SHERIA INITIATIVE,LOCALNGO
1142054,KENYA HUMAN RIGHTS COMMISSION,LOCALNGO
1143024L,"CENTER FOR INTERNATIONAL PROTECTION, KYRGYZSTAN",LOCALNGO
1143025,FERGHANA VALLEY LAWYERS WITHOUT BORDERS,LOCALNGO
1143019,"ADILET LEGAL CLINIC,  KYRGYZSTAN",LOCALNGO
1143027,DEPARTMENT FOR REGISTRATION OF POPULATION AND ACTS OF CIVIL STATUS,GOVT
1155002,"CARITAS, LEBANON",LOCALNGO
1155012,RESTART CENTRE FOR REHABILITATION OF VICTIMS OF VIOLENCE AND TORTURE,LOCALNGO
1155030,Rene Moawad Foundation,LOCALNGO
1246007,"MEDAIR, SWITZERLAND",INTLNGO
1155022,ABAAD-RESOURCE CENTER FOR GENDER EQUALITY,LOCALNGO
1155028,HIMAYA,LOCALNGO
1155020,RELIEF AND HUMANITARIAN AID ORGANIZATION,LOCALNGO
1155003,"UNITED NATIONS DEVELOPMENT PROGRAMME, LEBANON",PROGFUND
1081061,INSTITUT EUROPEEN DE COOPERATION ET DE DEVELOPPEMENT,INTLNGO
1155011,"LEBANESE ASSOCIATION FOR POPULAR ACTION, AMEL",LOCALNGO
1155016,"SOCIAL, HUMANITARIAN, ECONOMICAL INTERVENTION FOR LOCAL DEVELOPMENT",LOCALNGO
1155026,SAWA GROUP,LOCALNGO
1123000,"CONCERN WORLDWIDE, IRELAND",INTLNGO
1155014,MAKHZOUMI FOUNDATION,LOCALNGO
1274032,RELIEF INTERNATIONAL,INTLNGO
1155021,Ruwad Houkouk,LOCALNGO
1274146,American Near East Refugee Aid,LOCALNGO
1155023,KAFA ENOUGH VIOLENCE & EXPLOITATION,LOCALNGO
1155017,MINISTRY OF SOCIAL AFFAIRS,GOVT
1155013,"ASSOCIATION JUSTICE AND MERCY, LEB",LOCALNGO
1155024,MINISTRY OF EDUCATION AND HIGHER EDUCATION,GOVT
1155036,Université Saint Joseph – Beyrouth (USJ),LOCALNGO
1155015,AMERICAN UNIVERSITY OF BEIRUT,LOCALNGO
1155035,RED OAK,LOCALNGO
1155037,American Lebanese Language Center,GOVT
1126008,COMITATO INTERNAZIONALE PER LO SVILUPPO DEI POPULI,INTLNGO
1155038,"Union of Relief and Development Associations ""URDA""",LOCALNGO
1155039,Al Nahda Wal Adala,LOCALNGO
1153032,SPECIAL EMERGENCY ACTIVITY TO RESTORE CHILDREN'S HOPE,LOCALNGO
1153000,LIBERIAN REFUGEE REPAT.& RESETTLEMENT COMMISSION,GOVT
1154014,Moomken Organization for Awareness and Media,LOCALNGO
1154015,Libyan Humanitarian Relief Agency (LibAid),LOCALNGO
1126026,CESVI,INTLNGO
1092062,MUSLIM AID,INTLNGO
1193000,ZOA,INTLNGO
1158059,Bar Association of Sri Lanka,LOCALNGO
1158003,HUMAN RIGHTS COMMISSION OF SRI LANKA,LOCALNGO
1158018,JAFFNA SOCIAL ACTION CENTRE,LOCALNGO
1179006,ASSOCIATION MAROCAINE D'APPUI A LA PROMOTION DE LA PETITE ENTERPRISE,LOCALNGO
1179007,FONDATION ORIENT OCCIDENT,LOCALNGO
1179008,ORGANISATION MAROCAINE DES DROITS HUMAINS,LOCALNGO
1179009,CONSEIL NATIONAL DES DROITS DE L'HOMME,GOVT
1179010,Association Marocaine de Planification Familiale,LOCALNGO
1182005,ASSOCIATION ACTION URGENCE,LOCALNGO
1178006,"LAW CENTER FOR ADVOCATES, MOLDOVA",LOCALNGO
1178011,"CHARITY REFUGEE CENTRE, MOLDOVA",LOCALNGO
1178018,AVE COPIII,LOCALNGO
1173013,"CASA DEL MIGRANTE SCALABRINI, ALBERGUE BELEN",LOCALNGO
1173014,CENTRO DE DERECHOS HUMANOS FRAY MATIAS DE CORDOVA,LOCALNGO
1173022,UNA MANO AMIGA EN LA LUCHA CONTRA EL SIDA,LOCALNGO
1173010,"SIN FRONTERAS, I A.P., MEXICO",LOCALNGO
1173026,"Asylum Access México, Asociación Civil",LOCALNGO
1173027,"Universidad Iberoamericana, A.C.",LOCALNGO
1173032,Casa del Caminante Samuel Ruiz Garcia AC,LOCALNGO
1173031,CARITAS DIOCESIS DE SAN ANDRES TUXTLA,LOCALNGO
1173023,"COMISIÓN MEXICANA DE DEFENSA Y PROMOCIÓN DE LOS DERECHOS HUMANOS, ASOCIACIÓN CIV",LOCALNGO
1173024,FUNDACIÓN CASA ALIANZA MÉXICO IAP,LOCALNGO
1173029,"Dignidad y Justicia en el Camino, A.C.",LOCALNGO
1173016,PROGRAMA CASA REFUGIADOS AC,LOCALNGO
1173030,Padre Jose Marchetti A.C.,LOCALNGO
1173035,Frontera con Justicia AC,LOCALNGO
1173025,JOSÉ MARÍA VILASECA A.C.,LOCALNGO
1173033,Oficina de Defensoria de los Derechos de la Infancia,LOCALNGO
1173036,Formación y Capacitación Asociación Civil,LOCALNGO
1173037,Case del Migrante en Tijuana A.C.,LOCALNGO
1172024,Association for action against violence and trafficking in human beings-Open Gat,LOCALNGO
1172018,"CITY RED CROSS, MACEDONIA",LOCALNGO
1172023,Ombudsman of the Republic of Macedonia,GOVT
1172021,MACEDONIAN YOUNG LAWYERS ASSOCIATION,LOCALNGO
1172003,"MINISTRY OF LABOUR & SOCIAL POLICY, MACEDONIA",GOVT
1172025,Association Center for Human Rights and Conflict Resolution,LOCALNGO
1172026,"St. Cyril and Methodius University, Fac. of Law Iustinianus Primus Skopje - UKIM",GOVT
1174014,MIN. DE LA SOLIDARITÉ DE L'ACTION HUMANITAIRE ET DE LA RECONSTRUCTION DU NORD,GOVT
1159001,AIDE INTERNATIONALE DE LA CROIX-ROUGE LUXEMBOURGEOISE A.S.B.L,INTLNGO
1174008,COMMISSION NATIONALE CHARGE DES REFUGEES AU MALI,GOVT
1174010,"STOP SAHEL, ASSOCIATION MALIENNE POUR LA PROTECTION DE L'ENVIRONNEMENT",LOCALNGO
1174015,Association Malienne pour la Survie au Sahel,LOCALNGO
1174016,Le Ministère de la Justice,GOVT
1182014,BRAVEHEART Foundation,LOCALNGO
1182013,Smile Education and Development Foundation,LOCALNGO
1245019,Raoul Wallenberg Institute of Human Rights and Humanitarian Law,INTLNGO
1182003,MYANMAR RED CROSS SOCIETY,LOCALNGO
1134013,BRIDGE ASIA-JAPAN,INTLNGO
1182010,SHALOM FOUNDATION,LOCALNGO
1182007,KACHIN BAPTIST CONVENTION - EMERGENCY RELIEF COMMITTEE,LOCALNGO
1182009,Karuna Mission Soc. Solidarity,LOCALNGO
1060012,DanChurchAid,INTLNGO
1182015,Ah Yeik (Shingnip),LOCALNGO
1182011,KARUNA MYANMAR SOCIAL SERVICES LOIKAW,LOCALNGO
1182016,People for People-PFP,LOCALNGO
1300008,PRAVNI CENTAR,LOCALNGO
1300004,RED CROSS OF MONTENEGRO,LOCALNGO
1180002,INSTITUTO NACIONAL DE APOIO AOS REFUGIADOS,GOVT
1180034,"Direcçao Provincial do Género, Criança e Açao Social de Nampula",GOVT
1180040,"SERVICO DISTRITAL DE EDUCACAO, JUVENTUDE E TECNOLOGIA, NAMPULA",GOVT
1180038,"SERVICO DISTRITAL DE SAUDE, MULHER E ACCAO SOCIAL DE NAMPULA",GOVT
1180039,SERVICO DISTRITAL DE ACTIVIDADE ECONOMICAS DE NAMPULA,GOVT
1180031,INSTITUTO NACIONAL DE EMPREGO E FORMAÇAO PROFESSIONAL,GOVT
1180017,"KULIMA, MOZAMBIQUE",LOCALNGO
1180005,"EPISCOPAL COMM. FOR MIGRANTS, REF.& DISPLACED, MOZ",LOCALNGO
1171011,ASSOCIATION POUR LA LUTTE CONTRE LA PAUVRETE ET LE SOUS DEVELOPPEMENT,LOCALNGO
1171009,"MINISTERE DE L'INTERIEUR, MAURITANIA",GOVT
1171000,"COMMISSARIAT  LA SCURIT ALIMENTAIRE, MAURITANIE",GOVT
1171019,S.O.S Desert,LOCALNGO
1171022,Union Nationale de Caisse d' Epargne et de Crédit Mutuelle Djikke,LOCALNGO
1171020,AGENCE NATIONALE DU REGISTRE DES POPULATIONS ET DES TITRES SÉCURISÉS,GOVT
1171014,"ONG ACTIONS, MAU",LOCALNGO
7000007,INTERNATIONAL LABOUR ORGANIZATION,SPECAGENCIES
1176024,Churches Action in Relief and Development,LOCALNGO
1176007,"MINISTRY OF HEALTH, MALAWI",GOVT
1176021G,Ministry of Homeland Security,GOVT
1175007,KUMPULAN ACTS,LOCALNGO
1175027,MALAYSIAN SOCIAL RESEARCH INSTITUTE,LOCALNGO
1175017,DIGNITY FOR CHILDREN FOUNDATION,LOCALNGO
1175019,"TAIWAN BUDDHIST TZU-CHI FOUNDATION, KUALA LUMPUR BRANCH, MALAYSIA",LOCALNGO
1175031,YAYASAN KEMANUSIAAN MUSLIM AID MALAYSIA,LOCALNGO
1175024,PERSATUAN JARINGAN ISLAM GLOBAL MASA DEPAN,LOCALNGO
1175039,PT Foundation,LOCALNGO
1175040,Association Of Social Services And Community Development Gombak District Selango,LOCALNGO
1175041,Liberty to Learn Berhad,LOCALNGO
1175042,Humanitarian Care Malaysia Berhad,LOCALNGO
1175037,Persatuan Kebajikan Suara Kanak-Kanak Malaysia,LOCALNGO
1175044,Majlis Kebajikan Kanak-Kanak Malaysia,LOCALNGO
1175029,"DEVELOPMENT OF HUMAN RESOURCES FOR RURAL AREAS, MALAYSIA",LOCALNGO
1175045,Asylum Access Berhad,LOCALNGO
1194020,AU SECOURS DES OUBLIES,LOCALNGO
1194009,ACTION POUR LE BIEN ETRE,LOCALNGO
1081045,FORUM REFUGIES-COSI,INTLNGO
1194010,ONG ADKOUL,LOCALNGO
1274024,SEARCH FOR COMMON GROUND,INTLNGO
1194013,"MINISTERE DE L'INTERIEUR, DE LA SECURITE PUBLIQUE, DE LA DECENTRALISATION, DES A",GOVT
1194015,DIRECTION RÉGIONALE DE LA SANTÉ PUBLIQUE DE TILLABERY,GOVT
1194011,GOUVERNORAT DE LA RÉGION DE DIFFA,GOVT
1194021,Min. de l'Action Humanitaire et de la Gest. des Catast.,GOVT
1194022,ONG Contribution au Developpement Rural (CDR),LOCALNGO
1025010,Developpement Endogene Durable et Innovation (DEDI),INTLNGO
1194023,Nigerien Association for the Treatment of Delinquency and Crime Prevention,LOCALNGO
1196023,Sanitation and Hygiene Education Initiative,LOCALNGO
1196020,"Action Initiative for Peace and Development, Bama HQ",LOCALNGO
1196024,"Nigeria Bar Association, Maiduguri Branch",LOCALNGO
1196021,"Centre for Caring, Empowerment and Peace Initiatives",LOCALNGO
1196022,Grassroots Initiative for Strengthening Community Resilience,LOCALNGO
1196002,"JUSTICE, DEVELOPMENT & PEACE COMMISSION, NIGERIA",LOCALNGO
1196008,NATIONAL COMMISSION FOR REFUGEES,GOVT
1196018,American University of Nigeria,LOCALNGO
1196015,RHEMA CARE INTEGRATED DEVELOPMENT CENTRE,INTLNGO
1196014,NATIONAL HUMAN RIGHTS COMMISSION,GOVT
1196026,"Ministry of Rehabilitation, Reconstruction and Resettlement, Nigeria",GOVT
1196016,BENUE NON-GOVERNMENTAL ORGANIZATION NETWORK,LOCALNGO
1196029,"Catholic Diocese of Makurdi Foundation for Justice, Development and Peace",LOCALNGO
1196027,Catholic Caritas Foundation of Nigeria,LOCALNGO
1196028,Health Initiative for Safety and Stability in Africa,LOCALNGO
1274035,"FAMILY HEALTH INTERNATIONAL, USA",INTLNGO
1196030,Mediatrix Development Foundation,LOCALNGO
1196031,Borno Women Development Initative,LOCALNGO
1196032,Benue State Emergency Management Agency,GOVT
1192008,"ASSOC. OF MEDICAL DOCTORS OF ASIA, NEPAL",INTLNGO
1192022,"FORUM FOR WOMEN, LAW AND DEVELOPMENT",LOCALNGO
1192004,CARITAS NEPAL,LOCALNGO
1205157,REPID RURAL EMPOWERMENT AND INSTITUTIONAL DEVELOPMENT,LOCALNGO
1205030,"THE FRONTIER PRIMARY HEALTH CARE, PAKISTAN",LOCALNGO
1205078,SOCIETY FOR EMPOWERING HUMAN RESOURCES,LOCALNGO
1205067L,LEGEND SOCIETY,LOCALNGO
1205037,SOCIETY FOR COMMUNITY SUPPORT TO PRIMARY EDUCATION,LOCALNGO
1205031,"TARAQEE FOUNDATION, PAKISTAN",LOCALNGO
1205115,TAMEER-E KHALQ FOUNDATION,LOCALNGO
1205032,"SOCIETY FOR HUMANITARIAN RIGHTS & PRISONERS, PAK",LOCALNGO
1205034,"WATER, ENVIRONMENT & SANITATION SOCIETY, PAKISTAN",LOCALNGO
1205060,"NATIONAL DATABASE & REGISTRATION AUTHORITY,GOVT OF PAK",GOVT
1205172,CODE PAKISTAN,LOCALNGO
1205138,DRUGS AND NARCOTICS EDUCATIONAL SERVICES FOR HUMANITY,LOCALNGO
1205175,Pakistan Poverty Alleviation Fund,LOCALNGO
1205155,INSPIRE PAKISTAN,LOCALNGO
1205041,"GOVT OF PAKISTAN, CAR BALOCHISTAN",GOVT
1205046,"GOVERNMENT OF PAKISTAN, CAR KPK",GOVT
1205149,MORR - REFUGEE ATTACHÉ OFFICE OF THE EMBASSY OF THE ISLAMIC REPUBLIC OF AFGHANIS,GOVT
1205176,National Vocational and Technical Training Commission,LOCALNGO
1205000,"GOVERNMENT OF PAKISTAN - CCAR, ISLAMABAD",GOVT
1205016,"SUSTAINABLE DEVELOPMENT POLICY INSTITUTE, PAKISTAN",LOCALNGO
1205111,INNOVATIVE DEVELOPMENT ORGANIZATION,LOCALNGO
1205174,"Balochistan University of Information Technology, Engineering and Management Sci",GOVT
1205160,WOMEN EMPOWERMENT ORGANIZATION,LOCALNGO
1205169,AIK HUNAR AIK NAGAR,GOVT
1206009,IGLESIA CATOLICA ARQUIDIOCESIS DE PANAMA,LOCALNGO
1206000,"OFICINA NACIONAL PARA LA ATENCION A LOS REF.,PAN",LOCALNGO
1206006,CRUZ ROJA PANAMENA,LOCALNGO
1195002,"CONSEJO DE IGLESIAS EVANGLICAS, NICARAGUA",LOCALNGO
1098017,Asociación Nacional de la Cruz Roja Guatemalteca,LOCALNGO
1098015,Oficina de Derechos Humanos del Arzobispado de Guatemala,LOCALNGO
1098012,Asociación Lambda,LOCALNGO
1098013,Asociacion El Refugio de la Ninez ONG,LOCALNGO
1108012,Asociacion Calidad de Vida,LOCALNGO
1108016,Asociacion Programa Amigo de los Ninos - Children International Honduras,LOCALNGO
1231006,Vision Mundial El Salvador,LOCALNGO
1231008,Asociacion Comunicando y Capacitando a Mujeres Trans con VIH en El Salvador,LOCALNGO
1231007,Universidad Centroamericana José Simeón Cañas,LOCALNGO
1108013,Caritas de Honduras,LOCALNGO
1231003,CARITAS EL SALVADOR,LOCALNGO
1231005,Fundacion Cristosal,LOCALNGO
1032005,"HELP FOR PROGRESS, BELIZE",LOCALNGO
1108008,Comisionado Nacional de los Derechos Humanos,GOVT
1108007,ASOCIACION SALVEMOS LOS NINOS DE HONDURAS,LOCALNGO
1108002,ASOCIACIÓN HERMANAS MISIONERAS DE SAN CARLOS BORROMEO SCALABRINIANAS,INTLNGO
1108011,Comision de Accion Social Menonita,LOCALNGO
1098011,"PASTORAL DE MOVILIDAD HUMANA, CONFERENCIA EPISCOPAL DE GUATEMALA",LOCALNGO
1098016,Misioneros de San Carlos Escalabrinianos,LOCALNGO
1108005,CASA ALIANZA,LOCALNGO
1108017,Secretaría de Estado en el Despacho de Derechos Humanos,GOVT
1108003,ASOCIACIÓN VISIÓN MUNDIAL,INTLNGO
1231009,Fundacion Plan El Salvador,LOCALNGO
1098018,"Org. No Gub. para el Desarrollo Humano integral Sostenible ""Tierra Nueva, ONG""",LOCALNGO
1108006,INSTITUTO NACIONAL DE MIGRACIÓN,GOVT
1108000,"CEN.INVESTIGACION/PROMOCION DERECHOS HUMANOS, HON",LOCALNGO
1108004,INSTITUTO NACIONAL DE ESTADISTICA,GOVT
1032007,Belize Red Cross Society,LOCALNGO
1108010,Fundacion Equipo de Reflexion Investigacion Y Communcacion,LOCALNGO
1108019,Sociedad Religiosa Hermanas de la Misericordia,INTLNGO
1231010,Fundacion Salvadorena de Desarrollo y vivienda Minima,LOCALNGO
1108018,Asociacion de Municipios de Honduras,LOCALNGO
1108014,Centro de Desarrollo Humano CDH,LOCALNGO
1108020,Instituto de la Propiedad,GOVT
1209006,COMMUNITY AND FAMILY SERVICES INTERNATIONAL-CFSI,INTLNGO
1209012,COMMISSION ON HUMAN RIGHTS OF THE PHILIPPINES,GOVT
1209031,"Magungaya Mindanao, Incorporated",LOCALNGO
1209032,Muslims Sharing Skills for Peace and Development (Kapamagogopa) Inc.,LOCALNGO
1209033,Kalimudan Sa Ranao Foundation Inc.,LOCALNGO
1211009,THE HALINA NIEC LEGAL AID CENTER,LOCALNGO
1220006,"NATIONAL COUNCIL FOR REFUGEES, ROMANIA",LOCALNGO
1220014,JESUIT REFUGEE SERVICE,LOCALNGO
1220029,Asociatia Ecumenica a Bisericilor din Romania,LOCALNGO
1222039,"FAITH, HOPE, LOVE, RUSSIAN FEDERATION",LOCALNGO
1222085,ST.PETERSBURG CENTRE FOR INTERNL. COOP. OF THE RED CROSS,LOCALNGO
1222062,ST.PETERSBURG REGIONAL BRANCH OF THE RUSSIAN RED CROSS,LOCALNGO
1222089,CHARITABLE FOUNDATION HEALTH AND LIFE,LOCALNGO
1222044,"CHILDREN'S FUND, RUSSIAN FEDERATION",LOCALNGO
1222050,"CIVIC ASSISTANCE, RUSSIAN FEDERATION",LOCALNGO
1222087,INSTITUTE FOR HUMAN RIGHTS,LOCALNGO
1222060,"MEMORIAL HUMAN RIGHTS CENTER, RUSSIAN FEDERATION",LOCALNGO
1223059,Legal Aid Forum,LOCALNGO
1223054,Ministry in charge of Emergency Management (MINEMA),GOVT
1223055,Global Humanitarian and Development Foundation,LOCALNGO
1274050,AMERICAN REFUGEE COMMITTEE,INTLNGO
1223060,RWANDA BIOMEDICAL CENTRE (RBC),GOVT
1291034,CIVIL  RIGHTS PROGRAM KOSOVO,LOCALNGO
1291504,ADVANCING TOGETHER,LOCALNGO
1240132,Ministry Of Education  White Nile State,GOVT
1240052,WATER AND ENVIRONMENTAL SANITATION,GOVT
1240128,Forests National Corporation,GOVT
1240025,"NATIONAL FORESTRY CORPORATION, SUDAN",GOVT
1240028,SUDANESE RED CRESCENT SOCIETY,LOCALNGO
1240001,"COMMISSIONER FOR REFUGEES, KHARTOUM, SUDAN",GOVT
1240049,GEDAREF STATE GOVERNMENT - SUD,GOVT
1240078,TALAWIET FOR DEVELOPMENT ORGANISATION,LOCALNGO
1240095,SUDAN ORGANIZATION FOR DEVELOPMENT,LOCALNGO
1240089,KASSALA MICROFINANCE INSTITUTION,GOVT
1240109,SUDANESE ORGANIZATION FOR RESEARCH AND DEVELOPMENT,LOCALNGO
1240124,ISLAMIC SOCIAL WELFARE ORGANIZATION,LOCALNGO
1092081,CATHOLIC AGENCY FOR OVERSEAS DEVELOPMENT,INTLNGO
1240111,GLOBAL AID HAND,LOCALNGO
7000017,FOOD & AGRIC. ORGANIZATION OF THE U.N. (FAO),SPECAGENCIES
1240105,ELRUHAMA ORGANIZATION FOR DEVELOMENT & HUMANITARIAM AID,LOCALNGO
1240127,Ministry of Health -  White Nile State,GOVT
1240108,"MINISTRY OF SOCIAL WELFARE CULTURE AND SPORTS, WHITE NILE STATE",GOVT
1240032,"WINDLE TRUST INTERNATIONAL, SUDAN",INTLNGO
1240134,Water and Environmental Sanitation Project – South Darfur,GOVT
1240126,Nada Elzhar Organization for Disaster Prevention and Sustainable Development,LOCALNGO
1240050,AL MANAR VOLUNTARY ORGANIZATION,LOCALNGO
1240006,"REFUGEE COUNSELLING SERVICE, KHARTOUM, COR, SUDAN",GOVT
1240130,Refugees programme Ministry of Education South Kordofan,GOVT
1240117,BUSINESS AND PROFESSIONAL WOMEN ORGANIZATION,LOCALNGO
1240077,"MINISTRY OF SOCIAL DEVELOPMENT, WOMEN AND CHILD AFFAIRS SOUTH KORDOFAN",GOVT
1240116,MUTAWINAT BENEVOLENT COMPANY,LOCALNGO
1240129,State Ministry of Health South Darfur State,GOVT
1240133,Refugees Programme State Ministry of Social Affairs - West Kordofan,GOVT
1246044,CARE INTERNATIONAL SWITZERLAND,INTLNGO
1094048,WORLD VISION DEUTSCHLAND E.V,INTLNGO
1240061,CHILD DEVELOPMENT FOUNDATION,LOCALNGO
1240135,Ministry of Education – South Darfur,GOVT
1240131,State Ministry of Education/West Kordofan,GOVT
1240088,CIVIL REGISTRY,GOVT
1240137,"Ministry of Education, Khartoum State",GOVT
1240125,Sanad Charity Foundation,LOCALNGO
1096006,COMMISSION NATIONALE POUR LES RÉFUGIÉS ET DÉPLACÉS INTÉRIEURS,LOCALNGO
1091005,GAMBIA FOOD & NUTRITION ASSOCIATION,LOCALNGO
1091010,GAMBIA COMMISSION FOR REFUGEES,GOVT
1233000,"COMMISSION NATIONALE D'ELIGIBILITE, SENEGAL",LOCALNGO
1233003,"OFFICE AFRICAIN POUR LE DEV. ET LA COOPERATION,SEN",LOCALNGO
1233007,COMITÉ NATIONAL POUR LA GESTION DE LA SITUATION DES RÉFUGIÉS RAPATRIÉS ET PERSON,GOVT
1126048,Mani Tese,INTLNGO
1233009,Croix Rouge Senegalaise,LOCALNGO
1023018,Amnesty International Benin,LOCALNGO
1023014,Secretariat Permanent de la Commission Nationale chargee des Refugies,GOVT
1235013,"NATIONAL COMMISSION FOR SOCIAL ACTION, SLE",GOVT
1237097,SOMALI WOMEN DEVELOPMENT CENTRE,LOCALNGO
1237117,AFRICAN VOLUNTEERS FOR RELIEF AND DEVELOPMENT,LOCALNGO
1237106,SAVE SOMALI WOMEN AND CHILDREN,LOCALNGO
1237125,MINISTRY OF RESETTLEMENT AND DIASPORA AFFAIRE,GOVT
1237120,HANANO MEDICAL CENTER,LOCALNGO
1237076,KAALO AID AND DEVELOPMENT,LOCALNGO
1237073,"GALKAYO MEDICAL FOUNDATION, SOMALIA",LOCALNGO
1142030I,GRUPPO PER LE RELAZIONI TRASNCULTURALI,INTLNGO
1237095,"MINISTRY OF INTERIOR, LOCAL GOVERNMENT AND RURAL DEVELOPMENT",GOVT
1237044,GALKAYO EDUCATION CENTER FOR PEACE AND DEVELOPMENT,LOCALNGO
1237126,Women Initiative for Society Empowerment,LOCALNGO
1237061L,COMPREHENSIVE COMMUNITY BASED REHABILITATION IN SOMALILAND,LOCALNGO
1237070,"UNIVERSITY OF HARGEISA, LEGAL CLINIC",GOVT
1237085,ACTION IN SEMI-ARID LANDS,LOCALNGO
1237129,Puntland Youth and Social Development Association,LOCALNGO
1237122,JUBBALAND REFUGEE AND IDPS AFFAIRS,GOVT
1237118,NATIONAL COMMISSION FOR REFUGEES AND IDPS,GOVT
1237000,National Displaced and Refugee Agency (ND&RA),GOVT
1216000,QATAR CHARITY,INTLNGO
1237130,Hano Academy,LOCALNGO
1237131,Galmudug Commission for Refugees and IDPs,GOVT
1291041,"PRAXIS, SERBIA",LOCALNGO
1291508,Udruzenje gradjana Sigma Plus,LOCALNGO
1291063,BELGRADE CENTRE FOR HUMAN RIGHTS,LOCALNGO
1291507,Psychosocial Innovation Network,LOCALNGO
1291023,"HUMANIT.CENTRE FOR INTEGRATION & TOLERANCE, SERBIA",LOCALNGO
1291064,GROUP FOR CHILDREN AND YOUTH INDIGO,LOCALNGO
1291509,A 11 - Initiative for Economic and Social Rights,LOCALNGO
1291510,Medjunarodna mreza pomoci I.A.N. International Aid Network,LOCALNGO
1291505,Centar za kriznu politiku i reagovanje,LOCALNGO
1291028,"AMITY, SERBIA AND MONTENEGRO",LOCALNGO
1291511,Centar za istraživanje i razvoj društva IDEAS,LOCALNGO
1291058,UDRUZENJE GRADANA VIZIJA KARGUJEVAC,LOCALNGO
1291502,Music Art Project,LOCALNGO
1274015,"UNITED METHODIST COMMITTEE ON RELIEF, USA",INTLNGO
1248002,Nile Hope,LOCALNGO
1248016,WOMEN DEVELOPMENT GROUP,LOCALNGO
1248008,CARE SOUTH SUDAN,INTLNGO
1248013,HUMANITARIAN AND DEVELOPMENT CONSORTIUM,LOCALNGO
1274048,"SAMARITAN'S PURSE, U.S.A.",INTLNGO
1248018,Hope Restoration,LOCALNGO
1248014,SOUTH SUDAN COMMISSION FOR REFUGEE AFFAIRS,GOVT
1092056,"ASSOCIATION OF CHRISTIAN RESOURCE ORGANISATION SERVING SUDAN, UK",INTLNGO
1127008,IsraAID,INTLNGO
1248012,"DIRECTORATE OF NATIONALITY, PASSPORTS AND IMMIGRATION",GOVT
1248019,Africa Life Aid,LOCALNGO
1243009,Slovenian Red Cross,LOCALNGO
1157004,LITHUANIAN RED CROSS,LOCALNGO
1160004,LATVIAN CENTRE FOR HUMAN RIGHTS,LOCALNGO
1072003,ESTONIAN HUMAN RIGHTS CENTRE,LOCALNGO
1245021,Stiftelsen Svensk Industridesign,GOVT
1245008,SWEDISH RED CROSS,INTLNGO
1245022,Swedish Refugee Advice Centre,LOCALNGO
1247026,AL-BATOOL FOR HUMANITARIAN SERVICES,LOCALNGO
1247003,SYRIAN RED CRESCENT,LOCALNGO
1247040,Al Birr Association Charitable and Sociable Services Organization,LOCALNGO
1247032,SOCIAL CARE SOCIETY,LOCALNGO
1247038,Monastery Saint James the Mutilated,LOCALNGO
1247037,NAMAA DEVELOPMENTAL ASSOCIATION ,LOCALNGO
1247039,Bara'em  Association for Children Care,LOCALNGO
1247025,SYRIA TRUST FOR DEVELOPMENT,LOCALNGO
1247042,Al-Ihsan Charity and Development,LOCALNGO
1247018L,GREEK ORTHODOX PATRIARCHATE & ALL THE EAST,LOCALNGO
1247023,SYRIAN SOCIETY FOR SOCIAL DEVELOPMENT,LOCALNGO
1247034,AOUN FOR RELIEF AND DEVELOPMENT ASSOCIATION,LOCALNGO
1247021,AL NADA DEVELOPMENT NGO,LOCALNGO
1247035,CHILD CARE SOCIETY,LOCALNGO
1247047,Amelioration of Sanitary and Social Level Society,LOCALNGO
1247033,AL BIRR ASSOCIATION,LOCALNGO
1247049,Juvenile Protection Association,LOCALNGO
1247048,Childhood Protection Society,LOCALNGO
1247019G,MINISTRY OF HIGHER EDUCATION,GOVT
1247050,St Ephrem Patriarchal Development Committee,LOCALNGO
1081064,SECOURS ISLAMIQUE FRANCE,INTLNGO
1247031,CHARITY ASSOCIATION OF SOCIAL CARE-TAMAYOZ PROJECT FOR ORPHAN SPONSORSHIP,LOCALNGO
1247024,MINISTRY OF LOCAL ADMINISTRATION AND ENVIRONMENT,GOVT
1126039,ASSOCIAZIONE DI COOPERAZIONE RURALE IN AFRICA E AMERICA LATINA,INTLNGO
1042017,ASSOCIATION POUR LA PROMOTION DES LIBERTESFONDAMENTALES AU TCHAD,LOCALNGO
1042005,Croix-Rouge du Tchad,LOCALNGO
1274068,"WORLD CONCERN, USA",INTLNGO
1042003,"SECOURS CATHOLIQUE POUR LE DEVELOPMENT, CHAD",LOCALNGO
1042000,"COMMISSION NATIONALE POUR LES REFUGIES, TCHAD",GOVT
1042012,MIN. DE L'ADMINISTRATION DU TERRITOIRE-CHD,GOVT
1246031A,REFUGEE EDUCATION TRUST,INTLNGO
1261000,Coordination Nationale D'Assistance aux Refugies et Deplaces -Togo,LOCALNGO
1261010,ASSOCIATION TOGOLAISE POUR LE BIEN ETRE FAMILIAL,LOCALNGO
1274122,GREEN VILLAGE FOUNDATION,LOCALNGO
1257005,COERR Foundation,LOCALNGO
1257000,"MINISTRY OF INTERIOR, ROYAL THAI GOVERNMENT",GOVT
1257023,Foundation for the Rights of Disadvantaged Populations,INTLNGO
1239005,"MINISTRY OF JUSTICE, S.R. VIET NAM",GOVT
1239010,"Ministry of Labour, Invalids and Social Affairs",GOVT
1258001,"REFUGEE CHILDREN & VULNERABLE CITIZENS, TAJIKISTAN",LOCALNGO
1258016,PUBLIC ORGANIZATION CHASHMA,LOCALNGO
1258015,INTERNATIONAL PUBLIC ORGANIZATION 'RIGHTS & PROSPERITY',LOCALNGO
1262001,CROISSANT ROUGE TUNISIEN,LOCALNGO
1262009,ARAB INSTITUTE FOR HUMAN RIGHTS,LOCALNGO
1262011,Tunisian Refugees Council,LOCALNGO
1263011,PRESIDENCY FOR TURKS ABROAD AND RELATED COMMUNITIES,GOVT
1263017,Kaos Gey Lezbiyen Kulturel Arast¿rmalar ve Dayan¿sma Dernegi,LOCALNGO
1263019,"WALD, World Academy for Local Government and Democracy",INTLNGO
1263023,Kadınlarla Dayanışma Vakfı - KADAV,LOCALNGO
1263014,DIRECTORATE GENERAL OF MIGRATION MANAGEMENT (DGMM),GOVT
1263028,Union of Turkish Bar Associations,GOVT
1263022,"Ankara Provincial Directorate of Family, Labor and Social Services",GOVT
1263008,SUPPORT TO LIFE,LOCALNGO
1263026,Mavi Kalem Sosyal Yardımlaşma ve Dayanışma Derneği,LOCALNGO
1263003,"ASSOC.FOR SOLIDARITY W ASYL.SEEKERS/MIGRANTS, TUR",LOCALNGO
1263015,Habitat Dernegi,LOCALNGO
1246014,"THE HUMAN RESOURCES DEVELOPMENT FOUNDATION, TURKEY",LOCALNGO
1134012,"Association for Aid and Relief, Japan",INTLNGO
1263021,Yuva Association,LOCALNGO
1263027,Gaziantep Chamber of Commerce,GOVT
1263004,TURKISH RED CRESCENT SOCIETY,LOCALNGO
1256020,CARITAS TANZANIA,LOCALNGO
1092028,HELPAGE INTERNATIONAL UK,INTLNGO
1144004,GOOD NEIGHBORS INTERNATIONAL,INTLNGO
1256051,WOMEN'S LEGAL AID CENTRE,LOCALNGO
1256026,"RELIEF TO DEVELOPMENT SOCIETY, TANZANIA",LOCALNGO
1256019,TANGANYIKA CHRISTIAN REFUGEE SERVICES,LOCALNGO
1256031,TANZANIA RED CROSS,LOCALNGO
1256050,COMMUNITY ENVIRONMENTAL MANAGEMENT AND DEVELOPMENT ORGANISATION,LOCALNGO
1256001,"MINISTRY OF HOME AFFAIRS, UNITED REP. OF TANZANIA",GOVT
1274104,MEDICAL TEAMS INTERNATIONAL,INTLNGO
1271020,Windle International Uganda,INTLNGO
1271051,Lamwo District Local Government,GOVT
1080002,FINN CHURCH AID,INTLNGO
1142044,HUMANITARIAN INITIATIVE JUST RELIEF AID,INTLNGO
1271038G,ARUA DISTRICT LOCAL GOVERNMENT,GOVT
1271048,KOBOKO DISTRICT LOCAL GOVERNMENT,GOVT
1271041,NSAMIZI TRAINING INSTITUTE FOR SOCIAL DEVELOPMENT,GOVT
1094032,"AKTION AFRIKA HILFE, GERMANY",INTLNGO
1271056,Water Missions Uganda,INTLNGO
1271057,Humanitarian Assistance & Development Services (HADS),INTLNGO
1271046,KIRYANDONGO DISTRICT LOCAL GOVERNMENT,GOVT
1271055,Rural Initiative for Community Empowerment West Nile,LOCALNGO
1271024,OFFICE OF THE PRIME MINISTER IN ARUA,GOVT
1274128,REAL MEDICINE FOUNDATION,INTLNGO
1271027,TRANSCULTURAL PSYCHOSOCIAL ORGANIZATION,LOCALNGO
1193020I,OXFAM NOVIB,INTLNGO
1271037G,YUMBE DISTRICT LOCAL GOVERNMENT,GOVT
1271052,Community Technology Empowerment Network,LOCALNGO
7000018,UN OFFICE FOR PROJECT SERVICES,OTHERUN
1271015,"MOYO DISTRICT, UGANDA",GOVT
1271050,Care And Assistance For Forced Migrants,LOCALNGO
1271018,OFFICE OF THE PRIME MINISTER,GOVT
1271025,OFFICE OF THE PRIME MINISTER IN MOYO,GOVT
1271058,Uganda Refugee and Disaster Management Council,LOCALNGO
1271004,"ADJUMANI DISTRICT, UGANDA",GOVT
1271006,"INTER-AID, UGANDA",LOCALNGO
1271061,Office of the Prime Minister - Comprehensive Refugee Response Framewor,GOVT
1271059,HOIMA DISTRICT LOCAL GOVERNMENT,GOVT
1271060,Isingiro District Local Government,GOVT
1271013,UGANDA RED CROSS,LOCALNGO
1271063,Kamwenge District Local Government,GOVT
1271045,KYEGEGWA DISTRICT LOCAL GOVERNMENT,GOVT
1271062,Kisoro District Local Government,GOVT
1274152,Tutapona Trauma Rehabilitation,INTLNGO
1271064,OPM – Hoima Refugee Desk,GOVT
1271065,OPM – Mbarara Refugee Desk,GOVT
1271066,SINA Loketa,LOCALNGO
1272040,TENTH OF APRIL,LOCALNGO
1272038,"Public Organization `Public Movement `Faith, Hope, Love`",LOCALNGO
1272041,KHARKIV CHARITABLE FOUNDATION 'WORLD',LOCALNGO
1272042,Charitable Organization 'CHARITABLE FUND 'THE RIGHT TO PROTECTION',LOCALNGO
1272033,"CHARITY ROKADA, UKRAINE",LOCALNGO
1272015,"FOUNDATION FOR HEALTH PROTECTION, UKRAINE",LOCALNGO
1272066,Charitable foundation - Center for Social Development “Bridge”,LOCALNGO
1272070,Charity Foundation Donbass Development Centre,LOCALNGO
1272071,Youth Organization Maximal,LOCALNGO
1272073,NGO Proliska,LOCALNGO
1272065,CHARITABLE  FOUNDATION  SLAVIC HEART,LOCALNGO
1272072,CrimeaSOS,LOCALNGO
1054008,PEOPLE IN NEED,INTLNGO
1272078,"Charitable Fund ""International Child Fund ""MIRA""",LOCALNGO
1272079,Caritas Ukraine,LOCALNGO
1272080,Ednannia – Initiative Centre to Support Social Action,LOCALNGO
1272081,CSO Ukrainian Institute for Human Rights,LOCALNGO
1092080,EUROPEAN NETWORK ON STATELESSNESS,INTLNGO
1022029,European Youth Forum aisbl,INTLNGO
1081071,Bibliotheques Sans Frontieres,INTLNGO
1246051,Caritas Switzerland,INTLNGO
1274103,REFUGEPOINT,INTLNGO
1274022,USA FOR UNHCR,LOCALNGO
1008004,AUSTRALIA FOR UNHCR,LOCALNGO
1134005,JAPAN FOR UNHCR,LOCALNGO
1245018,Sverige for UNHCR Insamlingsstiftelse,LOCALNGO
1094010,UNO-Fluechtlingshilfe e V,LOCALNGO
1238005,ASOCIACION ESPANA CON ACNUR,LOCALNGO
1094005,"DEUTSCHER CARITASVERBAND, FED. REPUBLIC OF GERMANY",INTLNGO
1009012,"AUSTRIAN RED CROSS, AUSTRIA",LOCALNGO
1246003,INTERNATIONAL COUNCIL OF VOLUNTARY AGENCIES,INTLNGO
1080003,Hanken School of Economics,LOCALNGO
7000028,UNITED NATIONS OFFICE FOR THE COORDINATION OF HUMANITARIAN AFFAIRS,DEPTOFFICES
1246047,Fleet Forum Association,INTLNGO
1081072,"INSEAD, Institut Europeen d Administration des Affaires",INTLNGO
1274051,"HABITAT FOR HUMANITY INTERNATIONAL, USA",INTLNGO
1274142,Kepler (Generation Rwanda),INTLNGO
1081055,CARTONG,INTLNGO
1092070,EMERGENCY NUTRITION NETWORK,INTLNGO
1274147,University of Florida,GOVT
1193031,World Fair Trade Organization,INTLNGO
1097004,"INTERNATIONAL SOCIAL SERVICE, GREECE",LOCALNGO
1274148,Joint Learning Initiative on Faith and Local Communities,INTLNGO
1274150,Center for Global Development,INTLNGO
1274149,The Small Enterprise Education and Promotion Network,INTLNGO
7000020,UNITED NATIONS VOLUNTEERS,PROGFUND
1274144,Jesuit Worldwide Learning,INTLNGO
1092036,"ACTION AGAINST HUNGER, GREAT BRITAIN",INTLNGO
1094052,Fraunhofer Gesellschaft zur Förderung der angewandten Forschung e.V.,LOCALNGO
7000029,United Nations Capital Development Fund,UN
1274006,"WOMEN'S REFUGEE COMMISSION, INC.",INTLNGO
1193029,WAR TRAUMA FOUNDATION,LOCALNGO
1274059,"SAVE THE CHILDREN FEDERATION, INC",INTLNGO
1299001,International Emerging Film Talent Association,INTLNGO
1081077,"QUAMED, Quality Medicines For All",INTLNGO
1221021,SONKE GENDER JUSTICE NETWORK,LOCALNGO
1213000,"LIVING WATER COMMUNITY, TRINIDAD & TOBAGO, PORT OF SPAIN",LOCALNGO
1011001,THE BAHAMAS RED CROSS SOCIETY,LOCALNGO
1132007,JAMAICA RED CROSS,INTLNGO
1092084,Christian Aid,INTLNGO
1007500,Red Cross Aruba,LOCALNGO
1241001,Suriname Red Cross Society,LOCALNGO
1213001,The Rape Crisis Society of Trinidad and Tobago,LOCALNGO
1100000,Guyana Red Cross Society,LOCALNGO
1100001,"Diocese of Georgetown, Guyana",LOCALNGO
1274156,Center for Gender and Refugee Studies,LOCALNGO
1055000,Cayman Islands Red Cross,LOCALNGO
1274155,"KIND, Inc. (Kids in Need of Defense)",LOCALNGO
1274159,Humanitarian OpenStreetMap Team United States Inc,INTLNGO
1213002,The Family Planning Association of Trinidad and Tobago,LOCALNGO
1274158,The Refugee Center Online,LOCALNGO
1274157,New York University,LOCALNGO
1033000,British Virgin Islands Red Cross,LOCALNGO
1101000,Grenada Red Cross Society,LOCALNGO
1285021,Fundacion Luz y Vida,LOCALNGO
1285011,CRUZ ROJA VENEZOLANA SECCIONAL ZULIA,LOCALNGO
1285004,CARITAS VENEZUELA,LOCALNGO
1285024,Cruz Roja Tachira,LOCALNGO
1285026,Accion Solidaria,LOCALNGO
1285022,Asociacion Civil Fe Y Alegria,GOVT
1285018L,SOCIEDAD WILLS WILDE,LOCALNGO
1290013L,"CHARITABLE SOCIETY FOR SOCIAL WELFARE, SANA'A",LOCALNGO
1290029,Sustainable Development Founda,LOCALNGO
1290007,"YEMENI RED CRESCENT SOCIETY, YEMEN ARAB REPUBLIC",LOCALNGO
1290028,YEMEN WOMEN UNION,LOCALNGO
1290036,Jeel Albena Association for Humanitarian Development,LOCALNGO
1290037,Yemen Alkair for Relief and Development(YARD),LOCALNGO
1290038,Yemen Development Foundation,LOCALNGO
1290032,AL-MAGD FOR CHARITABLE & HUMANITARIAN RELIEF & DEVELOPMENT,LOCALNGO
1290003,"SOCIETY FOR HUMANITARIAN SOLIDARITY, YEMEN",LOCALNGO
1290040,Nahda Makers Organization,LOCALNGO
1290002,"CHARITABLE SOCIETY FOR SOCIAL WELFARE, ADEN",LOCALNGO
1290033,Yemen Family Care Association,LOCALNGO
1290035,Abs Development for women & child,LOCALNGO
1290022,MIGRATION AND REFUGEE STUDIES CENTER,GOVT
1290039,Ministry of Education - Aden,GOVT
1290041,Social Development Hodeida Girls Foundation,LOCALNGO
1290043,Al-Dar Al-Arabia For Development and Advocacy,LOCALNGO
1290018,"National Authority of Humanitarian Affairs, Disasters Management, Coordination",GOVT
1290044,Al-hikma Al-Yamania Association for Charity,LOCALNGO
1221007,"LAWYERS FOR HUMAN RIGHTS, REP. OF SOUTH AFRICA",LOCALNGO
1221008,University of Cape Town Refugee Rights Unit,LOCALNGO
1221033,FUTURE FAMILIES,LOCALNGO
1221039,Hand in Hand Development,INTLNGO
1221040,The Adonis Musati Project,LOCALNGO
1028003,BOTSWANA RED CROSS SOCIETY,LOCALNGO
1170002,CONSEIL DE DÉVELOPPEMENT D'ANDOHATAPENAKA,LOCALNGO
1092072,SKILLSHARE INTERNATIONAL,INTLNGO
1244000,CARITAS SWAZILAND,LOCALNGO
1221034,STUDIETRUST,LOCALNGO
1170001,FOCUS DEVELOPMENT ASSOCIATION,LOCALNGO
1221028,Nelson Mandela University,GOVT
1221024,"REFUGEE SOCIAL SERVICES, RSA",LOCALNGO
1221036,ZOE-LIFE INNOVATIVE SOLUTIONS,LOCALNGO
1221041,Eastern Cape Refugee Centre,LOCALNGO
1191010,Komeho Namibia Development Agency,LOCALNGO
1191009,Legal Assistance Centre,LOCALNGO
1221038,National Association of Child Care Workers,LOCALNGO
1296000,"MINISTRY OF HOME AFFAIRS, ZAMBIA",GOVT
1123006,Gorta Self Help Africa,INTLNGO
1054003,"CARITAS, CZECH REPUBLIC",LOCALNGO
1296008,ZAMBIA RED CROSS SOCIETY,LOCALNGO
1296016,"MINISTRY OF COMMUNITY DEVELOPMENT AND SOCIAL SERVICES, SOLWEZI",GOVT
1296026,"MINISTRY OF COMMUNITY DEVELOPMENT, MOTHER AND CHILD HEALTH",GOVT
1040007,CARE CANADA,INTLNGO
1245009,SAVE THE CHILDREN,INTLNGO
1297005,"DEPARTMENT OF SOCIAL WELFARE, ZIMBABWE",GOVT