﻿id,Pillar,Description
1,4,Pillar 4 - IDP Project
2,1,Pillar 1 - Refugee Programme
3,3,Pillar 3 - Reintegration Project
4,2,Pillar 2 - Stateless Programme
5,B,"Pillar 1,3 - Refugee Programme and Reintegration Project"
6,A,"Pillar 1,2 - Refugee and Stateless Programme"
7,C,"Pillar 1,4 - Refugee Programme and IDP Project"
8,I,"Pillar 2,4 - Stateless Programme and IDP Project"
9,F,"Pillar 1,3,4 - Refugee Programme and Reintegration and IDP Project"
10,K,"Pillar 3,4 - Reintegration and IDP Projects"