﻿id,PPG
1,4AFGA
2,3AFGA
3,1AFGA
4,1AGOA
5,1AGOB
6,1BIHB
7,2BIHB
8,1BIHD
9,1ARGJ
10,1ARMA
11,2GEOA
12,3BDIA
13,1BDIE
14,5XXWV
15,4BDIA
16,1BELA
17,5BELG
18,5BELC
19,1BFAA
20,1BFAB
21,1BGDA
22,1HUNI
23,1BIHE
24,1UKRB
25,1BRAB
26,3CAFA
27,1CAFC
28,4CAFA
29,1CHEA
30,2CIVA
31,3CIVA
32,1CIVA
33,1CMRA
34,1CMRB
35,4CMRA
36,1CMRE
37,1CODF
38,3CODA
39,4CODA
40,1CODA
41,1CODB
42,1CODE
43,1COGA
44,1COGD
45,4COGA
46,1COGE
47,1COLA
48,4COLA
49,1CRIA
50,1CRIB
51,5XXMB
52,1ITAC
53,1HUNL
54,1DEUF
55,1DJIB
56,2DOMA
57,1DOMA
58,2USAB
59,1DZAB
60,1DZAA
61,5XXWN
62,1ECUB
63,1EGYC
64,1EGYA
65,1EGYD
66,1ERIA
67,1ESHA
68,1ETHC
69,1ETHF
70,1ETHG
71,1ETHL
72,1ETHK
73,4ETHA
74,1FRAA
75,1GBRA
76,4GEOD
77,1GEOA
78,1GHAG
79,1SENV
80,5SENA
81,1GRCB
82,2HUNB
83,1HUNA
84,3HRVB
85,1HUNJ
86,5XXWA
87,1IDNA
88,1INDB
89,1IRLA
90,1IRNB
91,1IRNC
92,1IRQB
93,4IRQB
94,1IRQA
95,2IRQA
96,1ISRA
97,1ITAN
98,1ITAG
99,1ITAH
100,1ITAD
101,1JORD
102,1JORC
103,4SRRB
104,4SRRA
105,5XXND
106,1JPNA
107,1KAZA
108,2KAZA
109,1KAZC
110,2KAZC
111,1KENC
112,1KENB
113,1KENA
114,2KENA
115,1KGZA
116,2KGZA
117,1LBND
118,1LBNC
119,2LBNB
120,1LBRD
121,1LBYA
122,4LBYA
123,1LKAA
124,3LKAA
125,1MARA
126,1HUNO
127,1MEXA
128,3MLIA
129,1MLIA
130,4MLIA
131,2MMRA
132,3MMRA
133,4MMRA
134,1MOZC
135,2MOZA
136,1MRTA
137,1MRTC
138,1MWIB
139,1MWIA
140,1MYSB
141,2MYSA
142,1NERB
143,1NERC
144,2NERA
145,1NERA
146,4NERA
147,4NERB
148,4NGAA
149,3NGAA
150,1SENN
151,1NGAA
152,1NPLB
153,2NPLA
154,1NPLA
155,1NPLC
156,1PAKC
157,2PAKA
158,5PANA
159,1PANB
160,1PAND
161,1PANC
162,1USAC
163,1PANE
164,1PHLA
165,4PHLB
166,1HUNB
167,1HUNH
168,1RUSA
169,2RUSA
170,1RWAC
171,1RWAB
172,3RWAA
173,1SDNA
174,1SDND
175,4SDNB
176,3SDNA
177,2SDNA
178,1SENT
179,1SENU
180,1SENA
181,1SENJ
182,1SENK
183,1SENI
184,3SOMA
185,4SOMA
186,1SOMA
187,4SSDA
188,1SSDA
189,2SSDA
190,1HUNN
191,2SWEC
192,1SWEF
193,1SWEE
194,4SYRA
195,1SYRD
196,3SYRA
197,1TCDA
198,1TCDD
199,1TCDB
200,1TCDC
201,4TCDB
202,2TCDA
203,1SENH
204,1SENL
205,1THAA
206,1THAB
207,2THAA
208,5THAA
209,2XXSA
210,1TJKA
211,2TJKA
212,1TUNA
213,1TURC
214,1TURD
215,1TURA
216,1TZAB
217,1TZAE
218,1TZAC
219,1TZAF
220,1UGAB
221,1UGAA
222,1UGAC
223,1UKRA
224,2UKRA
225,4UKRA
226,2XXEA
227,5XXEH
228,5XXWU
229,5XXWP
230,5XXWM
231,5XXWT
232,5XXSC
233,5XXWH
234,1USAA
235,1USAB
236,1VENC
237,1YEMC
238,4YEMB
239,5ZAFA
240,1ZAFA
241,2ZAFA
242,1ZAFC
243,1ZMBH
244,1ZMBA
245,1ZWEA