"temporary_password","email","fullname","name"
",73dMvou",ngiela@unhcr.org,Benson Ochiel Ngiela,Yemen
p-iEuxcy,taban@unhcr.org,Robert Taban,Pakistan
"9l86Z_4f",neouze@unhcr.org,Augustin Neouze,Somalia
"4v,jhHer",dakane@unhcr.org,Adan Dakane,South Sudan
edtydZiq,ari@unhcr.org,Falmata Ari,South Sudan
-b9q-wE7,haddad@unhcr.org,Naman Haddad,Greece
:d8:Uvyk,kuritsyn@unhcr.org,Kateryna Kuritsyna,Ukraine
e;g49i;K,pealver@unhcr.org,Ali Penalver,Panama
q_4Uhewr,tibilova@unhcr.org,Rimma Tibilova,Russian Federation (the)
"zl28,Rkl",josepho@unhcr.org,Ouma Joseph,Iraq
.oiEugod,gebrehis@unhcr.org,Samson Gebrehiwot,South Africa
M6ts8?56,newton@unhcr.org,Patrick Newton,Brazil
.zyMoyaf,vasilevv@unhcr.org,Vladimir Vasilevski,Brazil
cwD!fm5a,leroy@unhcr.org,Jean Leroy,Lebanon
xzE9kE3b,ahmadf@unhcr.org,Fareed Ahmad,Lebanon
y_73cXdb,ayoubf@unhcr.org,Frederic Ayoub,Lebanon
-zoNtN4l,chavez@unhcr.org,Andrea Chavez,Mexico
eh1.s1fK,ouattarm@unhcr.org,Moustapha Ouattara,Côte d'Ivoire
eYfd7717,davieso@unhcr.org,Othello A. Davies,Syrian Arab Republic
aZkZif1i,thambu@unhcr.org,Nashon Mutiso Thambu,Uganda
:7fvq6M5,keitab@unhcr.org,Bokar Keita,Chad
s-wiC15u,abdora@unhcr.org,Raouf Abdo,Algeria
b2f9a-Cv,colyce@unhcr.org,Cecilia Coly,Senegal
o3hjD!vi,kolenga@unhcr.org,Theodore Jocelyn Kolenga,Hungary
